EESchema Schematic File Version 4
EELAYER 30 0
EELAYER END
$Descr A4 11693 8268
encoding utf-8
Sheet 1 1
Title ""
Date ""
Rev ""
Comp ""
Comment1 ""
Comment2 ""
Comment3 ""
Comment4 ""
$EndDescr
$Comp
L Transistor_BJT:BC547 Q1
U 1 1 60F07533
P 4400 2200
F 0 "Q1" H 4591 2246 50  0000 L CNN
F 1 "BC547" H 4591 2155 50  0000 L CNN
F 2 "Package_TO_SOT_THT:TO-92_Inline_Wide" H 4600 2125 50  0001 L CIN
F 3 "https://www.onsemi.com/pub/Collateral/BC550-D.pdf" H 4400 2200 50  0001 L CNN
	1    4400 2200
	1    0    0    -1  
$EndComp
$Comp
L Device:R R1
U 1 1 60F0754C
P 3900 2200
F 0 "R1" V 3693 2200 50  0000 C CNN
F 1 "R" V 3784 2200 50  0000 C CNN
F 2 "Resistor_THT:R_Axial_DIN0207_L6.3mm_D2.5mm_P5.08mm_Vertical" V 3830 2200 50  0001 C CNN
F 3 "~" H 3900 2200 50  0001 C CNN
	1    3900 2200
	0    1    1    0   
$EndComp
$Comp
L power:+12V #PWR03
U 1 1 60F07AE3
P 2450 2250
F 0 "#PWR03" H 2450 2100 50  0001 C CNN
F 1 "+12V" H 2465 2423 50  0000 C CNN
F 2 "" H 2450 2250 50  0001 C CNN
F 3 "" H 2450 2250 50  0001 C CNN
	1    2450 2250
	1    0    0    -1  
$EndComp
$Comp
L power:GND #PWR05
U 1 1 60F09A61
P 4500 2600
F 0 "#PWR05" H 4500 2350 50  0001 C CNN
F 1 "GND" H 4505 2427 50  0000 C CNN
F 2 "" H 4500 2600 50  0001 C CNN
F 3 "" H 4500 2600 50  0001 C CNN
	1    4500 2600
	1    0    0    -1  
$EndComp
Wire Wire Line
	4050 2200 4200 2200
Wire Wire Line
	4500 2400 4500 2600
Text GLabel 3650 2200 0    50   Input ~ 0
D2
Wire Wire Line
	3650 2200 3750 2200
Text GLabel 4500 1900 1    50   Input ~ 0
L2
Wire Wire Line
	4500 1900 4500 2000
Text GLabel 8750 3700 3    50   Input ~ 0
L2
Wire Wire Line
	8750 3700 8750 3600
Text GLabel 8650 3700 3    50   Input ~ 0
L3
Text GLabel 8550 3700 3    50   Input ~ 0
L4
Text GLabel 8450 3700 3    50   Input ~ 0
L5
Text GLabel 8350 3700 3    50   Input ~ 0
L6
Text GLabel 8250 3700 3    50   Input ~ 0
L7
Wire Wire Line
	8250 3700 8250 3600
Wire Wire Line
	8350 3600 8350 3700
Wire Wire Line
	8450 3700 8450 3600
Wire Wire Line
	8550 3600 8550 3700
Wire Wire Line
	8650 3700 8650 3600
$Comp
L Transistor_BJT:BC547 Q2
U 1 1 60F11CBC
P 5800 2200
F 0 "Q2" H 5991 2246 50  0000 L CNN
F 1 "BC547" H 5991 2155 50  0000 L CNN
F 2 "Package_TO_SOT_THT:TO-92_Inline_Wide" H 6000 2125 50  0001 L CIN
F 3 "https://www.onsemi.com/pub/Collateral/BC550-D.pdf" H 5800 2200 50  0001 L CNN
	1    5800 2200
	1    0    0    -1  
$EndComp
$Comp
L Device:R R2
U 1 1 60F11CC2
P 5300 2200
F 0 "R2" V 5093 2200 50  0000 C CNN
F 1 "R" V 5184 2200 50  0000 C CNN
F 2 "Resistor_THT:R_Axial_DIN0207_L6.3mm_D2.5mm_P5.08mm_Vertical" V 5230 2200 50  0001 C CNN
F 3 "~" H 5300 2200 50  0001 C CNN
	1    5300 2200
	0    1    1    0   
$EndComp
$Comp
L power:GND #PWR06
U 1 1 60F11CC8
P 5900 2600
F 0 "#PWR06" H 5900 2350 50  0001 C CNN
F 1 "GND" H 5905 2427 50  0000 C CNN
F 2 "" H 5900 2600 50  0001 C CNN
F 3 "" H 5900 2600 50  0001 C CNN
	1    5900 2600
	1    0    0    -1  
$EndComp
Wire Wire Line
	5450 2200 5600 2200
Wire Wire Line
	5900 2400 5900 2600
Text GLabel 5050 2200 0    50   Input ~ 0
D3
Wire Wire Line
	5050 2200 5150 2200
Text GLabel 5900 1900 1    50   Input ~ 0
L3
Wire Wire Line
	5900 1900 5900 2000
$Comp
L Transistor_BJT:BC547 Q3
U 1 1 60F129F7
P 7200 2200
F 0 "Q3" H 7391 2246 50  0000 L CNN
F 1 "BC547" H 7391 2155 50  0000 L CNN
F 2 "Package_TO_SOT_THT:TO-92_Inline_Wide" H 7400 2125 50  0001 L CIN
F 3 "https://www.onsemi.com/pub/Collateral/BC550-D.pdf" H 7200 2200 50  0001 L CNN
	1    7200 2200
	1    0    0    -1  
$EndComp
$Comp
L Device:R R3
U 1 1 60F129FD
P 6700 2200
F 0 "R3" V 6493 2200 50  0000 C CNN
F 1 "R" V 6584 2200 50  0000 C CNN
F 2 "Resistor_THT:R_Axial_DIN0207_L6.3mm_D2.5mm_P5.08mm_Vertical" V 6630 2200 50  0001 C CNN
F 3 "~" H 6700 2200 50  0001 C CNN
	1    6700 2200
	0    1    1    0   
$EndComp
$Comp
L power:GND #PWR07
U 1 1 60F12A03
P 7300 2600
F 0 "#PWR07" H 7300 2350 50  0001 C CNN
F 1 "GND" H 7305 2427 50  0000 C CNN
F 2 "" H 7300 2600 50  0001 C CNN
F 3 "" H 7300 2600 50  0001 C CNN
	1    7300 2600
	1    0    0    -1  
$EndComp
Wire Wire Line
	6850 2200 7000 2200
Wire Wire Line
	7300 2400 7300 2600
Text GLabel 6450 2200 0    50   Input ~ 0
D4
Wire Wire Line
	6450 2200 6550 2200
Text GLabel 7300 1900 1    50   Input ~ 0
L4
Wire Wire Line
	7300 1900 7300 2000
$Comp
L Transistor_BJT:BC547 Q4
U 1 1 60F136FC
P 8600 2200
F 0 "Q4" H 8791 2246 50  0000 L CNN
F 1 "BC547" H 8791 2155 50  0000 L CNN
F 2 "Package_TO_SOT_THT:TO-92_Inline_Wide" H 8800 2125 50  0001 L CIN
F 3 "https://www.onsemi.com/pub/Collateral/BC550-D.pdf" H 8600 2200 50  0001 L CNN
	1    8600 2200
	1    0    0    -1  
$EndComp
$Comp
L Device:R R4
U 1 1 60F13702
P 8100 2200
F 0 "R4" V 7893 2200 50  0000 C CNN
F 1 "R" V 7984 2200 50  0000 C CNN
F 2 "Resistor_THT:R_Axial_DIN0207_L6.3mm_D2.5mm_P5.08mm_Vertical" V 8030 2200 50  0001 C CNN
F 3 "~" H 8100 2200 50  0001 C CNN
	1    8100 2200
	0    1    1    0   
$EndComp
$Comp
L power:GND #PWR08
U 1 1 60F13708
P 8700 2600
F 0 "#PWR08" H 8700 2350 50  0001 C CNN
F 1 "GND" H 8705 2427 50  0000 C CNN
F 2 "" H 8700 2600 50  0001 C CNN
F 3 "" H 8700 2600 50  0001 C CNN
	1    8700 2600
	1    0    0    -1  
$EndComp
Wire Wire Line
	8250 2200 8400 2200
Wire Wire Line
	8700 2400 8700 2600
Text GLabel 7850 2200 0    50   Input ~ 0
D5
Wire Wire Line
	7850 2200 7950 2200
Text GLabel 8700 1900 1    50   Input ~ 0
L5
Wire Wire Line
	8700 1900 8700 2000
$Comp
L Transistor_BJT:BC547 Q5
U 1 1 60F14682
P 4400 3400
F 0 "Q5" H 4591 3446 50  0000 L CNN
F 1 "BC547" H 4591 3355 50  0000 L CNN
F 2 "Package_TO_SOT_THT:TO-92_Inline_Wide" H 4600 3325 50  0001 L CIN
F 3 "https://www.onsemi.com/pub/Collateral/BC550-D.pdf" H 4400 3400 50  0001 L CNN
	1    4400 3400
	1    0    0    -1  
$EndComp
$Comp
L Device:R R5
U 1 1 60F14688
P 3900 3400
F 0 "R5" V 3693 3400 50  0000 C CNN
F 1 "R" V 3784 3400 50  0000 C CNN
F 2 "Resistor_THT:R_Axial_DIN0207_L6.3mm_D2.5mm_P5.08mm_Vertical" V 3830 3400 50  0001 C CNN
F 3 "~" H 3900 3400 50  0001 C CNN
	1    3900 3400
	0    1    1    0   
$EndComp
$Comp
L power:GND #PWR010
U 1 1 60F1468E
P 4500 3800
F 0 "#PWR010" H 4500 3550 50  0001 C CNN
F 1 "GND" H 4505 3627 50  0000 C CNN
F 2 "" H 4500 3800 50  0001 C CNN
F 3 "" H 4500 3800 50  0001 C CNN
	1    4500 3800
	1    0    0    -1  
$EndComp
Wire Wire Line
	4050 3400 4200 3400
Wire Wire Line
	4500 3600 4500 3800
Text GLabel 3650 3400 0    50   Input ~ 0
D6
Wire Wire Line
	3650 3400 3750 3400
Text GLabel 4500 3100 1    50   Input ~ 0
L6
Wire Wire Line
	4500 3100 4500 3200
$Comp
L Transistor_BJT:BC547 Q6
U 1 1 60F16361
P 5800 3400
F 0 "Q6" H 5991 3446 50  0000 L CNN
F 1 "BC547" H 5991 3355 50  0000 L CNN
F 2 "Package_TO_SOT_THT:TO-92_Inline_Wide" H 6000 3325 50  0001 L CIN
F 3 "https://www.onsemi.com/pub/Collateral/BC550-D.pdf" H 5800 3400 50  0001 L CNN
	1    5800 3400
	1    0    0    -1  
$EndComp
$Comp
L Device:R R6
U 1 1 60F16367
P 5300 3400
F 0 "R6" V 5093 3400 50  0000 C CNN
F 1 "R" V 5184 3400 50  0000 C CNN
F 2 "Resistor_THT:R_Axial_DIN0207_L6.3mm_D2.5mm_P5.08mm_Vertical" V 5230 3400 50  0001 C CNN
F 3 "~" H 5300 3400 50  0001 C CNN
	1    5300 3400
	0    1    1    0   
$EndComp
$Comp
L power:GND #PWR011
U 1 1 60F1636D
P 5900 3800
F 0 "#PWR011" H 5900 3550 50  0001 C CNN
F 1 "GND" H 5905 3627 50  0000 C CNN
F 2 "" H 5900 3800 50  0001 C CNN
F 3 "" H 5900 3800 50  0001 C CNN
	1    5900 3800
	1    0    0    -1  
$EndComp
Wire Wire Line
	5450 3400 5600 3400
Wire Wire Line
	5900 3600 5900 3800
Text GLabel 5050 3400 0    50   Input ~ 0
D7
Wire Wire Line
	5050 3400 5150 3400
Text GLabel 5900 3100 1    50   Input ~ 0
L7
Wire Wire Line
	5900 3100 5900 3200
$Comp
L Transistor_BJT:BC547 Q7
U 1 1 60F1731E
P 7200 3400
F 0 "Q7" H 7391 3446 50  0000 L CNN
F 1 "BC547" H 7391 3355 50  0000 L CNN
F 2 "Package_TO_SOT_THT:TO-92_Inline_Wide" H 7400 3325 50  0001 L CIN
F 3 "https://www.onsemi.com/pub/Collateral/BC550-D.pdf" H 7200 3400 50  0001 L CNN
	1    7200 3400
	1    0    0    -1  
$EndComp
$Comp
L Device:R R7
U 1 1 60F17324
P 6700 3400
F 0 "R7" V 6493 3400 50  0000 C CNN
F 1 "R" V 6584 3400 50  0000 C CNN
F 2 "Resistor_THT:R_Axial_DIN0207_L6.3mm_D2.5mm_P5.08mm_Vertical" V 6630 3400 50  0001 C CNN
F 3 "~" H 6700 3400 50  0001 C CNN
	1    6700 3400
	0    1    1    0   
$EndComp
$Comp
L power:GND #PWR012
U 1 1 60F1732A
P 7300 3800
F 0 "#PWR012" H 7300 3550 50  0001 C CNN
F 1 "GND" H 7305 3627 50  0000 C CNN
F 2 "" H 7300 3800 50  0001 C CNN
F 3 "" H 7300 3800 50  0001 C CNN
	1    7300 3800
	1    0    0    -1  
$EndComp
Wire Wire Line
	6850 3400 7000 3400
Wire Wire Line
	7300 3600 7300 3800
Text GLabel 6450 3400 0    50   Input ~ 0
D8
Wire Wire Line
	6450 3400 6550 3400
Text GLabel 7300 3100 1    50   Input ~ 0
L8
Wire Wire Line
	7300 3100 7300 3200
Text GLabel 8150 3700 3    50   Input ~ 0
L8
Wire Wire Line
	8150 3700 8150 3600
$Comp
L Connector:Conn_01x08_Male J3
U 1 1 60F0A191
P 8350 3400
F 0 "J3" V 8185 3328 50  0000 C CNN
F 1 "Letras" V 8276 3328 50  0000 C CNN
F 2 "Connector_PinHeader_2.54mm:PinHeader_1x08_P2.54mm_Vertical" H 8350 3400 50  0001 C CNN
F 3 "~" H 8350 3400 50  0001 C CNN
	1    8350 3400
	0    -1   1    0   
$EndComp
$Comp
L power:+12V #PWR09
U 1 1 60F0C815
P 8050 3750
F 0 "#PWR09" H 8050 3600 50  0001 C CNN
F 1 "+12V" H 8065 3923 50  0000 C CNN
F 2 "" H 8050 3750 50  0001 C CNN
F 3 "" H 8050 3750 50  0001 C CNN
	1    8050 3750
	-1   0    0    1   
$EndComp
Wire Wire Line
	8050 3750 8050 3600
$Comp
L power:PWR_FLAG #FLG02
U 1 1 60F0E902
P 2450 2400
F 0 "#FLG02" H 2450 2475 50  0001 C CNN
F 1 "PWR_FLAG" H 2450 2573 50  0000 C CNN
F 2 "" H 2450 2400 50  0001 C CNN
F 3 "~" H 2450 2400 50  0001 C CNN
	1    2450 2400
	-1   0    0    1   
$EndComp
$Comp
L power:GND #PWR04
U 1 1 60F125B4
P 2850 2400
F 0 "#PWR04" H 2850 2150 50  0001 C CNN
F 1 "GND" H 2855 2227 50  0000 C CNN
F 2 "" H 2850 2400 50  0001 C CNN
F 3 "" H 2850 2400 50  0001 C CNN
	1    2850 2400
	1    0    0    -1  
$EndComp
$Comp
L power:PWR_FLAG #FLG01
U 1 1 60F128B9
P 2850 2250
F 0 "#FLG01" H 2850 2325 50  0001 C CNN
F 1 "PWR_FLAG" H 2850 2423 50  0000 C CNN
F 2 "" H 2850 2250 50  0001 C CNN
F 3 "~" H 2850 2250 50  0001 C CNN
	1    2850 2250
	1    0    0    -1  
$EndComp
Wire Wire Line
	2850 2250 2850 2400
Wire Wire Line
	2450 2400 2450 2250
$Comp
L Connector:Conn_01x15_Female J1
U 1 1 60F1DD46
P 5650 5250
F 0 "J1" H 5500 6150 50  0000 L CNN
F 1 "UNO" H 5500 6050 50  0000 L CNN
F 2 "Connector_PinSocket_2.54mm:PinSocket_1x15_P2.54mm_Vertical" H 5650 5250 50  0001 C CNN
F 3 "~" H 5650 5250 50  0001 C CNN
	1    5650 5250
	0    -1   -1   0   
$EndComp
$Comp
L Connector:Conn_01x15_Female J2
U 1 1 60F21EF6
P 5650 4700
F 0 "J2" H 5542 5585 50  0000 C CNN
F 1 "UNO" H 5600 5500 50  0000 C CNN
F 2 "Connector_PinSocket_2.54mm:PinSocket_1x15_P2.54mm_Vertical" H 5650 4700 50  0001 C CNN
F 3 "~" H 5650 4700 50  0001 C CNN
	1    5650 4700
	0    -1   1    0   
$EndComp
Text GLabel 5350 5550 3    50   Input ~ 0
D2
Text GLabel 5450 5550 3    50   Input ~ 0
D3
Text GLabel 5550 5550 3    50   Input ~ 0
D4
Text GLabel 5650 5550 3    50   Input ~ 0
D5
Text GLabel 5750 5550 3    50   Input ~ 0
D6
Text GLabel 5850 5550 3    50   Input ~ 0
D7
Text GLabel 5950 5550 3    50   Input ~ 0
D8
Wire Wire Line
	5950 5550 5950 5450
Wire Wire Line
	5850 5450 5850 5550
Wire Wire Line
	5750 5450 5750 5550
Wire Wire Line
	5650 5550 5650 5450
Wire Wire Line
	5550 5450 5550 5550
Wire Wire Line
	5450 5550 5450 5450
Wire Wire Line
	5350 5450 5350 5550
$Comp
L power:GND #PWR02
U 1 1 60F2E844
P 5250 5600
F 0 "#PWR02" H 5250 5350 50  0001 C CNN
F 1 "GND" H 5255 5427 50  0000 C CNN
F 2 "" H 5250 5600 50  0001 C CNN
F 3 "" H 5250 5600 50  0001 C CNN
	1    5250 5600
	1    0    0    -1  
$EndComp
Wire Wire Line
	5250 5600 5250 5450
$Comp
L power:+12V #PWR01
U 1 1 60F31C87
P 4800 4400
F 0 "#PWR01" H 4800 4250 50  0001 C CNN
F 1 "+12V" H 4815 4573 50  0000 C CNN
F 2 "" H 4800 4400 50  0001 C CNN
F 3 "" H 4800 4400 50  0001 C CNN
	1    4800 4400
	1    0    0    -1  
$EndComp
Wire Wire Line
	4950 4400 4950 4500
NoConn ~ 4950 5450
NoConn ~ 5050 5450
NoConn ~ 5150 5450
NoConn ~ 6050 5450
NoConn ~ 6150 5450
NoConn ~ 6250 5450
NoConn ~ 6350 5450
NoConn ~ 6350 4500
NoConn ~ 6250 4500
NoConn ~ 6150 4500
NoConn ~ 6050 4500
NoConn ~ 5950 4500
NoConn ~ 5850 4500
NoConn ~ 5750 4500
NoConn ~ 5650 4500
NoConn ~ 5550 4500
NoConn ~ 5450 4500
NoConn ~ 5350 4500
NoConn ~ 5250 4500
NoConn ~ 5150 4500
$Comp
L power:GND #PWR015
U 1 1 60F214A2
P 2700 3650
F 0 "#PWR015" H 2700 3400 50  0001 C CNN
F 1 "GND" H 2705 3477 50  0000 C CNN
F 2 "" H 2700 3650 50  0001 C CNN
F 3 "" H 2700 3650 50  0001 C CNN
	1    2700 3650
	1    0    0    -1  
$EndComp
$Comp
L power:+12V #PWR014
U 1 1 60F21A80
P 2700 3350
F 0 "#PWR014" H 2700 3200 50  0001 C CNN
F 1 "+12V" H 2715 3523 50  0000 C CNN
F 2 "" H 2700 3350 50  0001 C CNN
F 3 "" H 2700 3350 50  0001 C CNN
	1    2700 3350
	1    0    0    -1  
$EndComp
Wire Wire Line
	2700 3350 2700 3400
Wire Wire Line
	2700 3400 2650 3400
Wire Wire Line
	2650 3600 2700 3600
Wire Wire Line
	2700 3600 2700 3650
$Comp
L Device:CP C1
U 1 1 60F2610D
P 2300 4950
F 0 "C1" H 2418 4996 50  0000 L CNN
F 1 "10u" H 2418 4905 50  0000 L CNN
F 2 "Capacitor_THT:CP_Radial_D5.0mm_P2.50mm" H 2338 4800 50  0001 C CNN
F 3 "~" H 2300 4950 50  0001 C CNN
	1    2300 4950
	1    0    0    -1  
$EndComp
$Comp
L power:+12V #PWR013
U 1 1 60F2688D
P 2300 4700
F 0 "#PWR013" H 2300 4550 50  0001 C CNN
F 1 "+12V" H 2315 4873 50  0000 C CNN
F 2 "" H 2300 4700 50  0001 C CNN
F 3 "" H 2300 4700 50  0001 C CNN
	1    2300 4700
	1    0    0    -1  
$EndComp
$Comp
L power:GND #PWR016
U 1 1 60F269F5
P 2850 5200
F 0 "#PWR016" H 2850 4950 50  0001 C CNN
F 1 "GND" H 2855 5027 50  0000 C CNN
F 2 "" H 2850 5200 50  0001 C CNN
F 3 "" H 2850 5200 50  0001 C CNN
	1    2850 5200
	1    0    0    -1  
$EndComp
Wire Notes Line
	2050 1650 9250 1650
Wire Notes Line
	9250 2900 2050 2900
Wire Notes Line
	2050 4150 9250 4150
Wire Notes Line
	2050 5850 9250 5850
Wire Notes Line
	9250 1650 9250 5850
Wire Notes Line
	2050 1650 2050 5850
Wire Notes Line
	4850 1650 4850 4150
Wire Notes Line
	6250 4150 6250 1650
Wire Notes Line
	7650 1650 7650 4150
$Comp
L Connector:Barrel_Jack J4
U 1 1 60F51B7B
P 2350 3500
F 0 "J4" H 2407 3825 50  0000 C CNN
F 1 "12VDC" H 2407 3734 50  0000 C CNN
F 2 "Connector_BarrelJack:BarrelJack_Horizontal" H 2400 3460 50  0001 C CNN
F 3 "~" H 2400 3460 50  0001 C CNN
	1    2350 3500
	1    0    0    -1  
$EndComp
Wire Notes Line
	3300 1650 3300 5850
$Comp
L Device:C C2
U 1 1 60F832D4
P 2850 4950
F 0 "C2" H 2965 4996 50  0000 L CNN
F 1 "100n" H 2965 4905 50  0000 L CNN
F 2 "Capacitor_THT:C_Disc_D6.0mm_W2.5mm_P5.00mm" H 2888 4800 50  0001 C CNN
F 3 "~" H 2850 4950 50  0001 C CNN
	1    2850 4950
	1    0    0    -1  
$EndComp
$Comp
L power:GND #PWR017
U 1 1 60F87BF2
P 2300 5200
F 0 "#PWR017" H 2300 4950 50  0001 C CNN
F 1 "GND" H 2305 5027 50  0000 C CNN
F 2 "" H 2300 5200 50  0001 C CNN
F 3 "" H 2300 5200 50  0001 C CNN
	1    2300 5200
	1    0    0    -1  
$EndComp
Wire Wire Line
	2300 5100 2300 5200
Wire Wire Line
	2850 5100 2850 5200
Wire Wire Line
	2850 4700 2850 4800
Wire Wire Line
	2300 4700 2300 4800
$Comp
L power:+12V #PWR018
U 1 1 60F8CB15
P 2850 4700
F 0 "#PWR018" H 2850 4550 50  0001 C CNN
F 1 "+12V" H 2865 4873 50  0000 C CNN
F 2 "" H 2850 4700 50  0001 C CNN
F 3 "" H 2850 4700 50  0001 C CNN
	1    2850 4700
	1    0    0    -1  
$EndComp
$Comp
L power:GND #PWR0101
U 1 1 60FAA9A0
P 5050 4400
F 0 "#PWR0101" H 5050 4150 50  0001 C CNN
F 1 "GND" H 5055 4227 50  0000 C CNN
F 2 "" H 5050 4400 50  0001 C CNN
F 3 "" H 5050 4400 50  0001 C CNN
	1    5050 4400
	-1   0    0    1   
$EndComp
Wire Wire Line
	5050 4400 5050 4500
Wire Wire Line
	4950 4400 4800 4400
$EndSCHEMATC
