EESchema Schematic File Version 4
EELAYER 30 0
EELAYER END
$Descr A4 11693 8268
encoding utf-8
Sheet 1 1
Title ""
Date ""
Rev ""
Comp ""
Comment1 ""
Comment2 ""
Comment3 ""
Comment4 ""
$EndDescr
$Comp
L Device:LED D1
U 1 1 61530D40
P 8900 2050
F 0 "D1" H 8893 1795 50  0000 C CNN
F 1 "LED" H 8893 1886 50  0000 C CNN
F 2 "LED_THT:LED_D5.0mm" H 8900 2050 50  0001 C CNN
F 3 "~" H 8900 2050 50  0001 C CNN
	1    8900 2050
	-1   0    0    1   
$EndComp
$Comp
L Device:LED D2
U 1 1 615318EB
P 8900 2400
F 0 "D2" H 8893 2145 50  0000 C CNN
F 1 "LED" H 8893 2236 50  0000 C CNN
F 2 "LED_THT:LED_D5.0mm" H 8900 2400 50  0001 C CNN
F 3 "~" H 8900 2400 50  0001 C CNN
	1    8900 2400
	-1   0    0    1   
$EndComp
$Comp
L Device:LED D3
U 1 1 61531A7B
P 8900 2750
F 0 "D3" H 8893 2495 50  0000 C CNN
F 1 "LED" H 8893 2586 50  0000 C CNN
F 2 "LED_THT:LED_D5.0mm" H 8900 2750 50  0001 C CNN
F 3 "~" H 8900 2750 50  0001 C CNN
	1    8900 2750
	-1   0    0    1   
$EndComp
$Comp
L Device:LED D4
U 1 1 61531C1F
P 8900 3100
F 0 "D4" H 8893 2845 50  0000 C CNN
F 1 "LED" H 8893 2936 50  0000 C CNN
F 2 "LED_THT:LED_D5.0mm" H 8900 3100 50  0001 C CNN
F 3 "~" H 8900 3100 50  0001 C CNN
	1    8900 3100
	-1   0    0    1   
$EndComp
$Comp
L Device:LED D5
U 1 1 61531D93
P 8900 3450
F 0 "D5" H 8893 3195 50  0000 C CNN
F 1 "LED" H 8893 3286 50  0000 C CNN
F 2 "LED_THT:LED_D5.0mm" H 8900 3450 50  0001 C CNN
F 3 "~" H 8900 3450 50  0001 C CNN
	1    8900 3450
	-1   0    0    1   
$EndComp
$Comp
L Device:LED D6
U 1 1 61531F1B
P 8900 3800
F 0 "D6" H 8893 3545 50  0000 C CNN
F 1 "LED" H 8893 3636 50  0000 C CNN
F 2 "LED_THT:LED_D5.0mm" H 8900 3800 50  0001 C CNN
F 3 "~" H 8900 3800 50  0001 C CNN
	1    8900 3800
	-1   0    0    1   
$EndComp
$Comp
L Device:LED D7
U 1 1 615320B7
P 8900 4150
F 0 "D7" H 8893 3895 50  0000 C CNN
F 1 "LED" H 8893 3986 50  0000 C CNN
F 2 "LED_THT:LED_D5.0mm" H 8900 4150 50  0001 C CNN
F 3 "~" H 8900 4150 50  0001 C CNN
	1    8900 4150
	-1   0    0    1   
$EndComp
$Comp
L Device:R_Small R1
U 1 1 61532ED7
P 8550 2050
F 0 "R1" V 8354 2050 50  0000 C CNN
F 1 "R_Small" V 8445 2050 50  0000 C CNN
F 2 "Resistor_SMD:R_0805_2012Metric_Pad1.20x1.40mm_HandSolder" H 8550 2050 50  0001 C CNN
F 3 "~" H 8550 2050 50  0001 C CNN
	1    8550 2050
	0    1    1    0   
$EndComp
$Comp
L Device:R_Small R2
U 1 1 61533AB8
P 8550 2400
F 0 "R2" V 8354 2400 50  0000 C CNN
F 1 "R_Small" V 8445 2400 50  0000 C CNN
F 2 "Resistor_SMD:R_0805_2012Metric_Pad1.20x1.40mm_HandSolder" H 8550 2400 50  0001 C CNN
F 3 "~" H 8550 2400 50  0001 C CNN
	1    8550 2400
	0    1    1    0   
$EndComp
$Comp
L Device:R_Small R3
U 1 1 61533CA1
P 8550 2750
F 0 "R3" V 8354 2750 50  0000 C CNN
F 1 "R_Small" V 8445 2750 50  0000 C CNN
F 2 "Resistor_SMD:R_0805_2012Metric_Pad1.20x1.40mm_HandSolder" H 8550 2750 50  0001 C CNN
F 3 "~" H 8550 2750 50  0001 C CNN
	1    8550 2750
	0    1    1    0   
$EndComp
$Comp
L Device:R_Small R4
U 1 1 61533E35
P 8550 3100
F 0 "R4" V 8354 3100 50  0000 C CNN
F 1 "R_Small" V 8445 3100 50  0000 C CNN
F 2 "Resistor_SMD:R_0805_2012Metric_Pad1.20x1.40mm_HandSolder" H 8550 3100 50  0001 C CNN
F 3 "~" H 8550 3100 50  0001 C CNN
	1    8550 3100
	0    1    1    0   
$EndComp
$Comp
L Device:R_Small R5
U 1 1 61533F1F
P 8550 3450
F 0 "R5" V 8354 3450 50  0000 C CNN
F 1 "R_Small" V 8445 3450 50  0000 C CNN
F 2 "Resistor_SMD:R_0805_2012Metric_Pad1.20x1.40mm_HandSolder" H 8550 3450 50  0001 C CNN
F 3 "~" H 8550 3450 50  0001 C CNN
	1    8550 3450
	0    1    1    0   
$EndComp
$Comp
L Device:R_Small R6
U 1 1 61534148
P 8550 3800
F 0 "R6" V 8354 3800 50  0000 C CNN
F 1 "R_Small" V 8445 3800 50  0000 C CNN
F 2 "Resistor_SMD:R_0805_2012Metric_Pad1.20x1.40mm_HandSolder" H 8550 3800 50  0001 C CNN
F 3 "~" H 8550 3800 50  0001 C CNN
	1    8550 3800
	0    1    1    0   
$EndComp
$Comp
L Device:R_Small R7
U 1 1 6153434E
P 8550 4150
F 0 "R7" V 8354 4150 50  0000 C CNN
F 1 "R_Small" V 8445 4150 50  0000 C CNN
F 2 "Resistor_SMD:R_0805_2012Metric_Pad1.20x1.40mm_HandSolder" H 8550 4150 50  0001 C CNN
F 3 "~" H 8550 4150 50  0001 C CNN
	1    8550 4150
	0    1    1    0   
$EndComp
Wire Wire Line
	8650 4150 8750 4150
Wire Wire Line
	8750 3800 8650 3800
Wire Wire Line
	8650 3450 8750 3450
Wire Wire Line
	8750 3100 8650 3100
Wire Wire Line
	8650 2750 8750 2750
Wire Wire Line
	8750 2400 8650 2400
Wire Wire Line
	8650 2050 8750 2050
Text GLabel 8300 2050 0    50   Input ~ 0
P1
Text GLabel 8300 2400 0    50   Input ~ 0
P2
Text GLabel 8300 2750 0    50   Input ~ 0
P3
Text GLabel 8300 3100 0    50   Input ~ 0
P4
Text GLabel 8300 3450 0    50   Input ~ 0
P5
Text GLabel 8300 3800 0    50   Input ~ 0
P6
Text GLabel 8300 4150 0    50   Input ~ 0
P7
Wire Wire Line
	8300 2050 8450 2050
Wire Wire Line
	8450 2400 8300 2400
Wire Wire Line
	8300 2750 8450 2750
Wire Wire Line
	8450 3100 8300 3100
Wire Wire Line
	8300 3450 8450 3450
Wire Wire Line
	8450 3800 8300 3800
Wire Wire Line
	8300 4150 8450 4150
$Comp
L power:VCC #PWR01
U 1 1 61544C38
P 2050 1950
F 0 "#PWR01" H 2050 1800 50  0001 C CNN
F 1 "VCC" H 2065 2123 50  0000 C CNN
F 2 "" H 2050 1950 50  0001 C CNN
F 3 "" H 2050 1950 50  0001 C CNN
	1    2050 1950
	1    0    0    -1  
$EndComp
$Comp
L power:GND #PWR03
U 1 1 61545307
P 9250 4350
F 0 "#PWR03" H 9250 4100 50  0001 C CNN
F 1 "GND" H 9255 4177 50  0000 C CNN
F 2 "" H 9250 4350 50  0001 C CNN
F 3 "" H 9250 4350 50  0001 C CNN
	1    9250 4350
	1    0    0    -1  
$EndComp
Wire Wire Line
	9250 4350 9250 4150
Wire Wire Line
	9250 2050 9050 2050
Wire Wire Line
	9050 2400 9250 2400
Connection ~ 9250 2400
Wire Wire Line
	9250 2400 9250 2050
Wire Wire Line
	9250 2750 9050 2750
Connection ~ 9250 2750
Wire Wire Line
	9250 2750 9250 2400
Wire Wire Line
	9050 3100 9250 3100
Connection ~ 9250 3100
Wire Wire Line
	9250 3100 9250 2750
Wire Wire Line
	9250 3450 9050 3450
Connection ~ 9250 3450
Wire Wire Line
	9250 3450 9250 3100
Wire Wire Line
	9050 3800 9250 3800
Connection ~ 9250 3800
Wire Wire Line
	9250 3800 9250 3450
Wire Wire Line
	9250 4150 9050 4150
Connection ~ 9250 4150
Wire Wire Line
	9250 4150 9250 3800
$Comp
L Device:Buzzer BZ1
U 1 1 615581B9
P 1700 4600
F 0 "BZ1" V 1751 4413 50  0000 R CNN
F 1 "Buzzer" V 1660 4413 50  0000 R CNN
F 2 "Connector_PinHeader_2.54mm:PinHeader_2x01_P2.54mm_Vertical_SMD" V 1675 4700 50  0001 C CNN
F 3 "~" V 1675 4700 50  0001 C CNN
	1    1700 4600
	0    -1   -1   0   
$EndComp
$Comp
L power:GND #PWR02
U 1 1 615593A9
P 1800 4750
F 0 "#PWR02" H 1800 4500 50  0001 C CNN
F 1 "GND" H 1805 4577 50  0000 C CNN
F 2 "" H 1800 4750 50  0001 C CNN
F 3 "" H 1800 4750 50  0001 C CNN
	1    1800 4750
	1    0    0    -1  
$EndComp
Text GLabel 1600 4750 3    50   Input ~ 0
Buzzer
Wire Wire Line
	1600 4750 1600 4700
Wire Wire Line
	1800 4700 1800 4750
$Comp
L power:GND #PWR0101
U 1 1 615896BF
P 1650 1950
F 0 "#PWR0101" H 1650 1700 50  0001 C CNN
F 1 "GND" H 1655 1777 50  0000 C CNN
F 2 "" H 1650 1950 50  0001 C CNN
F 3 "" H 1650 1950 50  0001 C CNN
	1    1650 1950
	-1   0    0    1   
$EndComp
Text GLabel 6600 4050 2    50   Input ~ 0
P1
Text GLabel 6600 4250 2    50   Input ~ 0
P2
Text GLabel 6600 4150 2    50   Input ~ 0
P3
Text GLabel 6600 2050 2    50   Input ~ 0
P4
Text GLabel 6600 1950 2    50   Input ~ 0
P5
Text GLabel 6600 4350 2    50   Input ~ 0
P6
Text GLabel 6600 2150 2    50   Input ~ 0
P7
Wire Wire Line
	6600 4050 6450 4050
Wire Wire Line
	6450 4150 6600 4150
Wire Wire Line
	6600 4250 6450 4250
Wire Wire Line
	6450 4350 6600 4350
Wire Wire Line
	6600 1950 6450 1950
Wire Wire Line
	6450 2050 6600 2050
Wire Wire Line
	6600 2150 6450 2150
Text Notes 8300 4800 0    50   ~ 0
NOTE:\nP6 is swap with P4\nP2 is swap with P3\n
$Comp
L Device:Crystal_GND24 Y1
U 1 1 615AEC91
P 1700 6200
F 0 "Y1" H 1750 6500 50  0000 L CNN
F 1 "Crystal_GND24" H 1750 6400 50  0000 L CNN
F 2 "Crystal:Crystal_SMD_3225-4Pin_3.2x2.5mm_HandSoldering" H 1700 6200 50  0001 C CNN
F 3 "~" H 1700 6200 50  0001 C CNN
	1    1700 6200
	1    0    0    -1  
$EndComp
Text GLabel 1450 6200 0    50   Input ~ 0
XTAL1
Text GLabel 1950 6200 2    50   Input ~ 0
XTAL2
Wire Wire Line
	1950 6200 1850 6200
Wire Wire Line
	1550 6200 1450 6200
$Comp
L power:GND #PWR0103
U 1 1 615B5458
P 1700 6500
F 0 "#PWR0103" H 1700 6250 50  0001 C CNN
F 1 "GND" H 1705 6327 50  0000 C CNN
F 2 "" H 1700 6500 50  0001 C CNN
F 3 "" H 1700 6500 50  0001 C CNN
	1    1700 6500
	1    0    0    -1  
$EndComp
$Comp
L power:GND #PWR0104
U 1 1 615B5A71
P 1700 5900
F 0 "#PWR0104" H 1700 5650 50  0001 C CNN
F 1 "GND" H 1705 5727 50  0000 C CNN
F 2 "" H 1700 5900 50  0001 C CNN
F 3 "" H 1700 5900 50  0001 C CNN
	1    1700 5900
	-1   0    0    1   
$EndComp
Wire Wire Line
	1700 5900 1700 6000
Wire Wire Line
	1700 6500 1700 6400
Text GLabel 6600 2550 2    50   Input ~ 0
XTAL1
Wire Wire Line
	6600 2550 6450 2550
Text GLabel 6600 2650 2    50   Input ~ 0
XTAL2
Wire Wire Line
	6450 2650 6600 2650
$Comp
L Device:C C1
U 1 1 615BAEEE
P 1450 6450
F 0 "C1" H 1565 6496 50  0000 L CNN
F 1 "22p" H 1565 6405 50  0000 L CNN
F 2 "Capacitor_SMD:C_0805_2012Metric_Pad1.18x1.45mm_HandSolder" H 1488 6300 50  0001 C CNN
F 3 "~" H 1450 6450 50  0001 C CNN
	1    1450 6450
	1    0    0    -1  
$EndComp
$Comp
L Device:C C2
U 1 1 615BB18E
P 1950 6450
F 0 "C2" H 2065 6496 50  0000 L CNN
F 1 "22p" H 2065 6405 50  0000 L CNN
F 2 "Capacitor_SMD:C_0805_2012Metric_Pad1.18x1.45mm_HandSolder" H 1988 6300 50  0001 C CNN
F 3 "~" H 1950 6450 50  0001 C CNN
	1    1950 6450
	1    0    0    -1  
$EndComp
Wire Wire Line
	1950 6300 1950 6200
Wire Wire Line
	1450 6200 1450 6300
$Comp
L power:GND #PWR0105
U 1 1 615D1B86
P 1450 6700
F 0 "#PWR0105" H 1450 6450 50  0001 C CNN
F 1 "GND" H 1455 6527 50  0000 C CNN
F 2 "" H 1450 6700 50  0001 C CNN
F 3 "" H 1450 6700 50  0001 C CNN
	1    1450 6700
	1    0    0    -1  
$EndComp
$Comp
L power:GND #PWR0106
U 1 1 615D2CB4
P 1950 6700
F 0 "#PWR0106" H 1950 6450 50  0001 C CNN
F 1 "GND" H 1955 6527 50  0000 C CNN
F 2 "" H 1950 6700 50  0001 C CNN
F 3 "" H 1950 6700 50  0001 C CNN
	1    1950 6700
	1    0    0    -1  
$EndComp
Wire Wire Line
	1950 6600 1950 6700
Wire Wire Line
	1450 6700 1450 6600
Text GLabel 4000 3450 2    50   Input ~ 0
MOSI
Text GLabel 6600 2350 2    50   Input ~ 0
MISO
Text GLabel 6600 2250 2    50   Input ~ 0
MOSI
Wire Wire Line
	6600 2250 6450 2250
Wire Wire Line
	6450 2350 6600 2350
Text GLabel 6600 3450 2    50   Input ~ 0
RESET
Wire Wire Line
	6600 3450 6450 3450
$Comp
L Device:R_Small R8
U 1 1 61662499
P 3550 1700
F 0 "R8" V 3354 1700 50  0000 C CNN
F 1 "1k" V 3445 1700 50  0000 C CNN
F 2 "Resistor_SMD:R_0805_2012Metric_Pad1.20x1.40mm_HandSolder" H 3550 1700 50  0001 C CNN
F 3 "~" H 3550 1700 50  0001 C CNN
	1    3550 1700
	1    0    0    -1  
$EndComp
Wire Wire Line
	3550 1800 3550 1900
Connection ~ 3550 1900
Wire Wire Line
	3550 1900 3550 1950
Text GLabel 3800 1900 2    50   Input ~ 0
RESET
$Comp
L power:GND #PWR0102
U 1 1 6166FE89
P 3550 2400
F 0 "#PWR0102" H 3550 2150 50  0001 C CNN
F 1 "GND" H 3555 2227 50  0000 C CNN
F 2 "" H 3550 2400 50  0001 C CNN
F 3 "" H 3550 2400 50  0001 C CNN
	1    3550 2400
	1    0    0    -1  
$EndComp
$Comp
L power:VCC #PWR0107
U 1 1 61670375
P 3550 1550
F 0 "#PWR0107" H 3550 1400 50  0001 C CNN
F 1 "VCC" H 3565 1723 50  0000 C CNN
F 2 "" H 3550 1550 50  0001 C CNN
F 3 "" H 3550 1550 50  0001 C CNN
	1    3550 1550
	1    0    0    -1  
$EndComp
Wire Wire Line
	3550 2400 3550 2350
Wire Wire Line
	3550 1600 3550 1550
$Comp
L Connector_Generic:Conn_02x03_Odd_Even J1
U 1 1 6168D960
P 3600 3450
F 0 "J1" H 3650 3767 50  0000 C CNN
F 1 "SPI" H 3650 3676 50  0000 C CNN
F 2 "Connector_PinHeader_2.54mm:PinHeader_2x03_P2.54mm_Vertical_SMD" H 3600 3450 50  0001 C CNN
F 3 "~" H 3600 3450 50  0001 C CNN
	1    3600 3450
	1    0    0    -1  
$EndComp
Text GLabel 3300 3450 0    50   Input ~ 0
SCK
Text GLabel 3300 3350 0    50   Input ~ 0
MISO
Text GLabel 3300 3550 0    50   Input ~ 0
RESET
$Comp
L power:VCC #PWR0108
U 1 1 61693238
P 4000 3350
F 0 "#PWR0108" H 4000 3200 50  0001 C CNN
F 1 "VCC" H 4015 3523 50  0000 C CNN
F 2 "" H 4000 3350 50  0001 C CNN
F 3 "" H 4000 3350 50  0001 C CNN
	1    4000 3350
	1    0    0    -1  
$EndComp
$Comp
L power:GND #PWR0109
U 1 1 61697724
P 4000 3550
F 0 "#PWR0109" H 4000 3300 50  0001 C CNN
F 1 "GND" H 4005 3377 50  0000 C CNN
F 2 "" H 4000 3550 50  0001 C CNN
F 3 "" H 4000 3550 50  0001 C CNN
	1    4000 3550
	1    0    0    -1  
$EndComp
Wire Wire Line
	4000 3550 3900 3550
Wire Wire Line
	3900 3450 4000 3450
Wire Wire Line
	4000 3350 3900 3350
Wire Wire Line
	3300 3350 3400 3350
Wire Wire Line
	3400 3450 3300 3450
Wire Wire Line
	3300 3550 3400 3550
$Comp
L power:PWR_FLAG #FLG0101
U 1 1 616B236F
P 1650 2050
F 0 "#FLG0101" H 1650 2125 50  0001 C CNN
F 1 "PWR_FLAG" H 1650 2223 50  0000 C CNN
F 2 "" H 1650 2050 50  0001 C CNN
F 3 "~" H 1650 2050 50  0001 C CNN
	1    1650 2050
	-1   0    0    1   
$EndComp
$Comp
L power:PWR_FLAG #FLG0102
U 1 1 616B8DC2
P 2050 2050
F 0 "#FLG0102" H 2050 2125 50  0001 C CNN
F 1 "PWR_FLAG" H 2050 2223 50  0000 C CNN
F 2 "" H 2050 2050 50  0001 C CNN
F 3 "~" H 2050 2050 50  0001 C CNN
	1    2050 2050
	-1   0    0    1   
$EndComp
Wire Wire Line
	2050 2050 2050 1950
Wire Wire Line
	1650 1950 1650 2050
Text GLabel 6600 2450 2    50   Input ~ 0
SCK
Wire Wire Line
	6600 2450 6450 2450
NoConn ~ 6450 2850
NoConn ~ 6450 2950
NoConn ~ 6450 3050
NoConn ~ 6450 3150
NoConn ~ 6450 3350
NoConn ~ 6450 3650
NoConn ~ 6450 3750
NoConn ~ 6450 3850
$Comp
L power:VCC #PWR0110
U 1 1 616F8A5B
P 5950 1550
F 0 "#PWR0110" H 5950 1400 50  0001 C CNN
F 1 "VCC" H 5965 1723 50  0000 C CNN
F 2 "" H 5950 1550 50  0001 C CNN
F 3 "" H 5950 1550 50  0001 C CNN
	1    5950 1550
	1    0    0    -1  
$EndComp
Wire Wire Line
	5950 1550 5950 1650
Wire Wire Line
	5950 1550 5850 1550
Wire Wire Line
	5850 1550 5850 1650
Connection ~ 5950 1550
$Comp
L power:GND #PWR0111
U 1 1 616FEBEF
P 5850 4750
F 0 "#PWR0111" H 5850 4500 50  0001 C CNN
F 1 "GND" H 5850 4550 50  0000 C CNN
F 2 "" H 5850 4750 50  0001 C CNN
F 3 "" H 5850 4750 50  0001 C CNN
	1    5850 4750
	1    0    0    -1  
$EndComp
Wire Wire Line
	5850 4750 5850 4650
NoConn ~ 5250 2150
NoConn ~ 5250 2250
NoConn ~ 5250 1950
$Comp
L Device:R_Small R9
U 1 1 61719249
P 3250 4550
F 0 "R9" V 3054 4550 50  0000 C CNN
F 1 "1k" V 3145 4550 50  0000 C CNN
F 2 "Resistor_SMD:R_0805_2012Metric_Pad1.20x1.40mm_HandSolder" H 3250 4550 50  0001 C CNN
F 3 "~" H 3250 4550 50  0001 C CNN
	1    3250 4550
	1    0    0    -1  
$EndComp
Wire Wire Line
	3250 4650 3250 4750
Wire Wire Line
	3250 4750 3500 4750
Connection ~ 3250 4750
Text GLabel 3500 4750 2    50   Input ~ 0
Pulsador
$Comp
L power:GND #PWR0112
U 1 1 6171925A
P 3250 5250
F 0 "#PWR0112" H 3250 5000 50  0001 C CNN
F 1 "GND" H 3255 5077 50  0000 C CNN
F 2 "" H 3250 5250 50  0001 C CNN
F 3 "" H 3250 5250 50  0001 C CNN
	1    3250 5250
	1    0    0    -1  
$EndComp
$Comp
L power:VCC #PWR0113
U 1 1 61719260
P 3250 4400
F 0 "#PWR0113" H 3250 4250 50  0001 C CNN
F 1 "VCC" H 3265 4573 50  0000 C CNN
F 2 "" H 3250 4400 50  0001 C CNN
F 3 "" H 3250 4400 50  0001 C CNN
	1    3250 4400
	1    0    0    -1  
$EndComp
Wire Wire Line
	3250 4450 3250 4400
Text GLabel 6600 3950 2    50   Input ~ 0
Pulsador
Wire Wire Line
	6600 3950 6450 3950
$Comp
L MCU_Microchip_ATmega:ATmega328P-AU U1
U 1 1 61745FD6
P 5850 3150
F 0 "U1" H 6050 1600 50  0000 C CNN
F 1 "ATmega328P-AU" H 6300 1700 50  0000 C CNN
F 2 "Package_QFP:TQFP-32_7x7mm_P0.8mm" H 5850 3150 50  0001 C CIN
F 3 "http://ww1.microchip.com/downloads/en/DeviceDoc/ATmega328_P%20AVR%20MCU%20with%20picoPower%20Technology%20Data%20Sheet%2040001984A.pdf" H 5850 3150 50  0001 C CNN
	1    5850 3150
	1    0    0    -1  
$EndComp
$Comp
L Connector:Conn_01x02_Male J2
U 1 1 61753ECB
P 3450 5050
F 0 "J2" H 3422 4932 50  0000 R CNN
F 1 "Pulsador" H 3422 5023 50  0000 R CNN
F 2 "Connector_PinHeader_2.54mm:PinHeader_2x01_P2.54mm_Vertical_SMD" H 3450 5050 50  0001 C CNN
F 3 "~" H 3450 5050 50  0001 C CNN
	1    3450 5050
	-1   0    0    1   
$EndComp
Wire Wire Line
	3250 5050 3250 5150
Wire Wire Line
	3250 4750 3250 4850
$Comp
L Connector:Conn_01x02_Male J4
U 1 1 6168F0D4
P 4100 5050
F 0 "J4" H 4072 4932 50  0000 R CNN
F 1 "Sensor" H 4072 5023 50  0000 R CNN
F 2 "Connector_PinHeader_2.54mm:PinHeader_2x01_P2.54mm_Vertical_SMD" H 4100 5050 50  0001 C CNN
F 3 "~" H 4100 5050 50  0001 C CNN
	1    4100 5050
	-1   0    0    1   
$EndComp
Wire Wire Line
	3250 4850 3900 4850
Wire Wire Line
	3900 4850 3900 4950
Connection ~ 3250 4850
Wire Wire Line
	3250 4850 3250 4950
Wire Wire Line
	3900 5050 3900 5150
Wire Wire Line
	3900 5150 3250 5150
Connection ~ 3250 5150
Wire Wire Line
	3250 5150 3250 5250
$Comp
L power:VCC #PWR04
U 1 1 6169B9C3
P 1650 3250
F 0 "#PWR04" H 1650 3100 50  0001 C CNN
F 1 "VCC" H 1665 3423 50  0000 C CNN
F 2 "" H 1650 3250 50  0001 C CNN
F 3 "" H 1650 3250 50  0001 C CNN
	1    1650 3250
	1    0    0    -1  
$EndComp
$Comp
L power:GND #PWR05
U 1 1 6169B9C9
P 1650 3550
F 0 "#PWR05" H 1650 3300 50  0001 C CNN
F 1 "GND" H 1655 3377 50  0000 C CNN
F 2 "" H 1650 3550 50  0001 C CNN
F 3 "" H 1650 3550 50  0001 C CNN
	1    1650 3550
	1    0    0    -1  
$EndComp
Wire Wire Line
	1650 3350 1650 3250
Wire Wire Line
	1650 3550 1650 3450
$Comp
L Connector:Conn_01x02_Male J3
U 1 1 616AD5E6
P 1850 3450
F 0 "J3" H 1822 3332 50  0000 R CNN
F 1 "Vcc" H 1822 3423 50  0000 R CNN
F 2 "Connector_PinHeader_2.54mm:PinHeader_2x01_P2.54mm_Vertical_SMD" H 1850 3450 50  0001 C CNN
F 3 "~" H 1850 3450 50  0001 C CNN
	1    1850 3450
	-1   0    0    1   
$EndComp
Text GLabel 6600 3250 2    50   Input ~ 0
Buzzer
Wire Wire Line
	6450 3250 6600 3250
Wire Wire Line
	3550 1900 3800 1900
$Comp
L Switch:SW_Push SW1
U 1 1 616665AD
P 3550 2150
F 0 "SW1" V 3596 2102 50  0000 R CNN
F 1 "Reset" V 3505 2102 50  0000 R CNN
F 2 "Button_Switch_SMD:SW_SPST_CK_RS282G05A3" H 3550 2350 50  0001 C CNN
F 3 "~" H 3550 2350 50  0001 C CNN
	1    3550 2150
	0    -1   -1   0   
$EndComp
Text Notes 9750 2550 0    50   ~ 0
Calculo de R1 - R7\n\nI = 10 mA\nV_on = 1.7 V\n\nR = (5 - 1.8) / 0.01\nR = 320 -> 330 ohms
$EndSCHEMATC
