%TF.GenerationSoftware,KiCad,Pcbnew,5.1.9*%
%TF.CreationDate,2021-04-20T07:42:04-05:00*%
%TF.ProjectId,DisplayHelice,44697370-6c61-4794-9865-6c6963652e6b,rev?*%
%TF.SameCoordinates,Original*%
%TF.FileFunction,Soldermask,Top*%
%TF.FilePolarity,Negative*%
%FSLAX46Y46*%
G04 Gerber Fmt 4.6, Leading zero omitted, Abs format (unit mm)*
G04 Created by KiCad (PCBNEW 5.1.9) date 2021-04-20 07:42:04*
%MOMM*%
%LPD*%
G01*
G04 APERTURE LIST*
%TA.AperFunction,Profile*%
%ADD10C,0.100000*%
%TD*%
%ADD11O,1.700000X1.700000*%
%ADD12R,1.700000X1.700000*%
G04 APERTURE END LIST*
D10*
X186100000Y-80700000D02*
X186100000Y-105700000D01*
X86100000Y-80700000D02*
X186100000Y-80700000D01*
X86100000Y-105700000D02*
X86100000Y-80700000D01*
X186100000Y-105700000D02*
X86100000Y-105700000D01*
D11*
%TO.C,U1*%
X93580000Y-83400000D03*
X91040000Y-83400000D03*
D12*
X88500000Y-83400000D03*
%TD*%
D11*
%TO.C,SW1*%
X94800000Y-103300000D03*
D12*
X97340000Y-103300000D03*
%TD*%
%TO.C,R11*%
G36*
G01*
X182849999Y-91100000D02*
X183750001Y-91100000D01*
G75*
G02*
X184000000Y-91349999I0J-249999D01*
G01*
X184000000Y-92050001D01*
G75*
G02*
X183750001Y-92300000I-249999J0D01*
G01*
X182849999Y-92300000D01*
G75*
G02*
X182600000Y-92050001I0J249999D01*
G01*
X182600000Y-91349999D01*
G75*
G02*
X182849999Y-91100000I249999J0D01*
G01*
G37*
G36*
G01*
X182849999Y-89100000D02*
X183750001Y-89100000D01*
G75*
G02*
X184000000Y-89349999I0J-249999D01*
G01*
X184000000Y-90050001D01*
G75*
G02*
X183750001Y-90300000I-249999J0D01*
G01*
X182849999Y-90300000D01*
G75*
G02*
X182600000Y-90050001I0J249999D01*
G01*
X182600000Y-89349999D01*
G75*
G02*
X182849999Y-89100000I249999J0D01*
G01*
G37*
%TD*%
%TO.C,R10*%
G36*
G01*
X179549999Y-91100000D02*
X180450001Y-91100000D01*
G75*
G02*
X180700000Y-91349999I0J-249999D01*
G01*
X180700000Y-92050001D01*
G75*
G02*
X180450001Y-92300000I-249999J0D01*
G01*
X179549999Y-92300000D01*
G75*
G02*
X179300000Y-92050001I0J249999D01*
G01*
X179300000Y-91349999D01*
G75*
G02*
X179549999Y-91100000I249999J0D01*
G01*
G37*
G36*
G01*
X179549999Y-89100000D02*
X180450001Y-89100000D01*
G75*
G02*
X180700000Y-89349999I0J-249999D01*
G01*
X180700000Y-90050001D01*
G75*
G02*
X180450001Y-90300000I-249999J0D01*
G01*
X179549999Y-90300000D01*
G75*
G02*
X179300000Y-90050001I0J249999D01*
G01*
X179300000Y-89349999D01*
G75*
G02*
X179549999Y-89100000I249999J0D01*
G01*
G37*
%TD*%
%TO.C,R9*%
G36*
G01*
X176249999Y-91100000D02*
X177150001Y-91100000D01*
G75*
G02*
X177400000Y-91349999I0J-249999D01*
G01*
X177400000Y-92050001D01*
G75*
G02*
X177150001Y-92300000I-249999J0D01*
G01*
X176249999Y-92300000D01*
G75*
G02*
X176000000Y-92050001I0J249999D01*
G01*
X176000000Y-91349999D01*
G75*
G02*
X176249999Y-91100000I249999J0D01*
G01*
G37*
G36*
G01*
X176249999Y-89100000D02*
X177150001Y-89100000D01*
G75*
G02*
X177400000Y-89349999I0J-249999D01*
G01*
X177400000Y-90050001D01*
G75*
G02*
X177150001Y-90300000I-249999J0D01*
G01*
X176249999Y-90300000D01*
G75*
G02*
X176000000Y-90050001I0J249999D01*
G01*
X176000000Y-89349999D01*
G75*
G02*
X176249999Y-89100000I249999J0D01*
G01*
G37*
%TD*%
%TO.C,R8*%
G36*
G01*
X172949999Y-91100000D02*
X173850001Y-91100000D01*
G75*
G02*
X174100000Y-91349999I0J-249999D01*
G01*
X174100000Y-92050001D01*
G75*
G02*
X173850001Y-92300000I-249999J0D01*
G01*
X172949999Y-92300000D01*
G75*
G02*
X172700000Y-92050001I0J249999D01*
G01*
X172700000Y-91349999D01*
G75*
G02*
X172949999Y-91100000I249999J0D01*
G01*
G37*
G36*
G01*
X172949999Y-89100000D02*
X173850001Y-89100000D01*
G75*
G02*
X174100000Y-89349999I0J-249999D01*
G01*
X174100000Y-90050001D01*
G75*
G02*
X173850001Y-90300000I-249999J0D01*
G01*
X172949999Y-90300000D01*
G75*
G02*
X172700000Y-90050001I0J249999D01*
G01*
X172700000Y-89349999D01*
G75*
G02*
X172949999Y-89100000I249999J0D01*
G01*
G37*
%TD*%
%TO.C,R7*%
G36*
G01*
X169649999Y-91100000D02*
X170550001Y-91100000D01*
G75*
G02*
X170800000Y-91349999I0J-249999D01*
G01*
X170800000Y-92050001D01*
G75*
G02*
X170550001Y-92300000I-249999J0D01*
G01*
X169649999Y-92300000D01*
G75*
G02*
X169400000Y-92050001I0J249999D01*
G01*
X169400000Y-91349999D01*
G75*
G02*
X169649999Y-91100000I249999J0D01*
G01*
G37*
G36*
G01*
X169649999Y-89100000D02*
X170550001Y-89100000D01*
G75*
G02*
X170800000Y-89349999I0J-249999D01*
G01*
X170800000Y-90050001D01*
G75*
G02*
X170550001Y-90300000I-249999J0D01*
G01*
X169649999Y-90300000D01*
G75*
G02*
X169400000Y-90050001I0J249999D01*
G01*
X169400000Y-89349999D01*
G75*
G02*
X169649999Y-89100000I249999J0D01*
G01*
G37*
%TD*%
%TO.C,R12*%
G36*
G01*
X89900000Y-87850001D02*
X89900000Y-86949999D01*
G75*
G02*
X90149999Y-86700000I249999J0D01*
G01*
X90850001Y-86700000D01*
G75*
G02*
X91100000Y-86949999I0J-249999D01*
G01*
X91100000Y-87850001D01*
G75*
G02*
X90850001Y-88100000I-249999J0D01*
G01*
X90149999Y-88100000D01*
G75*
G02*
X89900000Y-87850001I0J249999D01*
G01*
G37*
G36*
G01*
X87900000Y-87850001D02*
X87900000Y-86949999D01*
G75*
G02*
X88149999Y-86700000I249999J0D01*
G01*
X88850001Y-86700000D01*
G75*
G02*
X89100000Y-86949999I0J-249999D01*
G01*
X89100000Y-87850001D01*
G75*
G02*
X88850001Y-88100000I-249999J0D01*
G01*
X88149999Y-88100000D01*
G75*
G02*
X87900000Y-87850001I0J249999D01*
G01*
G37*
%TD*%
%TO.C,R6*%
G36*
G01*
X166349999Y-91100000D02*
X167250001Y-91100000D01*
G75*
G02*
X167500000Y-91349999I0J-249999D01*
G01*
X167500000Y-92050001D01*
G75*
G02*
X167250001Y-92300000I-249999J0D01*
G01*
X166349999Y-92300000D01*
G75*
G02*
X166100000Y-92050001I0J249999D01*
G01*
X166100000Y-91349999D01*
G75*
G02*
X166349999Y-91100000I249999J0D01*
G01*
G37*
G36*
G01*
X166349999Y-89100000D02*
X167250001Y-89100000D01*
G75*
G02*
X167500000Y-89349999I0J-249999D01*
G01*
X167500000Y-90050001D01*
G75*
G02*
X167250001Y-90300000I-249999J0D01*
G01*
X166349999Y-90300000D01*
G75*
G02*
X166100000Y-90050001I0J249999D01*
G01*
X166100000Y-89349999D01*
G75*
G02*
X166349999Y-89100000I249999J0D01*
G01*
G37*
%TD*%
%TO.C,R5*%
G36*
G01*
X163049999Y-91100000D02*
X163950001Y-91100000D01*
G75*
G02*
X164200000Y-91349999I0J-249999D01*
G01*
X164200000Y-92050001D01*
G75*
G02*
X163950001Y-92300000I-249999J0D01*
G01*
X163049999Y-92300000D01*
G75*
G02*
X162800000Y-92050001I0J249999D01*
G01*
X162800000Y-91349999D01*
G75*
G02*
X163049999Y-91100000I249999J0D01*
G01*
G37*
G36*
G01*
X163049999Y-89100000D02*
X163950001Y-89100000D01*
G75*
G02*
X164200000Y-89349999I0J-249999D01*
G01*
X164200000Y-90050001D01*
G75*
G02*
X163950001Y-90300000I-249999J0D01*
G01*
X163049999Y-90300000D01*
G75*
G02*
X162800000Y-90050001I0J249999D01*
G01*
X162800000Y-89349999D01*
G75*
G02*
X163049999Y-89100000I249999J0D01*
G01*
G37*
%TD*%
%TO.C,R4*%
G36*
G01*
X159749999Y-91100000D02*
X160650001Y-91100000D01*
G75*
G02*
X160900000Y-91349999I0J-249999D01*
G01*
X160900000Y-92050001D01*
G75*
G02*
X160650001Y-92300000I-249999J0D01*
G01*
X159749999Y-92300000D01*
G75*
G02*
X159500000Y-92050001I0J249999D01*
G01*
X159500000Y-91349999D01*
G75*
G02*
X159749999Y-91100000I249999J0D01*
G01*
G37*
G36*
G01*
X159749999Y-89100000D02*
X160650001Y-89100000D01*
G75*
G02*
X160900000Y-89349999I0J-249999D01*
G01*
X160900000Y-90050001D01*
G75*
G02*
X160650001Y-90300000I-249999J0D01*
G01*
X159749999Y-90300000D01*
G75*
G02*
X159500000Y-90050001I0J249999D01*
G01*
X159500000Y-89349999D01*
G75*
G02*
X159749999Y-89100000I249999J0D01*
G01*
G37*
%TD*%
%TO.C,R3*%
G36*
G01*
X156449999Y-91100000D02*
X157350001Y-91100000D01*
G75*
G02*
X157600000Y-91349999I0J-249999D01*
G01*
X157600000Y-92050001D01*
G75*
G02*
X157350001Y-92300000I-249999J0D01*
G01*
X156449999Y-92300000D01*
G75*
G02*
X156200000Y-92050001I0J249999D01*
G01*
X156200000Y-91349999D01*
G75*
G02*
X156449999Y-91100000I249999J0D01*
G01*
G37*
G36*
G01*
X156449999Y-89100000D02*
X157350001Y-89100000D01*
G75*
G02*
X157600000Y-89349999I0J-249999D01*
G01*
X157600000Y-90050001D01*
G75*
G02*
X157350001Y-90300000I-249999J0D01*
G01*
X156449999Y-90300000D01*
G75*
G02*
X156200000Y-90050001I0J249999D01*
G01*
X156200000Y-89349999D01*
G75*
G02*
X156449999Y-89100000I249999J0D01*
G01*
G37*
%TD*%
%TO.C,R2*%
G36*
G01*
X153149999Y-91100000D02*
X154050001Y-91100000D01*
G75*
G02*
X154300000Y-91349999I0J-249999D01*
G01*
X154300000Y-92050001D01*
G75*
G02*
X154050001Y-92300000I-249999J0D01*
G01*
X153149999Y-92300000D01*
G75*
G02*
X152900000Y-92050001I0J249999D01*
G01*
X152900000Y-91349999D01*
G75*
G02*
X153149999Y-91100000I249999J0D01*
G01*
G37*
G36*
G01*
X153149999Y-89100000D02*
X154050001Y-89100000D01*
G75*
G02*
X154300000Y-89349999I0J-249999D01*
G01*
X154300000Y-90050001D01*
G75*
G02*
X154050001Y-90300000I-249999J0D01*
G01*
X153149999Y-90300000D01*
G75*
G02*
X152900000Y-90050001I0J249999D01*
G01*
X152900000Y-89349999D01*
G75*
G02*
X153149999Y-89100000I249999J0D01*
G01*
G37*
%TD*%
%TO.C,R1*%
G36*
G01*
X149849999Y-91100000D02*
X150750001Y-91100000D01*
G75*
G02*
X151000000Y-91349999I0J-249999D01*
G01*
X151000000Y-92050001D01*
G75*
G02*
X150750001Y-92300000I-249999J0D01*
G01*
X149849999Y-92300000D01*
G75*
G02*
X149600000Y-92050001I0J249999D01*
G01*
X149600000Y-91349999D01*
G75*
G02*
X149849999Y-91100000I249999J0D01*
G01*
G37*
G36*
G01*
X149849999Y-89100000D02*
X150750001Y-89100000D01*
G75*
G02*
X151000000Y-89349999I0J-249999D01*
G01*
X151000000Y-90050001D01*
G75*
G02*
X150750001Y-90300000I-249999J0D01*
G01*
X149849999Y-90300000D01*
G75*
G02*
X149600000Y-90050001I0J249999D01*
G01*
X149600000Y-89349999D01*
G75*
G02*
X149849999Y-89100000I249999J0D01*
G01*
G37*
%TD*%
D11*
%TO.C,J2*%
X104680000Y-100810000D03*
X107220000Y-100810000D03*
X109760000Y-100810000D03*
X112300000Y-100810000D03*
X114840000Y-100810000D03*
X117380000Y-100810000D03*
X119920000Y-100810000D03*
X122460000Y-100810000D03*
X125000000Y-100810000D03*
X127540000Y-100810000D03*
X130080000Y-100810000D03*
X132620000Y-100810000D03*
X135160000Y-100810000D03*
X137700000Y-100810000D03*
D12*
X140240000Y-100810000D03*
%TD*%
D11*
%TO.C,J1*%
X104680000Y-85610000D03*
X107220000Y-85610000D03*
X109760000Y-85610000D03*
X112300000Y-85610000D03*
X114840000Y-85610000D03*
X117380000Y-85610000D03*
X119920000Y-85610000D03*
X122460000Y-85610000D03*
X125000000Y-85610000D03*
X127540000Y-85610000D03*
X130080000Y-85610000D03*
X132620000Y-85610000D03*
X135160000Y-85610000D03*
X137700000Y-85610000D03*
D12*
X140240000Y-85610000D03*
%TD*%
%TO.C,D11*%
G36*
G01*
X183750001Y-94750000D02*
X182849999Y-94750000D01*
G75*
G02*
X182600000Y-94500001I0J249999D01*
G01*
X182600000Y-93849999D01*
G75*
G02*
X182849999Y-93600000I249999J0D01*
G01*
X183750001Y-93600000D01*
G75*
G02*
X184000000Y-93849999I0J-249999D01*
G01*
X184000000Y-94500001D01*
G75*
G02*
X183750001Y-94750000I-249999J0D01*
G01*
G37*
G36*
G01*
X183750001Y-96800000D02*
X182849999Y-96800000D01*
G75*
G02*
X182600000Y-96550001I0J249999D01*
G01*
X182600000Y-95899999D01*
G75*
G02*
X182849999Y-95650000I249999J0D01*
G01*
X183750001Y-95650000D01*
G75*
G02*
X184000000Y-95899999I0J-249999D01*
G01*
X184000000Y-96550001D01*
G75*
G02*
X183750001Y-96800000I-249999J0D01*
G01*
G37*
%TD*%
%TO.C,D10*%
G36*
G01*
X180450001Y-94750000D02*
X179549999Y-94750000D01*
G75*
G02*
X179300000Y-94500001I0J249999D01*
G01*
X179300000Y-93849999D01*
G75*
G02*
X179549999Y-93600000I249999J0D01*
G01*
X180450001Y-93600000D01*
G75*
G02*
X180700000Y-93849999I0J-249999D01*
G01*
X180700000Y-94500001D01*
G75*
G02*
X180450001Y-94750000I-249999J0D01*
G01*
G37*
G36*
G01*
X180450001Y-96800000D02*
X179549999Y-96800000D01*
G75*
G02*
X179300000Y-96550001I0J249999D01*
G01*
X179300000Y-95899999D01*
G75*
G02*
X179549999Y-95650000I249999J0D01*
G01*
X180450001Y-95650000D01*
G75*
G02*
X180700000Y-95899999I0J-249999D01*
G01*
X180700000Y-96550001D01*
G75*
G02*
X180450001Y-96800000I-249999J0D01*
G01*
G37*
%TD*%
%TO.C,D9*%
G36*
G01*
X177150001Y-94725000D02*
X176249999Y-94725000D01*
G75*
G02*
X176000000Y-94475001I0J249999D01*
G01*
X176000000Y-93824999D01*
G75*
G02*
X176249999Y-93575000I249999J0D01*
G01*
X177150001Y-93575000D01*
G75*
G02*
X177400000Y-93824999I0J-249999D01*
G01*
X177400000Y-94475001D01*
G75*
G02*
X177150001Y-94725000I-249999J0D01*
G01*
G37*
G36*
G01*
X177150001Y-96775000D02*
X176249999Y-96775000D01*
G75*
G02*
X176000000Y-96525001I0J249999D01*
G01*
X176000000Y-95874999D01*
G75*
G02*
X176249999Y-95625000I249999J0D01*
G01*
X177150001Y-95625000D01*
G75*
G02*
X177400000Y-95874999I0J-249999D01*
G01*
X177400000Y-96525001D01*
G75*
G02*
X177150001Y-96775000I-249999J0D01*
G01*
G37*
%TD*%
%TO.C,D8*%
G36*
G01*
X173850001Y-94750000D02*
X172949999Y-94750000D01*
G75*
G02*
X172700000Y-94500001I0J249999D01*
G01*
X172700000Y-93849999D01*
G75*
G02*
X172949999Y-93600000I249999J0D01*
G01*
X173850001Y-93600000D01*
G75*
G02*
X174100000Y-93849999I0J-249999D01*
G01*
X174100000Y-94500001D01*
G75*
G02*
X173850001Y-94750000I-249999J0D01*
G01*
G37*
G36*
G01*
X173850001Y-96800000D02*
X172949999Y-96800000D01*
G75*
G02*
X172700000Y-96550001I0J249999D01*
G01*
X172700000Y-95899999D01*
G75*
G02*
X172949999Y-95650000I249999J0D01*
G01*
X173850001Y-95650000D01*
G75*
G02*
X174100000Y-95899999I0J-249999D01*
G01*
X174100000Y-96550001D01*
G75*
G02*
X173850001Y-96800000I-249999J0D01*
G01*
G37*
%TD*%
%TO.C,D7*%
G36*
G01*
X170550001Y-94725000D02*
X169649999Y-94725000D01*
G75*
G02*
X169400000Y-94475001I0J249999D01*
G01*
X169400000Y-93824999D01*
G75*
G02*
X169649999Y-93575000I249999J0D01*
G01*
X170550001Y-93575000D01*
G75*
G02*
X170800000Y-93824999I0J-249999D01*
G01*
X170800000Y-94475001D01*
G75*
G02*
X170550001Y-94725000I-249999J0D01*
G01*
G37*
G36*
G01*
X170550001Y-96775000D02*
X169649999Y-96775000D01*
G75*
G02*
X169400000Y-96525001I0J249999D01*
G01*
X169400000Y-95874999D01*
G75*
G02*
X169649999Y-95625000I249999J0D01*
G01*
X170550001Y-95625000D01*
G75*
G02*
X170800000Y-95874999I0J-249999D01*
G01*
X170800000Y-96525001D01*
G75*
G02*
X170550001Y-96775000I-249999J0D01*
G01*
G37*
%TD*%
%TO.C,D6*%
G36*
G01*
X167250001Y-94725000D02*
X166349999Y-94725000D01*
G75*
G02*
X166100000Y-94475001I0J249999D01*
G01*
X166100000Y-93824999D01*
G75*
G02*
X166349999Y-93575000I249999J0D01*
G01*
X167250001Y-93575000D01*
G75*
G02*
X167500000Y-93824999I0J-249999D01*
G01*
X167500000Y-94475001D01*
G75*
G02*
X167250001Y-94725000I-249999J0D01*
G01*
G37*
G36*
G01*
X167250001Y-96775000D02*
X166349999Y-96775000D01*
G75*
G02*
X166100000Y-96525001I0J249999D01*
G01*
X166100000Y-95874999D01*
G75*
G02*
X166349999Y-95625000I249999J0D01*
G01*
X167250001Y-95625000D01*
G75*
G02*
X167500000Y-95874999I0J-249999D01*
G01*
X167500000Y-96525001D01*
G75*
G02*
X167250001Y-96775000I-249999J0D01*
G01*
G37*
%TD*%
%TO.C,D5*%
G36*
G01*
X163950001Y-94725000D02*
X163049999Y-94725000D01*
G75*
G02*
X162800000Y-94475001I0J249999D01*
G01*
X162800000Y-93824999D01*
G75*
G02*
X163049999Y-93575000I249999J0D01*
G01*
X163950001Y-93575000D01*
G75*
G02*
X164200000Y-93824999I0J-249999D01*
G01*
X164200000Y-94475001D01*
G75*
G02*
X163950001Y-94725000I-249999J0D01*
G01*
G37*
G36*
G01*
X163950001Y-96775000D02*
X163049999Y-96775000D01*
G75*
G02*
X162800000Y-96525001I0J249999D01*
G01*
X162800000Y-95874999D01*
G75*
G02*
X163049999Y-95625000I249999J0D01*
G01*
X163950001Y-95625000D01*
G75*
G02*
X164200000Y-95874999I0J-249999D01*
G01*
X164200000Y-96525001D01*
G75*
G02*
X163950001Y-96775000I-249999J0D01*
G01*
G37*
%TD*%
%TO.C,D4*%
G36*
G01*
X160650001Y-94725000D02*
X159749999Y-94725000D01*
G75*
G02*
X159500000Y-94475001I0J249999D01*
G01*
X159500000Y-93824999D01*
G75*
G02*
X159749999Y-93575000I249999J0D01*
G01*
X160650001Y-93575000D01*
G75*
G02*
X160900000Y-93824999I0J-249999D01*
G01*
X160900000Y-94475001D01*
G75*
G02*
X160650001Y-94725000I-249999J0D01*
G01*
G37*
G36*
G01*
X160650001Y-96775000D02*
X159749999Y-96775000D01*
G75*
G02*
X159500000Y-96525001I0J249999D01*
G01*
X159500000Y-95874999D01*
G75*
G02*
X159749999Y-95625000I249999J0D01*
G01*
X160650001Y-95625000D01*
G75*
G02*
X160900000Y-95874999I0J-249999D01*
G01*
X160900000Y-96525001D01*
G75*
G02*
X160650001Y-96775000I-249999J0D01*
G01*
G37*
%TD*%
%TO.C,D3*%
G36*
G01*
X157350001Y-94725000D02*
X156449999Y-94725000D01*
G75*
G02*
X156200000Y-94475001I0J249999D01*
G01*
X156200000Y-93824999D01*
G75*
G02*
X156449999Y-93575000I249999J0D01*
G01*
X157350001Y-93575000D01*
G75*
G02*
X157600000Y-93824999I0J-249999D01*
G01*
X157600000Y-94475001D01*
G75*
G02*
X157350001Y-94725000I-249999J0D01*
G01*
G37*
G36*
G01*
X157350001Y-96775000D02*
X156449999Y-96775000D01*
G75*
G02*
X156200000Y-96525001I0J249999D01*
G01*
X156200000Y-95874999D01*
G75*
G02*
X156449999Y-95625000I249999J0D01*
G01*
X157350001Y-95625000D01*
G75*
G02*
X157600000Y-95874999I0J-249999D01*
G01*
X157600000Y-96525001D01*
G75*
G02*
X157350001Y-96775000I-249999J0D01*
G01*
G37*
%TD*%
%TO.C,D2*%
G36*
G01*
X154050001Y-94675000D02*
X153149999Y-94675000D01*
G75*
G02*
X152900000Y-94425001I0J249999D01*
G01*
X152900000Y-93774999D01*
G75*
G02*
X153149999Y-93525000I249999J0D01*
G01*
X154050001Y-93525000D01*
G75*
G02*
X154300000Y-93774999I0J-249999D01*
G01*
X154300000Y-94425001D01*
G75*
G02*
X154050001Y-94675000I-249999J0D01*
G01*
G37*
G36*
G01*
X154050001Y-96725000D02*
X153149999Y-96725000D01*
G75*
G02*
X152900000Y-96475001I0J249999D01*
G01*
X152900000Y-95824999D01*
G75*
G02*
X153149999Y-95575000I249999J0D01*
G01*
X154050001Y-95575000D01*
G75*
G02*
X154300000Y-95824999I0J-249999D01*
G01*
X154300000Y-96475001D01*
G75*
G02*
X154050001Y-96725000I-249999J0D01*
G01*
G37*
%TD*%
%TO.C,D1*%
G36*
G01*
X150750001Y-94650000D02*
X149849999Y-94650000D01*
G75*
G02*
X149600000Y-94400001I0J249999D01*
G01*
X149600000Y-93749999D01*
G75*
G02*
X149849999Y-93500000I249999J0D01*
G01*
X150750001Y-93500000D01*
G75*
G02*
X151000000Y-93749999I0J-249999D01*
G01*
X151000000Y-94400001D01*
G75*
G02*
X150750001Y-94650000I-249999J0D01*
G01*
G37*
G36*
G01*
X150750001Y-96700000D02*
X149849999Y-96700000D01*
G75*
G02*
X149600000Y-96450001I0J249999D01*
G01*
X149600000Y-95799999D01*
G75*
G02*
X149849999Y-95550000I249999J0D01*
G01*
X150750001Y-95550000D01*
G75*
G02*
X151000000Y-95799999I0J-249999D01*
G01*
X151000000Y-96450001D01*
G75*
G02*
X150750001Y-96700000I-249999J0D01*
G01*
G37*
%TD*%
D11*
%TO.C,BT1*%
X88660000Y-103300000D03*
D12*
X91200000Y-103300000D03*
%TD*%
M02*
