(module TestPoint_Pad_1.0x1.0mm (layer F.Cu) (tedit 619D2F56)
  (descr "SMD rectangular pad as test Point, square 1.0mm side length")
  (tags "test point SMD pad rectangle square")
  (attr virtual)
  (fp_text reference REF** (at -3.81 0) (layer F.SilkS) hide
    (effects (font (size 1 1) (thickness 0.15)))
  )
  (fp_text value TestPoint_Pad_1.0x1.0mm (at 0 1.55) (layer F.Fab) hide
    (effects (font (size 1 1) (thickness 0.15)))
  )
  (pad 1 smd rect (at 0 0) (size 0.55 1) (layers F.Cu F.Mask))
)
