%FSLAX45Y45*%
G04 Gerber Fmt 4.5, Leading zero omitted, Abs format (unit mm)*
G04 Created by KiCad (PCBNEW 5.1.9) date 2021-05-18 22:41:59*
%MOMM*%
%LPD*%
G01*
G04 APERTURE LIST*
%TA.AperFunction,Profile*%
%ADD10C,0.100000*%
%TD*%
%ADD11C,0.200000*%
%ADD12C,0.300000*%
G04 APERTURE END LIST*
D10*
X15100000Y-6900000D02*
X15100000Y-10900000D01*
X11100000Y-6900000D02*
X15100000Y-6900000D01*
X11100000Y-10900000D02*
X11100000Y-6900000D01*
X15100000Y-10900000D02*
X11100000Y-10900000D01*
D11*
X11760000Y-9280000D02*
X11800000Y-9320000D01*
X11800000Y-9280000D02*
X11760000Y-9320000D01*
X11760000Y-9650000D02*
X11800000Y-9690000D01*
X11800000Y-9650000D02*
X11760000Y-9690000D01*
X11760000Y-9650000D02*
X11800000Y-9690000D01*
X11800000Y-9650000D02*
X11760000Y-9690000D01*
X12170000Y-8620000D02*
G75*
G03*
X12170000Y-8620000I-50000J0D01*
G01*
X12170000Y-8874000D02*
G75*
G03*
X12170000Y-8874000I-50000J0D01*
G01*
X12170000Y-9128000D02*
G75*
G03*
X12170000Y-9128000I-50000J0D01*
G01*
X12170000Y-9590000D02*
G75*
G03*
X12170000Y-9590000I-50000J0D01*
G01*
X12170000Y-9844000D02*
G75*
G03*
X12170000Y-9844000I-50000J0D01*
G01*
X12170000Y-10098000D02*
G75*
G03*
X12170000Y-10098000I-50000J0D01*
G01*
X11460000Y-7100000D02*
X11460000Y-7420000D01*
X11300000Y-7260000D02*
X11620000Y-7260000D01*
X11460000Y-10380000D02*
X11460000Y-10700000D01*
X11300000Y-10540000D02*
X11620000Y-10540000D01*
X14740000Y-7100000D02*
X14740000Y-7420000D01*
X14580000Y-7260000D02*
X14900000Y-7260000D01*
X14740000Y-10380000D02*
X14740000Y-10700000D01*
X14580000Y-10540000D02*
X14900000Y-10540000D01*
D12*
X11381428Y-11370714D02*
X11381428Y-11070714D01*
X11452857Y-11070714D01*
X11495714Y-11085000D01*
X11524286Y-11113572D01*
X11538571Y-11142143D01*
X11552857Y-11199286D01*
X11552857Y-11242143D01*
X11538571Y-11299286D01*
X11524286Y-11327857D01*
X11495714Y-11356429D01*
X11452857Y-11370714D01*
X11381428Y-11370714D01*
X11681428Y-11370714D02*
X11681428Y-11170714D01*
X11681428Y-11227857D02*
X11695714Y-11199286D01*
X11710000Y-11185000D01*
X11738571Y-11170714D01*
X11767143Y-11170714D01*
X11867143Y-11370714D02*
X11867143Y-11170714D01*
X11867143Y-11070714D02*
X11852857Y-11085000D01*
X11867143Y-11099286D01*
X11881428Y-11085000D01*
X11867143Y-11070714D01*
X11867143Y-11099286D01*
X12052857Y-11370714D02*
X12024286Y-11356429D01*
X12010000Y-11327857D01*
X12010000Y-11070714D01*
X12210000Y-11370714D02*
X12181428Y-11356429D01*
X12167143Y-11327857D01*
X12167143Y-11070714D01*
X12552857Y-11370714D02*
X12552857Y-11070714D01*
X12652857Y-11285000D01*
X12752857Y-11070714D01*
X12752857Y-11370714D01*
X13024286Y-11370714D02*
X13024286Y-11213571D01*
X13010000Y-11185000D01*
X12981428Y-11170714D01*
X12924286Y-11170714D01*
X12895714Y-11185000D01*
X13024286Y-11356429D02*
X12995714Y-11370714D01*
X12924286Y-11370714D01*
X12895714Y-11356429D01*
X12881428Y-11327857D01*
X12881428Y-11299286D01*
X12895714Y-11270714D01*
X12924286Y-11256429D01*
X12995714Y-11256429D01*
X13024286Y-11242143D01*
X13167143Y-11170714D02*
X13167143Y-11470714D01*
X13167143Y-11185000D02*
X13195714Y-11170714D01*
X13252857Y-11170714D01*
X13281428Y-11185000D01*
X13295714Y-11199286D01*
X13310000Y-11227857D01*
X13310000Y-11313571D01*
X13295714Y-11342143D01*
X13281428Y-11356429D01*
X13252857Y-11370714D01*
X13195714Y-11370714D01*
X13167143Y-11356429D01*
X13438571Y-11342143D02*
X13452857Y-11356429D01*
X13438571Y-11370714D01*
X13424286Y-11356429D01*
X13438571Y-11342143D01*
X13438571Y-11370714D01*
X13438571Y-11185000D02*
X13452857Y-11199286D01*
X13438571Y-11213571D01*
X13424286Y-11199286D01*
X13438571Y-11185000D01*
X13438571Y-11213571D01*
X11055000Y-11845000D02*
X11095000Y-11885000D01*
X11095000Y-11845000D02*
X11055000Y-11885000D01*
X11438571Y-11700714D02*
X11467143Y-11700714D01*
X11495714Y-11715000D01*
X11510000Y-11729286D01*
X11524286Y-11757857D01*
X11538571Y-11815000D01*
X11538571Y-11886429D01*
X11524286Y-11943571D01*
X11510000Y-11972143D01*
X11495714Y-11986429D01*
X11467143Y-12000714D01*
X11438571Y-12000714D01*
X11410000Y-11986429D01*
X11395714Y-11972143D01*
X11381428Y-11943571D01*
X11367143Y-11886429D01*
X11367143Y-11815000D01*
X11381428Y-11757857D01*
X11395714Y-11729286D01*
X11410000Y-11715000D01*
X11438571Y-11700714D01*
X11667143Y-11972143D02*
X11681428Y-11986429D01*
X11667143Y-12000714D01*
X11652857Y-11986429D01*
X11667143Y-11972143D01*
X11667143Y-12000714D01*
X11938571Y-11800714D02*
X11938571Y-12000714D01*
X11867143Y-11686429D02*
X11795714Y-11900714D01*
X11981428Y-11900714D01*
X12152857Y-11700714D02*
X12181428Y-11700714D01*
X12210000Y-11715000D01*
X12224286Y-11729286D01*
X12238571Y-11757857D01*
X12252857Y-11815000D01*
X12252857Y-11886429D01*
X12238571Y-11943571D01*
X12224286Y-11972143D01*
X12210000Y-11986429D01*
X12181428Y-12000714D01*
X12152857Y-12000714D01*
X12124286Y-11986429D01*
X12110000Y-11972143D01*
X12095714Y-11943571D01*
X12081428Y-11886429D01*
X12081428Y-11815000D01*
X12095714Y-11757857D01*
X12110000Y-11729286D01*
X12124286Y-11715000D01*
X12152857Y-11700714D01*
X12381428Y-12000714D02*
X12381428Y-11800714D01*
X12381428Y-11829286D02*
X12395714Y-11815000D01*
X12424286Y-11800714D01*
X12467143Y-11800714D01*
X12495714Y-11815000D01*
X12510000Y-11843571D01*
X12510000Y-12000714D01*
X12510000Y-11843571D02*
X12524286Y-11815000D01*
X12552857Y-11800714D01*
X12595714Y-11800714D01*
X12624286Y-11815000D01*
X12638571Y-11843571D01*
X12638571Y-12000714D01*
X12781428Y-12000714D02*
X12781428Y-11800714D01*
X12781428Y-11829286D02*
X12795714Y-11815000D01*
X12824286Y-11800714D01*
X12867143Y-11800714D01*
X12895714Y-11815000D01*
X12910000Y-11843571D01*
X12910000Y-12000714D01*
X12910000Y-11843571D02*
X12924286Y-11815000D01*
X12952857Y-11800714D01*
X12995714Y-11800714D01*
X13024286Y-11815000D01*
X13038571Y-11843571D01*
X13038571Y-12000714D01*
X13624286Y-11686429D02*
X13367143Y-12072143D01*
X14010000Y-11700714D02*
X14038571Y-11700714D01*
X14067143Y-11715000D01*
X14081428Y-11729286D01*
X14095714Y-11757857D01*
X14110000Y-11815000D01*
X14110000Y-11886429D01*
X14095714Y-11943571D01*
X14081428Y-11972143D01*
X14067143Y-11986429D01*
X14038571Y-12000714D01*
X14010000Y-12000714D01*
X13981428Y-11986429D01*
X13967143Y-11972143D01*
X13952857Y-11943571D01*
X13938571Y-11886429D01*
X13938571Y-11815000D01*
X13952857Y-11757857D01*
X13967143Y-11729286D01*
X13981428Y-11715000D01*
X14010000Y-11700714D01*
X14238571Y-11972143D02*
X14252857Y-11986429D01*
X14238571Y-12000714D01*
X14224286Y-11986429D01*
X14238571Y-11972143D01*
X14238571Y-12000714D01*
X14438571Y-11700714D02*
X14467143Y-11700714D01*
X14495714Y-11715000D01*
X14510000Y-11729286D01*
X14524286Y-11757857D01*
X14538571Y-11815000D01*
X14538571Y-11886429D01*
X14524286Y-11943571D01*
X14510000Y-11972143D01*
X14495714Y-11986429D01*
X14467143Y-12000714D01*
X14438571Y-12000714D01*
X14410000Y-11986429D01*
X14395714Y-11972143D01*
X14381428Y-11943571D01*
X14367143Y-11886429D01*
X14367143Y-11815000D01*
X14381428Y-11757857D01*
X14395714Y-11729286D01*
X14410000Y-11715000D01*
X14438571Y-11700714D01*
X14824286Y-12000714D02*
X14652857Y-12000714D01*
X14738571Y-12000714D02*
X14738571Y-11700714D01*
X14710000Y-11743571D01*
X14681428Y-11772143D01*
X14652857Y-11786429D01*
X15081428Y-11700714D02*
X15024286Y-11700714D01*
X14995714Y-11715000D01*
X14981428Y-11729286D01*
X14952857Y-11772143D01*
X14938571Y-11829286D01*
X14938571Y-11943571D01*
X14952857Y-11972143D01*
X14967143Y-11986429D01*
X14995714Y-12000714D01*
X15052857Y-12000714D01*
X15081428Y-11986429D01*
X15095714Y-11972143D01*
X15110000Y-11943571D01*
X15110000Y-11872143D01*
X15095714Y-11843571D01*
X15081428Y-11829286D01*
X15052857Y-11815000D01*
X14995714Y-11815000D01*
X14967143Y-11829286D01*
X14952857Y-11843571D01*
X14938571Y-11872143D01*
X15224286Y-11700714D02*
X15224286Y-11757857D01*
X15338571Y-11700714D02*
X15338571Y-11757857D01*
X15781428Y-12115000D02*
X15767143Y-12100714D01*
X15738571Y-12057857D01*
X15724286Y-12029286D01*
X15710000Y-11986429D01*
X15695714Y-11915000D01*
X15695714Y-11857857D01*
X15710000Y-11786429D01*
X15724286Y-11743571D01*
X15738571Y-11715000D01*
X15767143Y-11672143D01*
X15781428Y-11657857D01*
X15867143Y-11700714D02*
X16052857Y-11700714D01*
X15952857Y-11815000D01*
X15995714Y-11815000D01*
X16024286Y-11829286D01*
X16038571Y-11843571D01*
X16052857Y-11872143D01*
X16052857Y-11943571D01*
X16038571Y-11972143D01*
X16024286Y-11986429D01*
X15995714Y-12000714D01*
X15910000Y-12000714D01*
X15881428Y-11986429D01*
X15867143Y-11972143D01*
X16410000Y-12000714D02*
X16410000Y-11700714D01*
X16538571Y-12000714D02*
X16538571Y-11843571D01*
X16524286Y-11815000D01*
X16495714Y-11800714D01*
X16452857Y-11800714D01*
X16424286Y-11815000D01*
X16410000Y-11829286D01*
X16724286Y-12000714D02*
X16695714Y-11986429D01*
X16681428Y-11972143D01*
X16667143Y-11943571D01*
X16667143Y-11857857D01*
X16681428Y-11829286D01*
X16695714Y-11815000D01*
X16724286Y-11800714D01*
X16767143Y-11800714D01*
X16795714Y-11815000D01*
X16810000Y-11829286D01*
X16824286Y-11857857D01*
X16824286Y-11943571D01*
X16810000Y-11972143D01*
X16795714Y-11986429D01*
X16767143Y-12000714D01*
X16724286Y-12000714D01*
X16995714Y-12000714D02*
X16967143Y-11986429D01*
X16952857Y-11957857D01*
X16952857Y-11700714D01*
X17224286Y-11986429D02*
X17195714Y-12000714D01*
X17138571Y-12000714D01*
X17110000Y-11986429D01*
X17095714Y-11957857D01*
X17095714Y-11843571D01*
X17110000Y-11815000D01*
X17138571Y-11800714D01*
X17195714Y-11800714D01*
X17224286Y-11815000D01*
X17238571Y-11843571D01*
X17238571Y-11872143D01*
X17095714Y-11900714D01*
X17352857Y-11986429D02*
X17381428Y-12000714D01*
X17438571Y-12000714D01*
X17467143Y-11986429D01*
X17481428Y-11957857D01*
X17481428Y-11943571D01*
X17467143Y-11915000D01*
X17438571Y-11900714D01*
X17395714Y-11900714D01*
X17367143Y-11886429D01*
X17352857Y-11857857D01*
X17352857Y-11843571D01*
X17367143Y-11815000D01*
X17395714Y-11800714D01*
X17438571Y-11800714D01*
X17467143Y-11815000D01*
X17581428Y-12115000D02*
X17595714Y-12100714D01*
X17624286Y-12057857D01*
X17638571Y-12029286D01*
X17652857Y-11986429D01*
X17667143Y-11915000D01*
X17667143Y-11857857D01*
X17652857Y-11786429D01*
X17638571Y-11743571D01*
X17624286Y-11715000D01*
X17595714Y-11672143D01*
X17581428Y-11657857D01*
X11095000Y-12261000D02*
G75*
G03*
X11095000Y-12261000I-50000J0D01*
G01*
X11538571Y-12396714D02*
X11367143Y-12396714D01*
X11452857Y-12396714D02*
X11452857Y-12096714D01*
X11424286Y-12139571D01*
X11395714Y-12168143D01*
X11367143Y-12182429D01*
X11667143Y-12368143D02*
X11681428Y-12382429D01*
X11667143Y-12396714D01*
X11652857Y-12382429D01*
X11667143Y-12368143D01*
X11667143Y-12396714D01*
X11867143Y-12096714D02*
X11895714Y-12096714D01*
X11924286Y-12111000D01*
X11938571Y-12125286D01*
X11952857Y-12153857D01*
X11967143Y-12211000D01*
X11967143Y-12282429D01*
X11952857Y-12339571D01*
X11938571Y-12368143D01*
X11924286Y-12382429D01*
X11895714Y-12396714D01*
X11867143Y-12396714D01*
X11838571Y-12382429D01*
X11824286Y-12368143D01*
X11810000Y-12339571D01*
X11795714Y-12282429D01*
X11795714Y-12211000D01*
X11810000Y-12153857D01*
X11824286Y-12125286D01*
X11838571Y-12111000D01*
X11867143Y-12096714D01*
X12152857Y-12096714D02*
X12181428Y-12096714D01*
X12210000Y-12111000D01*
X12224286Y-12125286D01*
X12238571Y-12153857D01*
X12252857Y-12211000D01*
X12252857Y-12282429D01*
X12238571Y-12339571D01*
X12224286Y-12368143D01*
X12210000Y-12382429D01*
X12181428Y-12396714D01*
X12152857Y-12396714D01*
X12124286Y-12382429D01*
X12110000Y-12368143D01*
X12095714Y-12339571D01*
X12081428Y-12282429D01*
X12081428Y-12211000D01*
X12095714Y-12153857D01*
X12110000Y-12125286D01*
X12124286Y-12111000D01*
X12152857Y-12096714D01*
X12381428Y-12396714D02*
X12381428Y-12196714D01*
X12381428Y-12225286D02*
X12395714Y-12211000D01*
X12424286Y-12196714D01*
X12467143Y-12196714D01*
X12495714Y-12211000D01*
X12510000Y-12239571D01*
X12510000Y-12396714D01*
X12510000Y-12239571D02*
X12524286Y-12211000D01*
X12552857Y-12196714D01*
X12595714Y-12196714D01*
X12624286Y-12211000D01*
X12638571Y-12239571D01*
X12638571Y-12396714D01*
X12781428Y-12396714D02*
X12781428Y-12196714D01*
X12781428Y-12225286D02*
X12795714Y-12211000D01*
X12824286Y-12196714D01*
X12867143Y-12196714D01*
X12895714Y-12211000D01*
X12910000Y-12239571D01*
X12910000Y-12396714D01*
X12910000Y-12239571D02*
X12924286Y-12211000D01*
X12952857Y-12196714D01*
X12995714Y-12196714D01*
X13024286Y-12211000D01*
X13038571Y-12239571D01*
X13038571Y-12396714D01*
X13624286Y-12082429D02*
X13367143Y-12468143D01*
X14010000Y-12096714D02*
X14038571Y-12096714D01*
X14067143Y-12111000D01*
X14081428Y-12125286D01*
X14095714Y-12153857D01*
X14110000Y-12211000D01*
X14110000Y-12282429D01*
X14095714Y-12339571D01*
X14081428Y-12368143D01*
X14067143Y-12382429D01*
X14038571Y-12396714D01*
X14010000Y-12396714D01*
X13981428Y-12382429D01*
X13967143Y-12368143D01*
X13952857Y-12339571D01*
X13938571Y-12282429D01*
X13938571Y-12211000D01*
X13952857Y-12153857D01*
X13967143Y-12125286D01*
X13981428Y-12111000D01*
X14010000Y-12096714D01*
X14238571Y-12368143D02*
X14252857Y-12382429D01*
X14238571Y-12396714D01*
X14224286Y-12382429D01*
X14238571Y-12368143D01*
X14238571Y-12396714D01*
X14438571Y-12096714D02*
X14467143Y-12096714D01*
X14495714Y-12111000D01*
X14510000Y-12125286D01*
X14524286Y-12153857D01*
X14538571Y-12211000D01*
X14538571Y-12282429D01*
X14524286Y-12339571D01*
X14510000Y-12368143D01*
X14495714Y-12382429D01*
X14467143Y-12396714D01*
X14438571Y-12396714D01*
X14410000Y-12382429D01*
X14395714Y-12368143D01*
X14381428Y-12339571D01*
X14367143Y-12282429D01*
X14367143Y-12211000D01*
X14381428Y-12153857D01*
X14395714Y-12125286D01*
X14410000Y-12111000D01*
X14438571Y-12096714D01*
X14638571Y-12096714D02*
X14824286Y-12096714D01*
X14724286Y-12211000D01*
X14767143Y-12211000D01*
X14795714Y-12225286D01*
X14810000Y-12239571D01*
X14824286Y-12268143D01*
X14824286Y-12339571D01*
X14810000Y-12368143D01*
X14795714Y-12382429D01*
X14767143Y-12396714D01*
X14681428Y-12396714D01*
X14652857Y-12382429D01*
X14638571Y-12368143D01*
X14967143Y-12396714D02*
X15024286Y-12396714D01*
X15052857Y-12382429D01*
X15067143Y-12368143D01*
X15095714Y-12325286D01*
X15110000Y-12268143D01*
X15110000Y-12153857D01*
X15095714Y-12125286D01*
X15081428Y-12111000D01*
X15052857Y-12096714D01*
X14995714Y-12096714D01*
X14967143Y-12111000D01*
X14952857Y-12125286D01*
X14938571Y-12153857D01*
X14938571Y-12225286D01*
X14952857Y-12253857D01*
X14967143Y-12268143D01*
X14995714Y-12282429D01*
X15052857Y-12282429D01*
X15081428Y-12268143D01*
X15095714Y-12253857D01*
X15110000Y-12225286D01*
X15224286Y-12096714D02*
X15224286Y-12153857D01*
X15338571Y-12096714D02*
X15338571Y-12153857D01*
X15781428Y-12511000D02*
X15767143Y-12496714D01*
X15738571Y-12453857D01*
X15724286Y-12425286D01*
X15710000Y-12382429D01*
X15695714Y-12311000D01*
X15695714Y-12253857D01*
X15710000Y-12182429D01*
X15724286Y-12139571D01*
X15738571Y-12111000D01*
X15767143Y-12068143D01*
X15781428Y-12053857D01*
X16024286Y-12096714D02*
X15967143Y-12096714D01*
X15938571Y-12111000D01*
X15924286Y-12125286D01*
X15895714Y-12168143D01*
X15881428Y-12225286D01*
X15881428Y-12339571D01*
X15895714Y-12368143D01*
X15910000Y-12382429D01*
X15938571Y-12396714D01*
X15995714Y-12396714D01*
X16024286Y-12382429D01*
X16038571Y-12368143D01*
X16052857Y-12339571D01*
X16052857Y-12268143D01*
X16038571Y-12239571D01*
X16024286Y-12225286D01*
X15995714Y-12211000D01*
X15938571Y-12211000D01*
X15910000Y-12225286D01*
X15895714Y-12239571D01*
X15881428Y-12268143D01*
X16410000Y-12396714D02*
X16410000Y-12096714D01*
X16538571Y-12396714D02*
X16538571Y-12239571D01*
X16524286Y-12211000D01*
X16495714Y-12196714D01*
X16452857Y-12196714D01*
X16424286Y-12211000D01*
X16410000Y-12225286D01*
X16724286Y-12396714D02*
X16695714Y-12382429D01*
X16681428Y-12368143D01*
X16667143Y-12339571D01*
X16667143Y-12253857D01*
X16681428Y-12225286D01*
X16695714Y-12211000D01*
X16724286Y-12196714D01*
X16767143Y-12196714D01*
X16795714Y-12211000D01*
X16810000Y-12225286D01*
X16824286Y-12253857D01*
X16824286Y-12339571D01*
X16810000Y-12368143D01*
X16795714Y-12382429D01*
X16767143Y-12396714D01*
X16724286Y-12396714D01*
X16995714Y-12396714D02*
X16967143Y-12382429D01*
X16952857Y-12353857D01*
X16952857Y-12096714D01*
X17224286Y-12382429D02*
X17195714Y-12396714D01*
X17138571Y-12396714D01*
X17110000Y-12382429D01*
X17095714Y-12353857D01*
X17095714Y-12239571D01*
X17110000Y-12211000D01*
X17138571Y-12196714D01*
X17195714Y-12196714D01*
X17224286Y-12211000D01*
X17238571Y-12239571D01*
X17238571Y-12268143D01*
X17095714Y-12296714D01*
X17352857Y-12382429D02*
X17381428Y-12396714D01*
X17438571Y-12396714D01*
X17467143Y-12382429D01*
X17481428Y-12353857D01*
X17481428Y-12339571D01*
X17467143Y-12311000D01*
X17438571Y-12296714D01*
X17395714Y-12296714D01*
X17367143Y-12282429D01*
X17352857Y-12253857D01*
X17352857Y-12239571D01*
X17367143Y-12211000D01*
X17395714Y-12196714D01*
X17438571Y-12196714D01*
X17467143Y-12211000D01*
X17581428Y-12511000D02*
X17595714Y-12496714D01*
X17624286Y-12453857D01*
X17638571Y-12425286D01*
X17652857Y-12382429D01*
X17667143Y-12311000D01*
X17667143Y-12253857D01*
X17652857Y-12182429D01*
X17638571Y-12139571D01*
X17624286Y-12111000D01*
X17595714Y-12068143D01*
X17581428Y-12053857D01*
X10935000Y-12497000D02*
X10935000Y-12817000D01*
X10775000Y-12657000D02*
X11095000Y-12657000D01*
X11352857Y-12492714D02*
X11538571Y-12492714D01*
X11438571Y-12607000D01*
X11481428Y-12607000D01*
X11510000Y-12621286D01*
X11524286Y-12635571D01*
X11538571Y-12664143D01*
X11538571Y-12735571D01*
X11524286Y-12764143D01*
X11510000Y-12778429D01*
X11481428Y-12792714D01*
X11395714Y-12792714D01*
X11367143Y-12778429D01*
X11352857Y-12764143D01*
X11667143Y-12764143D02*
X11681428Y-12778429D01*
X11667143Y-12792714D01*
X11652857Y-12778429D01*
X11667143Y-12764143D01*
X11667143Y-12792714D01*
X11795714Y-12521286D02*
X11810000Y-12507000D01*
X11838571Y-12492714D01*
X11910000Y-12492714D01*
X11938571Y-12507000D01*
X11952857Y-12521286D01*
X11967143Y-12549857D01*
X11967143Y-12578429D01*
X11952857Y-12621286D01*
X11781428Y-12792714D01*
X11967143Y-12792714D01*
X12152857Y-12492714D02*
X12181428Y-12492714D01*
X12210000Y-12507000D01*
X12224286Y-12521286D01*
X12238571Y-12549857D01*
X12252857Y-12607000D01*
X12252857Y-12678429D01*
X12238571Y-12735571D01*
X12224286Y-12764143D01*
X12210000Y-12778429D01*
X12181428Y-12792714D01*
X12152857Y-12792714D01*
X12124286Y-12778429D01*
X12110000Y-12764143D01*
X12095714Y-12735571D01*
X12081428Y-12678429D01*
X12081428Y-12607000D01*
X12095714Y-12549857D01*
X12110000Y-12521286D01*
X12124286Y-12507000D01*
X12152857Y-12492714D01*
X12381428Y-12792714D02*
X12381428Y-12592714D01*
X12381428Y-12621286D02*
X12395714Y-12607000D01*
X12424286Y-12592714D01*
X12467143Y-12592714D01*
X12495714Y-12607000D01*
X12510000Y-12635571D01*
X12510000Y-12792714D01*
X12510000Y-12635571D02*
X12524286Y-12607000D01*
X12552857Y-12592714D01*
X12595714Y-12592714D01*
X12624286Y-12607000D01*
X12638571Y-12635571D01*
X12638571Y-12792714D01*
X12781428Y-12792714D02*
X12781428Y-12592714D01*
X12781428Y-12621286D02*
X12795714Y-12607000D01*
X12824286Y-12592714D01*
X12867143Y-12592714D01*
X12895714Y-12607000D01*
X12910000Y-12635571D01*
X12910000Y-12792714D01*
X12910000Y-12635571D02*
X12924286Y-12607000D01*
X12952857Y-12592714D01*
X12995714Y-12592714D01*
X13024286Y-12607000D01*
X13038571Y-12635571D01*
X13038571Y-12792714D01*
X13624286Y-12478429D02*
X13367143Y-12864143D01*
X14010000Y-12492714D02*
X14038571Y-12492714D01*
X14067143Y-12507000D01*
X14081428Y-12521286D01*
X14095714Y-12549857D01*
X14110000Y-12607000D01*
X14110000Y-12678429D01*
X14095714Y-12735571D01*
X14081428Y-12764143D01*
X14067143Y-12778429D01*
X14038571Y-12792714D01*
X14010000Y-12792714D01*
X13981428Y-12778429D01*
X13967143Y-12764143D01*
X13952857Y-12735571D01*
X13938571Y-12678429D01*
X13938571Y-12607000D01*
X13952857Y-12549857D01*
X13967143Y-12521286D01*
X13981428Y-12507000D01*
X14010000Y-12492714D01*
X14238571Y-12764143D02*
X14252857Y-12778429D01*
X14238571Y-12792714D01*
X14224286Y-12778429D01*
X14238571Y-12764143D01*
X14238571Y-12792714D01*
X14538571Y-12792714D02*
X14367143Y-12792714D01*
X14452857Y-12792714D02*
X14452857Y-12492714D01*
X14424286Y-12535571D01*
X14395714Y-12564143D01*
X14367143Y-12578429D01*
X14652857Y-12521286D02*
X14667143Y-12507000D01*
X14695714Y-12492714D01*
X14767143Y-12492714D01*
X14795714Y-12507000D01*
X14810000Y-12521286D01*
X14824286Y-12549857D01*
X14824286Y-12578429D01*
X14810000Y-12621286D01*
X14638571Y-12792714D01*
X14824286Y-12792714D01*
X15081428Y-12492714D02*
X15024286Y-12492714D01*
X14995714Y-12507000D01*
X14981428Y-12521286D01*
X14952857Y-12564143D01*
X14938571Y-12621286D01*
X14938571Y-12735571D01*
X14952857Y-12764143D01*
X14967143Y-12778429D01*
X14995714Y-12792714D01*
X15052857Y-12792714D01*
X15081428Y-12778429D01*
X15095714Y-12764143D01*
X15110000Y-12735571D01*
X15110000Y-12664143D01*
X15095714Y-12635571D01*
X15081428Y-12621286D01*
X15052857Y-12607000D01*
X14995714Y-12607000D01*
X14967143Y-12621286D01*
X14952857Y-12635571D01*
X14938571Y-12664143D01*
X15224286Y-12492714D02*
X15224286Y-12549857D01*
X15338571Y-12492714D02*
X15338571Y-12549857D01*
X15781428Y-12907000D02*
X15767143Y-12892714D01*
X15738571Y-12849857D01*
X15724286Y-12821286D01*
X15710000Y-12778429D01*
X15695714Y-12707000D01*
X15695714Y-12649857D01*
X15710000Y-12578429D01*
X15724286Y-12535571D01*
X15738571Y-12507000D01*
X15767143Y-12464143D01*
X15781428Y-12449857D01*
X16024286Y-12592714D02*
X16024286Y-12792714D01*
X15952857Y-12478429D02*
X15881428Y-12692714D01*
X16067143Y-12692714D01*
X16410000Y-12792714D02*
X16410000Y-12492714D01*
X16538571Y-12792714D02*
X16538571Y-12635571D01*
X16524286Y-12607000D01*
X16495714Y-12592714D01*
X16452857Y-12592714D01*
X16424286Y-12607000D01*
X16410000Y-12621286D01*
X16724286Y-12792714D02*
X16695714Y-12778429D01*
X16681428Y-12764143D01*
X16667143Y-12735571D01*
X16667143Y-12649857D01*
X16681428Y-12621286D01*
X16695714Y-12607000D01*
X16724286Y-12592714D01*
X16767143Y-12592714D01*
X16795714Y-12607000D01*
X16810000Y-12621286D01*
X16824286Y-12649857D01*
X16824286Y-12735571D01*
X16810000Y-12764143D01*
X16795714Y-12778429D01*
X16767143Y-12792714D01*
X16724286Y-12792714D01*
X16995714Y-12792714D02*
X16967143Y-12778429D01*
X16952857Y-12749857D01*
X16952857Y-12492714D01*
X17224286Y-12778429D02*
X17195714Y-12792714D01*
X17138571Y-12792714D01*
X17110000Y-12778429D01*
X17095714Y-12749857D01*
X17095714Y-12635571D01*
X17110000Y-12607000D01*
X17138571Y-12592714D01*
X17195714Y-12592714D01*
X17224286Y-12607000D01*
X17238571Y-12635571D01*
X17238571Y-12664143D01*
X17095714Y-12692714D01*
X17352857Y-12778429D02*
X17381428Y-12792714D01*
X17438571Y-12792714D01*
X17467143Y-12778429D01*
X17481428Y-12749857D01*
X17481428Y-12735571D01*
X17467143Y-12707000D01*
X17438571Y-12692714D01*
X17395714Y-12692714D01*
X17367143Y-12678429D01*
X17352857Y-12649857D01*
X17352857Y-12635571D01*
X17367143Y-12607000D01*
X17395714Y-12592714D01*
X17438571Y-12592714D01*
X17467143Y-12607000D01*
X17581428Y-12907000D02*
X17595714Y-12892714D01*
X17624286Y-12849857D01*
X17638571Y-12821286D01*
X17652857Y-12778429D01*
X17667143Y-12707000D01*
X17667143Y-12649857D01*
X17652857Y-12578429D01*
X17638571Y-12535571D01*
X17624286Y-12507000D01*
X17595714Y-12464143D01*
X17581428Y-12449857D01*
M02*
