%FSLAX45Y45*%
G04 Gerber Fmt 4.5, Leading zero omitted, Abs format (unit mm)*
G04 Created by KiCad (PCBNEW 5.1.9) date 2021-05-18 22:41:59*
%MOMM*%
%LPD*%
G01*
G04 APERTURE LIST*
%TA.AperFunction,Profile*%
%ADD10C,0.100000*%
%TD*%
%ADD11C,0.200000*%
%ADD12C,0.300000*%
G04 APERTURE END LIST*
D10*
X15100000Y-6900000D02*
X15100000Y-10900000D01*
X11100000Y-6900000D02*
X15100000Y-6900000D01*
X11100000Y-10900000D02*
X11100000Y-6900000D01*
X15100000Y-10900000D02*
X11100000Y-10900000D01*
D11*
D12*
X11381428Y-11370714D02*
X11381428Y-11070714D01*
X11452857Y-11070714D01*
X11495714Y-11085000D01*
X11524286Y-11113572D01*
X11538571Y-11142143D01*
X11552857Y-11199286D01*
X11552857Y-11242143D01*
X11538571Y-11299286D01*
X11524286Y-11327857D01*
X11495714Y-11356429D01*
X11452857Y-11370714D01*
X11381428Y-11370714D01*
X11681428Y-11370714D02*
X11681428Y-11170714D01*
X11681428Y-11227857D02*
X11695714Y-11199286D01*
X11710000Y-11185000D01*
X11738571Y-11170714D01*
X11767143Y-11170714D01*
X11867143Y-11370714D02*
X11867143Y-11170714D01*
X11867143Y-11070714D02*
X11852857Y-11085000D01*
X11867143Y-11099286D01*
X11881428Y-11085000D01*
X11867143Y-11070714D01*
X11867143Y-11099286D01*
X12052857Y-11370714D02*
X12024286Y-11356429D01*
X12010000Y-11327857D01*
X12010000Y-11070714D01*
X12210000Y-11370714D02*
X12181428Y-11356429D01*
X12167143Y-11327857D01*
X12167143Y-11070714D01*
X12552857Y-11370714D02*
X12552857Y-11070714D01*
X12652857Y-11285000D01*
X12752857Y-11070714D01*
X12752857Y-11370714D01*
X13024286Y-11370714D02*
X13024286Y-11213571D01*
X13010000Y-11185000D01*
X12981428Y-11170714D01*
X12924286Y-11170714D01*
X12895714Y-11185000D01*
X13024286Y-11356429D02*
X12995714Y-11370714D01*
X12924286Y-11370714D01*
X12895714Y-11356429D01*
X12881428Y-11327857D01*
X12881428Y-11299286D01*
X12895714Y-11270714D01*
X12924286Y-11256429D01*
X12995714Y-11256429D01*
X13024286Y-11242143D01*
X13167143Y-11170714D02*
X13167143Y-11470714D01*
X13167143Y-11185000D02*
X13195714Y-11170714D01*
X13252857Y-11170714D01*
X13281428Y-11185000D01*
X13295714Y-11199286D01*
X13310000Y-11227857D01*
X13310000Y-11313571D01*
X13295714Y-11342143D01*
X13281428Y-11356429D01*
X13252857Y-11370714D01*
X13195714Y-11370714D01*
X13167143Y-11356429D01*
X13438571Y-11342143D02*
X13452857Y-11356429D01*
X13438571Y-11370714D01*
X13424286Y-11356429D01*
X13438571Y-11342143D01*
X13438571Y-11370714D01*
X13438571Y-11185000D02*
X13452857Y-11199286D01*
X13438571Y-11213571D01*
X13424286Y-11199286D01*
X13438571Y-11185000D01*
X13438571Y-11213571D01*
M02*
