EESchema Schematic File Version 4
EELAYER 30 0
EELAYER END
$Descr A4 11693 8268
encoding utf-8
Sheet 1 1
Title ""
Date ""
Rev ""
Comp ""
Comment1 ""
Comment2 ""
Comment3 ""
Comment4 ""
$EndDescr
$Comp
L Sensor_Magnetic:A1302KUA-T U1
U 1 1 613780F1
P 5250 3550
F 0 "U1" H 5021 3596 50  0000 R CNN
F 1 "A3144" H 5021 3505 50  0000 R CNN
F 2 "Package_TO_SOT_THT:TO-92Flat" H 5250 3200 50  0001 L CIN
F 3 "http://www.allegromicro.com/~/media/Files/Datasheets/A1301-2-Datasheet.ashx" H 5150 3550 50  0001 C CNN
	1    5250 3550
	1    0    0    -1  
$EndComp
$Comp
L power:VCC #PWR03
U 1 1 6137A73F
P 5150 3050
F 0 "#PWR03" H 5150 2900 50  0001 C CNN
F 1 "VCC" H 5165 3223 50  0000 C CNN
F 2 "" H 5150 3050 50  0001 C CNN
F 3 "" H 5150 3050 50  0001 C CNN
	1    5150 3050
	1    0    0    -1  
$EndComp
$Comp
L power:VCC #PWR06
U 1 1 6137ABEB
P 6450 3150
F 0 "#PWR06" H 6450 3000 50  0001 C CNN
F 1 "VCC" H 6465 3323 50  0000 C CNN
F 2 "" H 6450 3150 50  0001 C CNN
F 3 "" H 6450 3150 50  0001 C CNN
	1    6450 3150
	1    0    0    -1  
$EndComp
$Comp
L Device:R R1
U 1 1 6137B161
P 6000 3400
F 0 "R1" H 6070 3446 50  0000 L CNN
F 1 "10k" H 6070 3355 50  0000 L CNN
F 2 "Resistor_THT:R_Axial_DIN0207_L6.3mm_D2.5mm_P10.16mm_Horizontal" V 5930 3400 50  0001 C CNN
F 3 "~" H 6000 3400 50  0001 C CNN
	1    6000 3400
	1    0    0    -1  
$EndComp
Wire Wire Line
	6600 3350 6450 3350
$Comp
L power:GND #PWR07
U 1 1 6137CAEA
P 6500 3450
F 0 "#PWR07" H 6500 3200 50  0001 C CNN
F 1 "GND" V 6505 3322 50  0000 R CNN
F 2 "" H 6500 3450 50  0001 C CNN
F 3 "" H 6500 3450 50  0001 C CNN
	1    6500 3450
	0    1    1    0   
$EndComp
Wire Wire Line
	6600 3450 6500 3450
Wire Wire Line
	6000 3550 6600 3550
$Comp
L power:VCC #PWR05
U 1 1 61385CA1
P 6000 3150
F 0 "#PWR05" H 6000 3000 50  0001 C CNN
F 1 "VCC" H 6015 3323 50  0000 C CNN
F 2 "" H 6000 3150 50  0001 C CNN
F 3 "" H 6000 3150 50  0001 C CNN
	1    6000 3150
	1    0    0    -1  
$EndComp
Wire Wire Line
	6000 3250 6000 3150
Wire Wire Line
	6450 3150 6450 3350
Wire Wire Line
	6000 3550 5550 3550
Connection ~ 6000 3550
Wire Wire Line
	5150 3050 5150 3150
Wire Wire Line
	5150 3950 5150 4050
Text Notes 6100 4150 0    50   ~ 0
V = 5 V; R = 10 K\n\nI = 5/10 K\nI = 0.5 mA
$Comp
L power:PWR_FLAG #FLG02
U 1 1 61378F49
P 4450 3400
F 0 "#FLG02" H 4450 3475 50  0001 C CNN
F 1 "PWR_FLAG" H 4450 3573 50  0000 C CNN
F 2 "" H 4450 3400 50  0001 C CNN
F 3 "~" H 4450 3400 50  0001 C CNN
	1    4450 3400
	1    0    0    -1  
$EndComp
$Comp
L power:PWR_FLAG #FLG01
U 1 1 6137923A
P 4050 3400
F 0 "#FLG01" H 4050 3475 50  0001 C CNN
F 1 "PWR_FLAG" H 4050 3573 50  0000 C CNN
F 2 "" H 4050 3400 50  0001 C CNN
F 3 "~" H 4050 3400 50  0001 C CNN
	1    4050 3400
	1    0    0    -1  
$EndComp
$Comp
L power:VCC #PWR02
U 1 1 61379572
P 4450 3550
F 0 "#PWR02" H 4450 3400 50  0001 C CNN
F 1 "VCC" H 4465 3723 50  0000 C CNN
F 2 "" H 4450 3550 50  0001 C CNN
F 3 "" H 4450 3550 50  0001 C CNN
	1    4450 3550
	-1   0    0    1   
$EndComp
$Comp
L power:GND #PWR04
U 1 1 6137B7F1
P 5150 4050
F 0 "#PWR04" H 5150 3800 50  0001 C CNN
F 1 "GND" H 5155 3877 50  0000 C CNN
F 2 "" H 5150 4050 50  0001 C CNN
F 3 "" H 5150 4050 50  0001 C CNN
	1    5150 4050
	1    0    0    -1  
$EndComp
$Comp
L power:GND #PWR01
U 1 1 61379A38
P 4050 3550
F 0 "#PWR01" H 4050 3300 50  0001 C CNN
F 1 "GND" H 4055 3377 50  0000 C CNN
F 2 "" H 4050 3550 50  0001 C CNN
F 3 "" H 4050 3550 50  0001 C CNN
	1    4050 3550
	1    0    0    -1  
$EndComp
Wire Wire Line
	4050 3400 4050 3550
Wire Wire Line
	4450 3400 4450 3550
$Comp
L Connector:Conn_01x03_Female J1
U 1 1 61379BFD
P 6800 3450
F 0 "J1" H 6828 3476 50  0000 L CNN
F 1 "J1" H 6828 3385 50  0000 L CNN
F 2 "Connector_PinHeader_2.54mm:PinHeader_1x03_P2.54mm_Horizontal" H 6800 3450 50  0001 C CNN
F 3 "~" H 6800 3450 50  0001 C CNN
	1    6800 3450
	1    0    0    1   
$EndComp
$EndSCHEMATC
