(kicad_pcb (version 20171130) (host pcbnew 5.1.10)

  (general
    (thickness 1.6)
    (drawings 11)
    (tracks 10)
    (zones 0)
    (modules 3)
    (nets 6)
  )

  (page A4)
  (layers
    (0 F.Cu signal)
    (31 B.Cu signal hide)
    (32 B.Adhes user hide)
    (33 F.Adhes user hide)
    (34 B.Paste user hide)
    (35 F.Paste user hide)
    (36 B.SilkS user hide)
    (37 F.SilkS user)
    (38 B.Mask user)
    (39 F.Mask user)
    (40 Dwgs.User user hide)
    (41 Cmts.User user hide)
    (42 Eco1.User user hide)
    (43 Eco2.User user hide)
    (44 Edge.Cuts user)
    (45 Margin user hide)
    (46 B.CrtYd user hide)
    (47 F.CrtYd user hide)
    (48 B.Fab user hide)
    (49 F.Fab user hide)
  )

  (setup
    (last_trace_width 0.3)
    (user_trace_width 0.3)
    (trace_clearance 0.2)
    (zone_clearance 0.508)
    (zone_45_only no)
    (trace_min 0.2)
    (via_size 0.8)
    (via_drill 0.4)
    (via_min_size 0.4)
    (via_min_drill 0.3)
    (uvia_size 0.3)
    (uvia_drill 0.1)
    (uvias_allowed no)
    (uvia_min_size 0.2)
    (uvia_min_drill 0.1)
    (edge_width 0.05)
    (segment_width 0.2)
    (pcb_text_width 0.3)
    (pcb_text_size 1.5 1.5)
    (mod_edge_width 0.12)
    (mod_text_size 1 1)
    (mod_text_width 0.15)
    (pad_size 1.524 1.524)
    (pad_drill 0.762)
    (pad_to_mask_clearance 0)
    (aux_axis_origin 0 0)
    (visible_elements FFFFFF7F)
    (pcbplotparams
      (layerselection 0x010e0_7fffffff)
      (usegerberextensions false)
      (usegerberattributes true)
      (usegerberadvancedattributes true)
      (creategerberjobfile true)
      (excludeedgelayer false)
      (linewidth 0.100000)
      (plotframeref false)
      (viasonmask false)
      (mode 1)
      (useauxorigin false)
      (hpglpennumber 1)
      (hpglpenspeed 20)
      (hpglpendiameter 15.000000)
      (psnegative false)
      (psa4output false)
      (plotreference true)
      (plotvalue true)
      (plotinvisibletext false)
      (padsonsilk false)
      (subtractmaskfromsilk false)
      (outputformat 4)
      (mirror false)
      (drillshape 1)
      (scaleselection 1)
      (outputdirectory "../pdf/"))
  )

  (net 0 "")
  (net 1 GND)
  (net 2 +3V3)
  (net 3 "Net-(U1-Pad3)")
  (net 4 "Net-(U1-Pad1)")
  (net 5 Signal)

  (net_class Default "This is the default net class."
    (clearance 0.2)
    (trace_width 0.25)
    (via_dia 0.8)
    (via_drill 0.4)
    (uvia_dia 0.3)
    (uvia_drill 0.1)
    (add_net +3V3)
    (add_net GND)
    (add_net "Net-(U1-Pad1)")
    (add_net "Net-(U1-Pad3)")
    (add_net Signal)
  )

  (module Connector_PinHeader_2.54mm:PinHeader_1x03_P2.54mm_Vertical (layer F.Cu) (tedit 59FED5CC) (tstamp 60D47CB0)
    (at 86.32 75.5 90)
    (descr "Through hole straight pin header, 1x03, 2.54mm pitch, single row")
    (tags "Through hole pin header THT 1x03 2.54mm single row")
    (path /60D49404)
    (fp_text reference J1 (at 3.7 4.78 90) (layer F.SilkS)
      (effects (font (size 1 1) (thickness 0.15)))
    )
    (fp_text value Sensor (at -3 2.08 180) (layer F.Fab)
      (effects (font (size 1 1) (thickness 0.15)))
    )
    (fp_text user %R (at 0.1 2.3) (layer F.Fab)
      (effects (font (size 1 1) (thickness 0.15)))
    )
    (fp_line (start -0.635 -1.27) (end 1.27 -1.27) (layer F.Fab) (width 0.1))
    (fp_line (start 1.27 -1.27) (end 1.27 6.35) (layer F.Fab) (width 0.1))
    (fp_line (start 1.27 6.35) (end -1.27 6.35) (layer F.Fab) (width 0.1))
    (fp_line (start -1.27 6.35) (end -1.27 -0.635) (layer F.Fab) (width 0.1))
    (fp_line (start -1.27 -0.635) (end -0.635 -1.27) (layer F.Fab) (width 0.1))
    (fp_line (start -1.33 6.41) (end 1.33 6.41) (layer F.SilkS) (width 0.12))
    (fp_line (start -1.33 1.27) (end -1.33 6.41) (layer F.SilkS) (width 0.12))
    (fp_line (start 1.33 1.27) (end 1.33 6.41) (layer F.SilkS) (width 0.12))
    (fp_line (start -1.33 1.27) (end 1.33 1.27) (layer F.SilkS) (width 0.12))
    (fp_line (start -1.33 0) (end -1.33 -1.33) (layer F.SilkS) (width 0.12))
    (fp_line (start -1.33 -1.33) (end 0 -1.33) (layer F.SilkS) (width 0.12))
    (fp_line (start -1.8 -1.8) (end -1.8 6.85) (layer F.CrtYd) (width 0.05))
    (fp_line (start -1.8 6.85) (end 1.8 6.85) (layer F.CrtYd) (width 0.05))
    (fp_line (start 1.8 6.85) (end 1.8 -1.8) (layer F.CrtYd) (width 0.05))
    (fp_line (start 1.8 -1.8) (end -1.8 -1.8) (layer F.CrtYd) (width 0.05))
    (pad 3 thru_hole oval (at 0 5.08 90) (size 1.7 1.7) (drill 1) (layers *.Cu *.Mask)
      (net 5 Signal))
    (pad 2 thru_hole oval (at 0 2.54 90) (size 1.7 1.7) (drill 1) (layers *.Cu *.Mask)
      (net 2 +3V3))
    (pad 1 thru_hole rect (at 0 0 90) (size 1.7 1.7) (drill 1) (layers *.Cu *.Mask)
      (net 1 GND))
    (model ${KISYS3DMOD}/Connector_PinHeader_2.54mm.3dshapes/PinHeader_1x03_P2.54mm_Vertical.wrl
      (at (xyz 0 0 0))
      (scale (xyz 1 1 1))
      (rotate (xyz 0 0 0))
    )
  )

  (module Package_TO_SOT_SMD:SOT-553 (layer F.Cu) (tedit 5A02FF57) (tstamp 60D4DE6F)
    (at 89 69.4)
    (descr SOT553)
    (tags SOT-553)
    (path /60D47BCF)
    (attr smd)
    (fp_text reference U1 (at -2.6 -0.2) (layer F.SilkS)
      (effects (font (size 1 1) (thickness 0.15)))
    )
    (fp_text value AH1883 (at 3.4 1.8 90) (layer F.SilkS)
      (effects (font (size 1 1) (thickness 0.15)))
    )
    (fp_text user %R (at 5.6 -0.1 180) (layer F.Fab)
      (effects (font (size 0.4 0.4) (thickness 0.0625)))
    )
    (fp_line (start -0.65 -0.5) (end -0.3 -0.85) (layer F.Fab) (width 0.1))
    (fp_line (start 0.65 0.9) (end -0.65 0.9) (layer F.SilkS) (width 0.12))
    (fp_line (start -0.9 -0.9) (end 0.65 -0.9) (layer F.SilkS) (width 0.12))
    (fp_line (start -0.65 -0.5) (end -0.65 0.85) (layer F.Fab) (width 0.1))
    (fp_line (start -0.65 0.85) (end 0.65 0.85) (layer F.Fab) (width 0.1))
    (fp_line (start 0.65 0.85) (end 0.65 -0.85) (layer F.Fab) (width 0.1))
    (fp_line (start 0.65 -0.85) (end -0.3 -0.85) (layer F.Fab) (width 0.1))
    (fp_line (start -1.18 -1.1) (end 1.18 -1.1) (layer F.CrtYd) (width 0.05))
    (fp_line (start -1.18 -1.1) (end -1.18 1.1) (layer F.CrtYd) (width 0.05))
    (fp_line (start 1.18 1.1) (end 1.18 -1.1) (layer F.CrtYd) (width 0.05))
    (fp_line (start 1.18 1.1) (end -1.18 1.1) (layer F.CrtYd) (width 0.05))
    (pad 4 smd rect (at 0.7 0.5) (size 0.45 0.3) (layers F.Cu F.Paste F.Mask)
      (net 2 +3V3))
    (pad 2 smd rect (at -0.7 0) (size 0.45 0.3) (layers F.Cu F.Paste F.Mask)
      (net 1 GND))
    (pad 5 smd rect (at 0.7 -0.5) (size 0.45 0.3) (layers F.Cu F.Paste F.Mask)
      (net 5 Signal))
    (pad 3 smd rect (at -0.7 0.5) (size 0.45 0.3) (layers F.Cu F.Paste F.Mask)
      (net 3 "Net-(U1-Pad3)"))
    (pad 1 smd rect (at -0.7 -0.5) (size 0.45 0.3) (layers F.Cu F.Paste F.Mask)
      (net 4 "Net-(U1-Pad1)"))
    (model ${KISYS3DMOD}/Package_TO_SOT_SMD.3dshapes/SOT-553.wrl
      (at (xyz 0 0 0))
      (scale (xyz 1 1 1))
      (rotate (xyz 0 0 0))
    )
  )

  (module Capacitor_SMD:C_0805_2012Metric_Pad1.18x1.45mm_HandSolder (layer F.Cu) (tedit 5F68FEEF) (tstamp 60D47C70)
    (at 87.8625 71.7 180)
    (descr "Capacitor SMD 0805 (2012 Metric), square (rectangular) end terminal, IPC_7351 nominal with elongated pad for handsoldering. (Body size source: IPC-SM-782 page 76, https://www.pcb-3d.com/wordpress/wp-content/uploads/ipc-sm-782a_amendment_1_and_2.pdf, https://docs.google.com/spreadsheets/d/1BsfQQcO9C6DZCsRaXUlFlo91Tg2WpOkGARC1WS5S8t0/edit?usp=sharing), generated with kicad-footprint-generator")
    (tags "capacitor handsolder")
    (path /60D4838A)
    (attr smd)
    (fp_text reference C1 (at 2.5625 0 90) (layer F.SilkS)
      (effects (font (size 1 1) (thickness 0.15)))
    )
    (fp_text value CAP (at -6.0625 0) (layer F.Fab)
      (effects (font (size 1 1) (thickness 0.15)))
    )
    (fp_text user %R (at -5.3625 1.3) (layer F.Fab)
      (effects (font (size 0.5 0.5) (thickness 0.08)))
    )
    (fp_line (start -1 0.625) (end -1 -0.625) (layer F.Fab) (width 0.1))
    (fp_line (start -1 -0.625) (end 1 -0.625) (layer F.Fab) (width 0.1))
    (fp_line (start 1 -0.625) (end 1 0.625) (layer F.Fab) (width 0.1))
    (fp_line (start 1 0.625) (end -1 0.625) (layer F.Fab) (width 0.1))
    (fp_line (start -0.261252 -0.735) (end 0.261252 -0.735) (layer F.SilkS) (width 0.12))
    (fp_line (start -0.261252 0.735) (end 0.261252 0.735) (layer F.SilkS) (width 0.12))
    (fp_line (start -1.88 0.98) (end -1.88 -0.98) (layer F.CrtYd) (width 0.05))
    (fp_line (start -1.88 -0.98) (end 1.88 -0.98) (layer F.CrtYd) (width 0.05))
    (fp_line (start 1.88 -0.98) (end 1.88 0.98) (layer F.CrtYd) (width 0.05))
    (fp_line (start 1.88 0.98) (end -1.88 0.98) (layer F.CrtYd) (width 0.05))
    (pad 2 smd roundrect (at 1.0375 0 180) (size 1.175 1.45) (layers F.Cu F.Paste F.Mask) (roundrect_rratio 0.2127659574468085)
      (net 1 GND))
    (pad 1 smd roundrect (at -1.0375 0 180) (size 1.175 1.45) (layers F.Cu F.Paste F.Mask) (roundrect_rratio 0.2127659574468085)
      (net 2 +3V3))
    (model ${KISYS3DMOD}/Capacitor_SMD.3dshapes/C_0805_2012Metric.wrl
      (at (xyz 0 0 0))
      (scale (xyz 1 1 1))
      (rotate (xyz 0 0 0))
    )
  )

  (gr_text 3v3 (at 89 73.5) (layer F.SilkS) (tstamp 60D4E3B8)
    (effects (font (size 1 1) (thickness 0.15)))
  )
  (gr_text GND (at 86.1 73.4) (layer F.SilkS)
    (effects (font (size 1 1) (thickness 0.15)))
  )
  (gr_line (start 93.8 68) (end 84.1 77.7) (layer F.Fab) (width 0.15))
  (gr_line (start 84.1 68) (end 93.8 77.7) (layer F.Fab) (width 0.15))
  (gr_text 3v3 (at 86.2 69.9) (layer B.SilkS)
    (effects (font (size 1 1) (thickness 0.15)))
  )
  (gr_line (start 93.8 68) (end 93.8 77.7) (layer Edge.Cuts) (width 0.1))
  (gr_line (start 84.1 68) (end 93.8 68) (layer Edge.Cuts) (width 0.1))
  (gr_line (start 84.1 77.7) (end 84.1 68) (layer Edge.Cuts) (width 0.1))
  (gr_line (start 93.8 77.7) (end 84.1 77.7) (layer Edge.Cuts) (width 0.1))
  (dimension 9.7 (width 0.15) (layer Dwgs.User) (tstamp 60D4D6D7)
    (gr_text "9.700 mm" (at 80.4 72.85 90) (layer Dwgs.User) (tstamp 60D4D6D7)
      (effects (font (size 1 1) (thickness 0.15)))
    )
    (feature1 (pts (xy 84.1 68) (xy 81.113579 68)))
    (feature2 (pts (xy 84.1 77.7) (xy 81.113579 77.7)))
    (crossbar (pts (xy 81.7 77.7) (xy 81.7 68)))
    (arrow1a (pts (xy 81.7 68) (xy 82.286421 69.126504)))
    (arrow1b (pts (xy 81.7 68) (xy 81.113579 69.126504)))
    (arrow2a (pts (xy 81.7 77.7) (xy 82.286421 76.573496)))
    (arrow2b (pts (xy 81.7 77.7) (xy 81.113579 76.573496)))
  )
  (dimension 9.7 (width 0.15) (layer Dwgs.User)
    (gr_text "9.700 mm" (at 88.95 64.3) (layer Dwgs.User)
      (effects (font (size 1 1) (thickness 0.15)))
    )
    (feature1 (pts (xy 93.8 68) (xy 93.8 65.013579)))
    (feature2 (pts (xy 84.1 68) (xy 84.1 65.013579)))
    (crossbar (pts (xy 84.1 65.6) (xy 93.8 65.6)))
    (arrow1a (pts (xy 93.8 65.6) (xy 92.673496 66.186421)))
    (arrow1b (pts (xy 93.8 65.6) (xy 92.673496 65.013579)))
    (arrow2a (pts (xy 84.1 65.6) (xy 85.226504 66.186421)))
    (arrow2b (pts (xy 84.1 65.6) (xy 85.226504 65.013579)))
  )

  (segment (start 88.3 69.4) (end 87 69.4) (width 0.3) (layer F.Cu) (net 1))
  (segment (start 88.9 75.46) (end 88.86 75.5) (width 0.3) (layer F.Cu) (net 2))
  (segment (start 88.86 71.74) (end 88.9 71.7) (width 0.3) (layer F.Cu) (net 2))
  (segment (start 88.86 75.5) (end 88.86 71.74) (width 0.3) (layer F.Cu) (net 2))
  (segment (start 89.7 70.9) (end 88.9 71.7) (width 0.3) (layer F.Cu) (net 2))
  (segment (start 89.7 69.9) (end 89.7 70.9) (width 0.3) (layer F.Cu) (net 2))
  (segment (start 91.8 75.1) (end 91.4 75.5) (width 0.3) (layer F.Cu) (net 5))
  (segment (start 91.4 75.5) (end 91.4 69.9) (width 0.3) (layer F.Cu) (net 5))
  (segment (start 90.4 68.9) (end 89.7 68.9) (width 0.3) (layer F.Cu) (net 5))
  (segment (start 91.4 69.9) (end 90.4 68.9) (width 0.3) (layer F.Cu) (net 5))

  (zone (net 1) (net_name GND) (layer F.Cu) (tstamp 60D4E490) (hatch edge 0.508)
    (connect_pads (clearance 0.508))
    (min_thickness 0.254)
    (fill yes (arc_segments 32) (thermal_gap 0.508) (thermal_bridge_width 0.508))
    (polygon
      (pts
        (xy 93.8 77.7) (xy 84.1 77.7) (xy 84.1 68) (xy 93.8 68)
      )
    )
    (filled_polygon
      (pts
        (xy 87.436928 68.75) (xy 87.436928 69.05) (xy 87.447358 69.1559) (xy 87.44 69.21825) (xy 87.472247 69.250497)
        (xy 87.485498 69.29418) (xy 87.542061 69.4) (xy 87.485498 69.50582) (xy 87.472247 69.549503) (xy 87.44 69.58175)
        (xy 87.447358 69.6441) (xy 87.436928 69.75) (xy 87.436928 70.05) (xy 87.449188 70.174482) (xy 87.485498 70.29418)
        (xy 87.513674 70.346892) (xy 87.4125 70.336928) (xy 87.11075 70.34) (xy 86.952 70.49875) (xy 86.952 71.573)
        (xy 86.972 71.573) (xy 86.972 71.827) (xy 86.952 71.827) (xy 86.952 72.90125) (xy 87.11075 73.06)
        (xy 87.4125 73.063072) (xy 87.536982 73.050812) (xy 87.65668 73.014502) (xy 87.766994 72.955537) (xy 87.863685 72.876185)
        (xy 87.929158 72.796406) (xy 87.934538 72.802962) (xy 88.069114 72.913405) (xy 88.075001 72.916552) (xy 88.075 74.238526)
        (xy 87.913368 74.346525) (xy 87.781513 74.47838) (xy 87.759502 74.40582) (xy 87.700537 74.295506) (xy 87.621185 74.198815)
        (xy 87.524494 74.119463) (xy 87.41418 74.060498) (xy 87.294482 74.024188) (xy 87.17 74.011928) (xy 86.60575 74.015)
        (xy 86.447 74.17375) (xy 86.447 75.373) (xy 86.467 75.373) (xy 86.467 75.627) (xy 86.447 75.627)
        (xy 86.447 76.82625) (xy 86.60575 76.985) (xy 87.17 76.988072) (xy 87.294482 76.975812) (xy 87.41418 76.939502)
        (xy 87.524494 76.880537) (xy 87.621185 76.801185) (xy 87.700537 76.704494) (xy 87.759502 76.59418) (xy 87.781513 76.52162)
        (xy 87.913368 76.653475) (xy 88.156589 76.81599) (xy 88.426842 76.927932) (xy 88.71374 76.985) (xy 89.00626 76.985)
        (xy 89.293158 76.927932) (xy 89.563411 76.81599) (xy 89.806632 76.653475) (xy 90.013475 76.446632) (xy 90.13 76.27224)
        (xy 90.246525 76.446632) (xy 90.453368 76.653475) (xy 90.696589 76.81599) (xy 90.966842 76.927932) (xy 91.25374 76.985)
        (xy 91.54626 76.985) (xy 91.833158 76.927932) (xy 92.103411 76.81599) (xy 92.346632 76.653475) (xy 92.553475 76.446632)
        (xy 92.71599 76.203411) (xy 92.827932 75.933158) (xy 92.885 75.64626) (xy 92.885 75.35374) (xy 92.827932 75.066842)
        (xy 92.71599 74.796589) (xy 92.553475 74.553368) (xy 92.346632 74.346525) (xy 92.185 74.238526) (xy 92.185 69.938556)
        (xy 92.188797 69.9) (xy 92.185 69.86144) (xy 92.185 69.861439) (xy 92.180063 69.811318) (xy 92.173642 69.746113)
        (xy 92.128754 69.59814) (xy 92.106156 69.555862) (xy 92.055862 69.461767) (xy 91.957764 69.342236) (xy 91.92781 69.317653)
        (xy 91.295157 68.685) (xy 93.115 68.685) (xy 93.115001 77.015) (xy 84.785 77.015) (xy 84.785 76.35)
        (xy 84.831928 76.35) (xy 84.844188 76.474482) (xy 84.880498 76.59418) (xy 84.939463 76.704494) (xy 85.018815 76.801185)
        (xy 85.115506 76.880537) (xy 85.22582 76.939502) (xy 85.345518 76.975812) (xy 85.47 76.988072) (xy 86.03425 76.985)
        (xy 86.193 76.82625) (xy 86.193 75.627) (xy 84.99375 75.627) (xy 84.835 75.78575) (xy 84.831928 76.35)
        (xy 84.785 76.35) (xy 84.785 74.65) (xy 84.831928 74.65) (xy 84.835 75.21425) (xy 84.99375 75.373)
        (xy 86.193 75.373) (xy 86.193 74.17375) (xy 86.03425 74.015) (xy 85.47 74.011928) (xy 85.345518 74.024188)
        (xy 85.22582 74.060498) (xy 85.115506 74.119463) (xy 85.018815 74.198815) (xy 84.939463 74.295506) (xy 84.880498 74.40582)
        (xy 84.844188 74.525518) (xy 84.831928 74.65) (xy 84.785 74.65) (xy 84.785 72.425) (xy 85.599428 72.425)
        (xy 85.611688 72.549482) (xy 85.647998 72.66918) (xy 85.706963 72.779494) (xy 85.786315 72.876185) (xy 85.883006 72.955537)
        (xy 85.99332 73.014502) (xy 86.113018 73.050812) (xy 86.2375 73.063072) (xy 86.53925 73.06) (xy 86.698 72.90125)
        (xy 86.698 71.827) (xy 85.76125 71.827) (xy 85.6025 71.98575) (xy 85.599428 72.425) (xy 84.785 72.425)
        (xy 84.785 70.975) (xy 85.599428 70.975) (xy 85.6025 71.41425) (xy 85.76125 71.573) (xy 86.698 71.573)
        (xy 86.698 70.49875) (xy 86.53925 70.34) (xy 86.2375 70.336928) (xy 86.113018 70.349188) (xy 85.99332 70.385498)
        (xy 85.883006 70.444463) (xy 85.786315 70.523815) (xy 85.706963 70.620506) (xy 85.647998 70.73082) (xy 85.611688 70.850518)
        (xy 85.599428 70.975) (xy 84.785 70.975) (xy 84.785 68.685) (xy 87.44333 68.685)
      )
    )
  )
)
