EESchema Schematic File Version 4
EELAYER 30 0
EELAYER END
$Descr A4 11693 8268
encoding utf-8
Sheet 1 1
Title ""
Date ""
Rev ""
Comp ""
Comment1 ""
Comment2 ""
Comment3 ""
Comment4 ""
$EndDescr
$Comp
L pspice:CAP C1
U 1 1 60D4838A
P 5000 3800
F 0 "C1" H 5178 3846 50  0000 L CNN
F 1 "CAP" H 5178 3755 50  0000 L CNN
F 2 "Capacitor_SMD:C_0805_2012Metric_Pad1.18x1.45mm_HandSolder" H 5000 3800 50  0001 C CNN
F 3 "~" H 5000 3800 50  0001 C CNN
	1    5000 3800
	1    0    0    -1  
$EndComp
Wire Wire Line
	5000 3550 5000 3300
Wire Wire Line
	5000 4500 5000 4050
$Comp
L Connector:Conn_01x03_Female J1
U 1 1 60D49404
P 8200 3650
F 0 "J1" H 8092 3325 50  0000 C CNN
F 1 "Sensor" H 8092 3416 50  0000 C CNN
F 2 "Connector_PinHeader_2.54mm:PinHeader_1x03_P2.54mm_Vertical" H 8200 3650 50  0001 C CNN
F 3 "~" H 8200 3650 50  0001 C CNN
	1    8200 3650
	0    1    -1   0   
$EndComp
$Comp
L power:+3V3 #PWR0101
U 1 1 60D4AF22
P 5900 3300
F 0 "#PWR0101" H 5900 3150 50  0001 C CNN
F 1 "+3V3" H 5915 3473 50  0000 C CNN
F 2 "" H 5900 3300 50  0001 C CNN
F 3 "" H 5900 3300 50  0001 C CNN
	1    5900 3300
	1    0    0    -1  
$EndComp
$Comp
L power:GND #PWR0102
U 1 1 60D4BB71
P 5900 4500
F 0 "#PWR0102" H 5900 4250 50  0001 C CNN
F 1 "GND" H 5905 4327 50  0000 C CNN
F 2 "" H 5900 4500 50  0001 C CNN
F 3 "" H 5900 4500 50  0001 C CNN
	1    5900 4500
	1    0    0    -1  
$EndComp
$Comp
L power:PWR_FLAG #FLG0101
U 1 1 60D4AA0E
P 4300 3750
F 0 "#FLG0101" H 4300 3825 50  0001 C CNN
F 1 "PWR_FLAG" H 4300 3923 50  0000 C CNN
F 2 "" H 4300 3750 50  0001 C CNN
F 3 "~" H 4300 3750 50  0001 C CNN
	1    4300 3750
	1    0    0    -1  
$EndComp
$Comp
L power:PWR_FLAG #FLG0102
U 1 1 60D4A4F6
P 3700 3750
F 0 "#FLG0102" H 3700 3825 50  0001 C CNN
F 1 "PWR_FLAG" H 3700 3923 50  0000 C CNN
F 2 "" H 3700 3750 50  0001 C CNN
F 3 "~" H 3700 3750 50  0001 C CNN
	1    3700 3750
	1    0    0    -1  
$EndComp
$Comp
L power:GND #PWR0104
U 1 1 60D4CE04
P 6850 4500
F 0 "#PWR0104" H 6850 4250 50  0001 C CNN
F 1 "GND" H 6855 4327 50  0000 C CNN
F 2 "" H 6850 4500 50  0001 C CNN
F 3 "" H 6850 4500 50  0001 C CNN
	1    6850 4500
	1    0    0    -1  
$EndComp
Wire Wire Line
	4300 3850 4300 3750
Wire Wire Line
	3700 3750 3700 3850
Wire Wire Line
	5900 3300 5900 3450
Wire Wire Line
	5900 4250 5900 4500
$Comp
L power:GND #PWR0105
U 1 1 60D57FB3
P 5000 4500
F 0 "#PWR0105" H 5000 4250 50  0001 C CNN
F 1 "GND" H 5005 4327 50  0000 C CNN
F 2 "" H 5000 4500 50  0001 C CNN
F 3 "" H 5000 4500 50  0001 C CNN
	1    5000 4500
	1    0    0    -1  
$EndComp
$Comp
L power:+3V3 #PWR0106
U 1 1 60D58407
P 5000 3300
F 0 "#PWR0106" H 5000 3150 50  0001 C CNN
F 1 "+3V3" H 5015 3473 50  0000 C CNN
F 2 "" H 5000 3300 50  0001 C CNN
F 3 "" H 5000 3300 50  0001 C CNN
	1    5000 3300
	1    0    0    -1  
$EndComp
$Comp
L power:GND #PWR0107
U 1 1 60D58A31
P 8300 3950
F 0 "#PWR0107" H 8300 3700 50  0001 C CNN
F 1 "GND" V 8305 3822 50  0000 R CNN
F 2 "" H 8300 3950 50  0001 C CNN
F 3 "" H 8300 3950 50  0001 C CNN
	1    8300 3950
	1    0    0    -1  
$EndComp
Text GLabel 8100 3950 3    50   Input ~ 0
Signal
Wire Wire Line
	8100 3950 8100 3850
Wire Wire Line
	8200 3850 8200 3950
Wire Wire Line
	8300 3950 8300 3850
Text GLabel 6250 3850 2    50   Input ~ 0
Signal
Wire Wire Line
	6250 3850 6200 3850
$Comp
L power:+5V #PWR?
U 1 1 6146DED3
P 8200 3950
F 0 "#PWR?" H 8200 3800 50  0001 C CNN
F 1 "+5V" V 8215 4123 50  0000 C CNN
F 2 "" H 8200 3950 50  0001 C CNN
F 3 "" H 8200 3950 50  0001 C CNN
	1    8200 3950
	-1   0    0    1   
$EndComp
$Comp
L Device:R R?
U 1 1 614707D9
P 6850 3550
F 0 "R?" H 6920 3596 50  0000 L CNN
F 1 "10k" H 6920 3505 50  0000 L CNN
F 2 "" V 6780 3550 50  0001 C CNN
F 3 "~" H 6850 3550 50  0001 C CNN
	1    6850 3550
	1    0    0    -1  
$EndComp
$Comp
L Device:R R?
U 1 1 61470B46
P 6850 3950
F 0 "R?" H 6920 3996 50  0000 L CNN
F 1 "10k" H 6920 3905 50  0000 L CNN
F 2 "" V 6780 3950 50  0001 C CNN
F 3 "~" H 6850 3950 50  0001 C CNN
	1    6850 3950
	1    0    0    -1  
$EndComp
$Comp
L Device:R R?
U 1 1 61470FFB
P 6850 4300
F 0 "R?" H 6920 4346 50  0000 L CNN
F 1 "10k" H 6920 4255 50  0000 L CNN
F 2 "" V 6780 4300 50  0001 C CNN
F 3 "~" H 6850 4300 50  0001 C CNN
	1    6850 4300
	1    0    0    -1  
$EndComp
Wire Wire Line
	6850 4500 6850 4450
Wire Wire Line
	6850 3700 6850 3750
Wire Wire Line
	6850 4100 6850 4150
$Comp
L power:+3V3 #PWR?
U 1 1 614762CE
P 7400 3300
F 0 "#PWR?" H 7400 3150 50  0001 C CNN
F 1 "+3V3" V 7415 3428 50  0000 L CNN
F 2 "" H 7400 3300 50  0001 C CNN
F 3 "" H 7400 3300 50  0001 C CNN
	1    7400 3300
	1    0    0    -1  
$EndComp
Wire Wire Line
	7400 3300 7400 3750
Wire Wire Line
	7400 3750 6850 3750
Connection ~ 6850 3750
Wire Wire Line
	6850 3750 6850 3800
$Comp
L power:GND #PWR?
U 1 1 614775F9
P 4300 3850
F 0 "#PWR?" H 4300 3600 50  0001 C CNN
F 1 "GND" H 4305 3677 50  0000 C CNN
F 2 "" H 4300 3850 50  0001 C CNN
F 3 "" H 4300 3850 50  0001 C CNN
	1    4300 3850
	1    0    0    -1  
$EndComp
$Comp
L power:+5V #PWR?
U 1 1 61477FA3
P 3700 3850
F 0 "#PWR?" H 3700 3700 50  0001 C CNN
F 1 "+5V" V 3715 4023 50  0000 C CNN
F 2 "" H 3700 3850 50  0001 C CNN
F 3 "" H 3700 3850 50  0001 C CNN
	1    3700 3850
	-1   0    0    1   
$EndComp
$Comp
L power:+5V #PWR?
U 1 1 61478661
P 6850 3300
F 0 "#PWR?" H 6850 3150 50  0001 C CNN
F 1 "+5V" V 6865 3473 50  0000 C CNN
F 2 "" H 6850 3300 50  0001 C CNN
F 3 "" H 6850 3300 50  0001 C CNN
	1    6850 3300
	1    0    0    -1  
$EndComp
Wire Wire Line
	6850 3300 6850 3400
$Comp
L Sensor_Magnetic:AH1806-Z U1
U 1 1 60D47BCF
P 5900 3850
F 0 "U1" H 5670 3896 50  0000 R CNN
F 1 "AH1883" H 5670 3805 50  0000 R CNN
F 2 "Package_TO_SOT_SMD:SOT-553" H 6500 3500 50  0001 C CNN
F 3 "https://www.diodes.com/assets/Datasheets/AH1806.pdf" H 5900 3850 50  0001 C CNN
	1    5900 3850
	1    0    0    -1  
$EndComp
Wire Notes Line
	3400 2850 8500 2850
Wire Notes Line
	8500 2850 8500 4750
Wire Notes Line
	8500 4750 3400 4750
Wire Notes Line
	3400 4750 3400 2850
Wire Notes Line
	4650 2850 4650 4750
Wire Notes Line
	6700 2850 6700 4750
Wire Notes Line
	7750 2850 7750 4750
Text Notes 7950 2950 0    50   ~ 0
Connector
Text Notes 6950 2950 0    50   ~ 0
Voltaje Converter
Text Notes 5500 2950 0    50   ~ 0
Hall Sensor
Text Notes 3850 2950 0    50   ~ 0
Power Flags
$EndSCHEMATC
