M48
; DRILL file {KiCad 5.1.10} date Mon Jun 14 18:35:00 2021
; FORMAT={-:-/ absolute / metric / decimal}
; #@! TF.CreationDate,2021-06-14T18:35:00-05:00
; #@! TF.GenerationSoftware,Kicad,Pcbnew,5.1.10
; #@! TF.FileFunction,Plated,1,2,PTH
FMAT,2
METRIC
T1C0.800
T2C1.190
T3C3.200
%
G90
G05
T1
X124.44Y-97.2
X125.6Y-80.7
X126.2Y-73.1
X126.2Y-76.8
X126.9Y-84.68
X126.9Y-92.3
X129.44Y-84.68
X129.44Y-92.3
X130.6Y-80.7
X131.98Y-84.68
X131.98Y-92.3
X134.52Y-84.68
X134.52Y-92.3
X134.6Y-97.2
X136.36Y-73.1
X136.36Y-76.8
X137.06Y-84.68
X137.06Y-92.3
X138.3Y-96.7
X139.6Y-84.68
X139.6Y-92.3
X142.14Y-84.68
X142.14Y-92.3
X142.7Y-77.3
X142.7Y-79.3
X143.3Y-96.7
X147.5Y-83.7
X147.5Y-93.86
T2
X118.7Y-78.46
X118.7Y-81.0
X118.7Y-85.6
X118.7Y-88.14
X118.7Y-90.68
X118.8Y-94.5
X118.8Y-97.04
X118.8Y-99.58
X124.76Y-103.9
X127.3Y-103.9
X131.66Y-103.9
X134.2Y-103.9
X138.46Y-103.8
X141.0Y-103.8
T3
X114.2Y-72.2
X114.2Y-105.8
X147.8Y-72.2
X147.8Y-105.8
T0
M30
