%TF.GenerationSoftware,KiCad,Pcbnew,5.1.10*%
%TF.CreationDate,2021-06-14T18:34:58-05:00*%
%TF.ProjectId,atariPunkConsole,61746172-6950-4756-9e6b-436f6e736f6c,rev?*%
%TF.SameCoordinates,Original*%
%TF.FileFunction,Profile,NP*%
%FSLAX46Y46*%
G04 Gerber Fmt 4.6, Leading zero omitted, Abs format (unit mm)*
G04 Created by KiCad (PCBNEW 5.1.10) date 2021-06-14 18:34:58*
%MOMM*%
%LPD*%
G01*
G04 APERTURE LIST*
%TA.AperFunction,Profile*%
%ADD10C,0.100000*%
%TD*%
G04 APERTURE END LIST*
D10*
X151000000Y-69000000D02*
X151000000Y-109000000D01*
X111000000Y-69000000D02*
X151000000Y-69000000D01*
X111000000Y-109000000D02*
X111000000Y-69000000D01*
X151000000Y-109000000D02*
X111000000Y-109000000D01*
M02*
