%TF.GenerationSoftware,KiCad,Pcbnew,5.1.10*%
%TF.CreationDate,2021-06-14T18:34:58-05:00*%
%TF.ProjectId,atariPunkConsole,61746172-6950-4756-9e6b-436f6e736f6c,rev?*%
%TF.SameCoordinates,Original*%
%TF.FileFunction,Legend,Top*%
%TF.FilePolarity,Positive*%
%FSLAX46Y46*%
G04 Gerber Fmt 4.6, Leading zero omitted, Abs format (unit mm)*
G04 Created by KiCad (PCBNEW 5.1.10) date 2021-06-14 18:34:58*
%MOMM*%
%LPD*%
G01*
G04 APERTURE LIST*
%TA.AperFunction,Profile*%
%ADD10C,0.100000*%
%TD*%
%ADD11C,0.120000*%
%ADD12C,0.300000*%
G04 APERTURE END LIST*
D10*
X151000000Y-69000000D02*
X151000000Y-109000000D01*
X111000000Y-69000000D02*
X151000000Y-69000000D01*
X111000000Y-109000000D02*
X111000000Y-69000000D01*
X151000000Y-109000000D02*
X111000000Y-109000000D01*
D11*
%TO.C,R4*%
X134550000Y-78170000D02*
X134550000Y-75430000D01*
X134550000Y-75430000D02*
X128010000Y-75430000D01*
X128010000Y-75430000D02*
X128010000Y-78170000D01*
X128010000Y-78170000D02*
X134550000Y-78170000D01*
X135320000Y-76800000D02*
X134550000Y-76800000D01*
X127240000Y-76800000D02*
X128010000Y-76800000D01*
%TO.C,U1*%
X125570000Y-89490000D02*
X125570000Y-90740000D01*
X125570000Y-90740000D02*
X143470000Y-90740000D01*
X143470000Y-90740000D02*
X143470000Y-86240000D01*
X143470000Y-86240000D02*
X125570000Y-86240000D01*
X125570000Y-86240000D02*
X125570000Y-87490000D01*
X125570000Y-87490000D02*
G75*
G02*
X125570000Y-89490000I0J-1000000D01*
G01*
%TO.C,BT1*%
X135580000Y-106930000D02*
X135580000Y-100910000D01*
X135580000Y-100910000D02*
X130280000Y-100910000D01*
X130280000Y-100910000D02*
X130280000Y-106930000D01*
X130280000Y-106930000D02*
X135580000Y-106930000D01*
X135870000Y-105900000D02*
X135870000Y-101900000D01*
X134200000Y-100910000D02*
X134200000Y-101910000D01*
X134200000Y-101910000D02*
X131660000Y-101910000D01*
X131660000Y-101910000D02*
X131660000Y-100910000D01*
X134200000Y-101910000D02*
X133950000Y-102440000D01*
X133950000Y-102440000D02*
X131910000Y-102440000D01*
X131910000Y-102440000D02*
X131660000Y-101910000D01*
X133950000Y-100910000D02*
X133950000Y-101910000D01*
X131910000Y-100910000D02*
X131910000Y-101910000D01*
X135000000Y-106930000D02*
X135000000Y-106330000D01*
X135000000Y-106330000D02*
X133400000Y-106330000D01*
X133400000Y-106330000D02*
X133400000Y-106930000D01*
X132460000Y-106930000D02*
X132460000Y-106330000D01*
X132460000Y-106330000D02*
X130860000Y-106330000D01*
X130860000Y-106330000D02*
X130860000Y-106930000D01*
%TO.C,D1*%
X142380000Y-106830000D02*
X142380000Y-100810000D01*
X142380000Y-100810000D02*
X137080000Y-100810000D01*
X137080000Y-100810000D02*
X137080000Y-106830000D01*
X137080000Y-106830000D02*
X142380000Y-106830000D01*
X142670000Y-105800000D02*
X142670000Y-101800000D01*
X141000000Y-100810000D02*
X141000000Y-101810000D01*
X141000000Y-101810000D02*
X138460000Y-101810000D01*
X138460000Y-101810000D02*
X138460000Y-100810000D01*
X141000000Y-101810000D02*
X140750000Y-102340000D01*
X140750000Y-102340000D02*
X138710000Y-102340000D01*
X138710000Y-102340000D02*
X138460000Y-101810000D01*
X140750000Y-100810000D02*
X140750000Y-101810000D01*
X138710000Y-100810000D02*
X138710000Y-101810000D01*
X141800000Y-106830000D02*
X141800000Y-106230000D01*
X141800000Y-106230000D02*
X140200000Y-106230000D01*
X140200000Y-106230000D02*
X140200000Y-106830000D01*
X139260000Y-106830000D02*
X139260000Y-106230000D01*
X139260000Y-106230000D02*
X137660000Y-106230000D01*
X137660000Y-106230000D02*
X137660000Y-106830000D01*
%TO.C,SW1*%
X128680000Y-106930000D02*
X128680000Y-100910000D01*
X128680000Y-100910000D02*
X123380000Y-100910000D01*
X123380000Y-100910000D02*
X123380000Y-106930000D01*
X123380000Y-106930000D02*
X128680000Y-106930000D01*
X128970000Y-105900000D02*
X128970000Y-101900000D01*
X127300000Y-100910000D02*
X127300000Y-101910000D01*
X127300000Y-101910000D02*
X124760000Y-101910000D01*
X124760000Y-101910000D02*
X124760000Y-100910000D01*
X127300000Y-101910000D02*
X127050000Y-102440000D01*
X127050000Y-102440000D02*
X125010000Y-102440000D01*
X125010000Y-102440000D02*
X124760000Y-101910000D01*
X127050000Y-100910000D02*
X127050000Y-101910000D01*
X125010000Y-100910000D02*
X125010000Y-101910000D01*
X128100000Y-106930000D02*
X128100000Y-106330000D01*
X128100000Y-106330000D02*
X126500000Y-106330000D01*
X126500000Y-106330000D02*
X126500000Y-106930000D01*
X125560000Y-106930000D02*
X125560000Y-106330000D01*
X125560000Y-106330000D02*
X123960000Y-106330000D01*
X123960000Y-106330000D02*
X123960000Y-106930000D01*
%TO.C,RV2*%
X115670000Y-92060000D02*
X121690000Y-92060000D01*
X121690000Y-92060000D02*
X121690000Y-84220000D01*
X121690000Y-84220000D02*
X115670000Y-84220000D01*
X115670000Y-84220000D02*
X115670000Y-92060000D01*
X116700000Y-92350000D02*
X120700000Y-92350000D01*
X121690000Y-90680000D02*
X120690000Y-90680000D01*
X120690000Y-90680000D02*
X120690000Y-85600000D01*
X120690000Y-85600000D02*
X121690000Y-85600000D01*
X120690000Y-90680000D02*
X120160000Y-90430000D01*
X120160000Y-90430000D02*
X120160000Y-85850000D01*
X120160000Y-85850000D02*
X120690000Y-85600000D01*
X121690000Y-90430000D02*
X120690000Y-90430000D01*
X121690000Y-85850000D02*
X120690000Y-85850000D01*
X115670000Y-91480000D02*
X116270000Y-91480000D01*
X116270000Y-91480000D02*
X116270000Y-89880000D01*
X116270000Y-89880000D02*
X115670000Y-89880000D01*
X115670000Y-88940000D02*
X116270000Y-88940000D01*
X116270000Y-88940000D02*
X116270000Y-87340000D01*
X116270000Y-87340000D02*
X115670000Y-87340000D01*
X115670000Y-86400000D02*
X116270000Y-86400000D01*
X116270000Y-86400000D02*
X116270000Y-84800000D01*
X116270000Y-84800000D02*
X115670000Y-84800000D01*
%TO.C,RV1*%
X115770000Y-100960000D02*
X121790000Y-100960000D01*
X121790000Y-100960000D02*
X121790000Y-93120000D01*
X121790000Y-93120000D02*
X115770000Y-93120000D01*
X115770000Y-93120000D02*
X115770000Y-100960000D01*
X116800000Y-101250000D02*
X120800000Y-101250000D01*
X121790000Y-99580000D02*
X120790000Y-99580000D01*
X120790000Y-99580000D02*
X120790000Y-94500000D01*
X120790000Y-94500000D02*
X121790000Y-94500000D01*
X120790000Y-99580000D02*
X120260000Y-99330000D01*
X120260000Y-99330000D02*
X120260000Y-94750000D01*
X120260000Y-94750000D02*
X120790000Y-94500000D01*
X121790000Y-99330000D02*
X120790000Y-99330000D01*
X121790000Y-94750000D02*
X120790000Y-94750000D01*
X115770000Y-100380000D02*
X116370000Y-100380000D01*
X116370000Y-100380000D02*
X116370000Y-98780000D01*
X116370000Y-98780000D02*
X115770000Y-98780000D01*
X115770000Y-97840000D02*
X116370000Y-97840000D01*
X116370000Y-97840000D02*
X116370000Y-96240000D01*
X116370000Y-96240000D02*
X115770000Y-96240000D01*
X115770000Y-95300000D02*
X116370000Y-95300000D01*
X116370000Y-95300000D02*
X116370000Y-93700000D01*
X116370000Y-93700000D02*
X115770000Y-93700000D01*
%TO.C,J1*%
X115670000Y-82380000D02*
X121690000Y-82380000D01*
X121690000Y-82380000D02*
X121690000Y-77080000D01*
X121690000Y-77080000D02*
X115670000Y-77080000D01*
X115670000Y-77080000D02*
X115670000Y-82380000D01*
X116700000Y-82670000D02*
X120700000Y-82670000D01*
X121690000Y-81000000D02*
X120690000Y-81000000D01*
X120690000Y-81000000D02*
X120690000Y-78460000D01*
X120690000Y-78460000D02*
X121690000Y-78460000D01*
X120690000Y-81000000D02*
X120160000Y-80750000D01*
X120160000Y-80750000D02*
X120160000Y-78710000D01*
X120160000Y-78710000D02*
X120690000Y-78460000D01*
X121690000Y-80750000D02*
X120690000Y-80750000D01*
X121690000Y-78710000D02*
X120690000Y-78710000D01*
X115670000Y-81800000D02*
X116270000Y-81800000D01*
X116270000Y-81800000D02*
X116270000Y-80200000D01*
X116270000Y-80200000D02*
X115670000Y-80200000D01*
X115670000Y-79260000D02*
X116270000Y-79260000D01*
X116270000Y-79260000D02*
X116270000Y-77660000D01*
X116270000Y-77660000D02*
X115670000Y-77660000D01*
%TO.C,R3*%
X148870000Y-85510000D02*
X146130000Y-85510000D01*
X146130000Y-85510000D02*
X146130000Y-92050000D01*
X146130000Y-92050000D02*
X148870000Y-92050000D01*
X148870000Y-92050000D02*
X148870000Y-85510000D01*
X147500000Y-84740000D02*
X147500000Y-85510000D01*
X147500000Y-92820000D02*
X147500000Y-92050000D01*
%TO.C,R2*%
X128010000Y-71730000D02*
X128010000Y-74470000D01*
X128010000Y-74470000D02*
X134550000Y-74470000D01*
X134550000Y-74470000D02*
X134550000Y-71730000D01*
X134550000Y-71730000D02*
X128010000Y-71730000D01*
X127240000Y-73100000D02*
X128010000Y-73100000D01*
X135320000Y-73100000D02*
X134550000Y-73100000D01*
%TO.C,R1*%
X126250000Y-95830000D02*
X126250000Y-98570000D01*
X126250000Y-98570000D02*
X132790000Y-98570000D01*
X132790000Y-98570000D02*
X132790000Y-95830000D01*
X132790000Y-95830000D02*
X126250000Y-95830000D01*
X125480000Y-97200000D02*
X126250000Y-97200000D01*
X133560000Y-97200000D02*
X132790000Y-97200000D01*
%TO.C,C3*%
X145320000Y-78300000D02*
G75*
G03*
X145320000Y-78300000I-2620000J0D01*
G01*
X143740000Y-78300000D02*
X145280000Y-78300000D01*
X140120000Y-78300000D02*
X141660000Y-78300000D01*
X143740000Y-78260000D02*
X145280000Y-78260000D01*
X140120000Y-78260000D02*
X141660000Y-78260000D01*
X140121000Y-78220000D02*
X141660000Y-78220000D01*
X143740000Y-78220000D02*
X145279000Y-78220000D01*
X140122000Y-78180000D02*
X141660000Y-78180000D01*
X143740000Y-78180000D02*
X145278000Y-78180000D01*
X140124000Y-78140000D02*
X141660000Y-78140000D01*
X143740000Y-78140000D02*
X145276000Y-78140000D01*
X140127000Y-78100000D02*
X141660000Y-78100000D01*
X143740000Y-78100000D02*
X145273000Y-78100000D01*
X140131000Y-78060000D02*
X141660000Y-78060000D01*
X143740000Y-78060000D02*
X145269000Y-78060000D01*
X140135000Y-78020000D02*
X141660000Y-78020000D01*
X143740000Y-78020000D02*
X145265000Y-78020000D01*
X140139000Y-77980000D02*
X141660000Y-77980000D01*
X143740000Y-77980000D02*
X145261000Y-77980000D01*
X140144000Y-77940000D02*
X141660000Y-77940000D01*
X143740000Y-77940000D02*
X145256000Y-77940000D01*
X140150000Y-77900000D02*
X141660000Y-77900000D01*
X143740000Y-77900000D02*
X145250000Y-77900000D01*
X140157000Y-77860000D02*
X141660000Y-77860000D01*
X143740000Y-77860000D02*
X145243000Y-77860000D01*
X140164000Y-77820000D02*
X141660000Y-77820000D01*
X143740000Y-77820000D02*
X145236000Y-77820000D01*
X140172000Y-77780000D02*
X141660000Y-77780000D01*
X143740000Y-77780000D02*
X145228000Y-77780000D01*
X140180000Y-77740000D02*
X141660000Y-77740000D01*
X143740000Y-77740000D02*
X145220000Y-77740000D01*
X140189000Y-77700000D02*
X141660000Y-77700000D01*
X143740000Y-77700000D02*
X145211000Y-77700000D01*
X140199000Y-77660000D02*
X141660000Y-77660000D01*
X143740000Y-77660000D02*
X145201000Y-77660000D01*
X140209000Y-77620000D02*
X141660000Y-77620000D01*
X143740000Y-77620000D02*
X145191000Y-77620000D01*
X140220000Y-77579000D02*
X141660000Y-77579000D01*
X143740000Y-77579000D02*
X145180000Y-77579000D01*
X140232000Y-77539000D02*
X141660000Y-77539000D01*
X143740000Y-77539000D02*
X145168000Y-77539000D01*
X140245000Y-77499000D02*
X141660000Y-77499000D01*
X143740000Y-77499000D02*
X145155000Y-77499000D01*
X140258000Y-77459000D02*
X141660000Y-77459000D01*
X143740000Y-77459000D02*
X145142000Y-77459000D01*
X140272000Y-77419000D02*
X141660000Y-77419000D01*
X143740000Y-77419000D02*
X145128000Y-77419000D01*
X140286000Y-77379000D02*
X141660000Y-77379000D01*
X143740000Y-77379000D02*
X145114000Y-77379000D01*
X140302000Y-77339000D02*
X141660000Y-77339000D01*
X143740000Y-77339000D02*
X145098000Y-77339000D01*
X140318000Y-77299000D02*
X141660000Y-77299000D01*
X143740000Y-77299000D02*
X145082000Y-77299000D01*
X140335000Y-77259000D02*
X141660000Y-77259000D01*
X143740000Y-77259000D02*
X145065000Y-77259000D01*
X140352000Y-77219000D02*
X141660000Y-77219000D01*
X143740000Y-77219000D02*
X145048000Y-77219000D01*
X140371000Y-77179000D02*
X141660000Y-77179000D01*
X143740000Y-77179000D02*
X145029000Y-77179000D01*
X140390000Y-77139000D02*
X141660000Y-77139000D01*
X143740000Y-77139000D02*
X145010000Y-77139000D01*
X140410000Y-77099000D02*
X141660000Y-77099000D01*
X143740000Y-77099000D02*
X144990000Y-77099000D01*
X140432000Y-77059000D02*
X141660000Y-77059000D01*
X143740000Y-77059000D02*
X144968000Y-77059000D01*
X140453000Y-77019000D02*
X141660000Y-77019000D01*
X143740000Y-77019000D02*
X144947000Y-77019000D01*
X140476000Y-76979000D02*
X141660000Y-76979000D01*
X143740000Y-76979000D02*
X144924000Y-76979000D01*
X140500000Y-76939000D02*
X141660000Y-76939000D01*
X143740000Y-76939000D02*
X144900000Y-76939000D01*
X140525000Y-76899000D02*
X141660000Y-76899000D01*
X143740000Y-76899000D02*
X144875000Y-76899000D01*
X140551000Y-76859000D02*
X141660000Y-76859000D01*
X143740000Y-76859000D02*
X144849000Y-76859000D01*
X140578000Y-76819000D02*
X141660000Y-76819000D01*
X143740000Y-76819000D02*
X144822000Y-76819000D01*
X140605000Y-76779000D02*
X141660000Y-76779000D01*
X143740000Y-76779000D02*
X144795000Y-76779000D01*
X140635000Y-76739000D02*
X141660000Y-76739000D01*
X143740000Y-76739000D02*
X144765000Y-76739000D01*
X140665000Y-76699000D02*
X141660000Y-76699000D01*
X143740000Y-76699000D02*
X144735000Y-76699000D01*
X140696000Y-76659000D02*
X141660000Y-76659000D01*
X143740000Y-76659000D02*
X144704000Y-76659000D01*
X140729000Y-76619000D02*
X141660000Y-76619000D01*
X143740000Y-76619000D02*
X144671000Y-76619000D01*
X140763000Y-76579000D02*
X141660000Y-76579000D01*
X143740000Y-76579000D02*
X144637000Y-76579000D01*
X140799000Y-76539000D02*
X141660000Y-76539000D01*
X143740000Y-76539000D02*
X144601000Y-76539000D01*
X140836000Y-76499000D02*
X141660000Y-76499000D01*
X143740000Y-76499000D02*
X144564000Y-76499000D01*
X140874000Y-76459000D02*
X141660000Y-76459000D01*
X143740000Y-76459000D02*
X144526000Y-76459000D01*
X140915000Y-76419000D02*
X141660000Y-76419000D01*
X143740000Y-76419000D02*
X144485000Y-76419000D01*
X140957000Y-76379000D02*
X141660000Y-76379000D01*
X143740000Y-76379000D02*
X144443000Y-76379000D01*
X141001000Y-76339000D02*
X141660000Y-76339000D01*
X143740000Y-76339000D02*
X144399000Y-76339000D01*
X141047000Y-76299000D02*
X141660000Y-76299000D01*
X143740000Y-76299000D02*
X144353000Y-76299000D01*
X141095000Y-76259000D02*
X144305000Y-76259000D01*
X141146000Y-76219000D02*
X144254000Y-76219000D01*
X141200000Y-76179000D02*
X144200000Y-76179000D01*
X141257000Y-76139000D02*
X144143000Y-76139000D01*
X141317000Y-76099000D02*
X144083000Y-76099000D01*
X141381000Y-76059000D02*
X144019000Y-76059000D01*
X141449000Y-76019000D02*
X143951000Y-76019000D01*
X141522000Y-75979000D02*
X143878000Y-75979000D01*
X141602000Y-75939000D02*
X143798000Y-75939000D01*
X141689000Y-75899000D02*
X143711000Y-75899000D01*
X141785000Y-75859000D02*
X143615000Y-75859000D01*
X141895000Y-75819000D02*
X143505000Y-75819000D01*
X142023000Y-75779000D02*
X143377000Y-75779000D01*
X142182000Y-75739000D02*
X143218000Y-75739000D01*
X142416000Y-75699000D02*
X142984000Y-75699000D01*
X141225000Y-81104775D02*
X141225000Y-80604775D01*
X140975000Y-80854775D02*
X141475000Y-80854775D01*
%TO.C,C2*%
X125480000Y-79330000D02*
X130720000Y-79330000D01*
X125480000Y-82070000D02*
X130720000Y-82070000D01*
X125480000Y-79330000D02*
X125480000Y-79645000D01*
X125480000Y-81755000D02*
X125480000Y-82070000D01*
X130720000Y-79330000D02*
X130720000Y-79645000D01*
X130720000Y-81755000D02*
X130720000Y-82070000D01*
%TO.C,C1*%
X138180000Y-95330000D02*
X143420000Y-95330000D01*
X138180000Y-98070000D02*
X143420000Y-98070000D01*
X138180000Y-95330000D02*
X138180000Y-95645000D01*
X138180000Y-97755000D02*
X138180000Y-98070000D01*
X143420000Y-95330000D02*
X143420000Y-95645000D01*
X143420000Y-97755000D02*
X143420000Y-98070000D01*
%TD*%
%TO.C,R4*%
D12*
X123450000Y-77614285D02*
X122950000Y-76757142D01*
X122592857Y-77614285D02*
X122592857Y-75814285D01*
X123164285Y-75814285D01*
X123307142Y-75900000D01*
X123378571Y-75985714D01*
X123450000Y-76157142D01*
X123450000Y-76414285D01*
X123378571Y-76585714D01*
X123307142Y-76671428D01*
X123164285Y-76757142D01*
X122592857Y-76757142D01*
X124735714Y-76414285D02*
X124735714Y-77614285D01*
X124378571Y-75728571D02*
X124021428Y-77014285D01*
X124950000Y-77014285D01*
%TO.C,U1*%
X122857142Y-87714285D02*
X122857142Y-89171428D01*
X122928571Y-89342857D01*
X123000000Y-89428571D01*
X123142857Y-89514285D01*
X123428571Y-89514285D01*
X123571428Y-89428571D01*
X123642857Y-89342857D01*
X123714285Y-89171428D01*
X123714285Y-87714285D01*
X125214285Y-89514285D02*
X124357142Y-89514285D01*
X124785714Y-89514285D02*
X124785714Y-87714285D01*
X124642857Y-87971428D01*
X124500000Y-88142857D01*
X124357142Y-88228571D01*
%TO.C,BT1*%
X131751428Y-107891428D02*
X131965714Y-107977142D01*
X132037142Y-108062857D01*
X132108571Y-108234285D01*
X132108571Y-108491428D01*
X132037142Y-108662857D01*
X131965714Y-108748571D01*
X131822857Y-108834285D01*
X131251428Y-108834285D01*
X131251428Y-107034285D01*
X131751428Y-107034285D01*
X131894285Y-107120000D01*
X131965714Y-107205714D01*
X132037142Y-107377142D01*
X132037142Y-107548571D01*
X131965714Y-107720000D01*
X131894285Y-107805714D01*
X131751428Y-107891428D01*
X131251428Y-107891428D01*
X132537142Y-107034285D02*
X133394285Y-107034285D01*
X132965714Y-108834285D02*
X132965714Y-107034285D01*
X134680000Y-108834285D02*
X133822857Y-108834285D01*
X134251428Y-108834285D02*
X134251428Y-107034285D01*
X134108571Y-107291428D01*
X133965714Y-107462857D01*
X133822857Y-107548571D01*
%TO.C,D1*%
X138622857Y-108734285D02*
X138622857Y-106934285D01*
X138980000Y-106934285D01*
X139194285Y-107020000D01*
X139337142Y-107191428D01*
X139408571Y-107362857D01*
X139480000Y-107705714D01*
X139480000Y-107962857D01*
X139408571Y-108305714D01*
X139337142Y-108477142D01*
X139194285Y-108648571D01*
X138980000Y-108734285D01*
X138622857Y-108734285D01*
X140908571Y-108734285D02*
X140051428Y-108734285D01*
X140480000Y-108734285D02*
X140480000Y-106934285D01*
X140337142Y-107191428D01*
X140194285Y-107362857D01*
X140051428Y-107448571D01*
%TO.C,SW1*%
X124030000Y-108748571D02*
X124244285Y-108834285D01*
X124601428Y-108834285D01*
X124744285Y-108748571D01*
X124815714Y-108662857D01*
X124887142Y-108491428D01*
X124887142Y-108320000D01*
X124815714Y-108148571D01*
X124744285Y-108062857D01*
X124601428Y-107977142D01*
X124315714Y-107891428D01*
X124172857Y-107805714D01*
X124101428Y-107720000D01*
X124030000Y-107548571D01*
X124030000Y-107377142D01*
X124101428Y-107205714D01*
X124172857Y-107120000D01*
X124315714Y-107034285D01*
X124672857Y-107034285D01*
X124887142Y-107120000D01*
X125387142Y-107034285D02*
X125744285Y-108834285D01*
X126030000Y-107548571D01*
X126315714Y-108834285D01*
X126672857Y-107034285D01*
X128030000Y-108834285D02*
X127172857Y-108834285D01*
X127601428Y-108834285D02*
X127601428Y-107034285D01*
X127458571Y-107291428D01*
X127315714Y-107462857D01*
X127172857Y-107548571D01*
%TO.C,RV2*%
X115394285Y-87292857D02*
X114537142Y-87792857D01*
X115394285Y-88150000D02*
X113594285Y-88150000D01*
X113594285Y-87578571D01*
X113680000Y-87435714D01*
X113765714Y-87364285D01*
X113937142Y-87292857D01*
X114194285Y-87292857D01*
X114365714Y-87364285D01*
X114451428Y-87435714D01*
X114537142Y-87578571D01*
X114537142Y-88150000D01*
X113594285Y-86864285D02*
X115394285Y-86364285D01*
X113594285Y-85864285D01*
X113765714Y-85435714D02*
X113680000Y-85364285D01*
X113594285Y-85221428D01*
X113594285Y-84864285D01*
X113680000Y-84721428D01*
X113765714Y-84650000D01*
X113937142Y-84578571D01*
X114108571Y-84578571D01*
X114365714Y-84650000D01*
X115394285Y-85507142D01*
X115394285Y-84578571D01*
%TO.C,RV1*%
X115494285Y-96092857D02*
X114637142Y-96592857D01*
X115494285Y-96950000D02*
X113694285Y-96950000D01*
X113694285Y-96378571D01*
X113780000Y-96235714D01*
X113865714Y-96164285D01*
X114037142Y-96092857D01*
X114294285Y-96092857D01*
X114465714Y-96164285D01*
X114551428Y-96235714D01*
X114637142Y-96378571D01*
X114637142Y-96950000D01*
X113694285Y-95664285D02*
X115494285Y-95164285D01*
X113694285Y-94664285D01*
X115494285Y-93378571D02*
X115494285Y-94235714D01*
X115494285Y-93807142D02*
X113694285Y-93807142D01*
X113951428Y-93950000D01*
X114122857Y-94092857D01*
X114208571Y-94235714D01*
%TO.C,J1*%
X113594285Y-80230000D02*
X114880000Y-80230000D01*
X115137142Y-80301428D01*
X115308571Y-80444285D01*
X115394285Y-80658571D01*
X115394285Y-80801428D01*
X115394285Y-78730000D02*
X115394285Y-79587142D01*
X115394285Y-79158571D02*
X113594285Y-79158571D01*
X113851428Y-79301428D01*
X114022857Y-79444285D01*
X114108571Y-79587142D01*
%TO.C,R3*%
X145914285Y-91110000D02*
X145057142Y-91610000D01*
X145914285Y-91967142D02*
X144114285Y-91967142D01*
X144114285Y-91395714D01*
X144200000Y-91252857D01*
X144285714Y-91181428D01*
X144457142Y-91110000D01*
X144714285Y-91110000D01*
X144885714Y-91181428D01*
X144971428Y-91252857D01*
X145057142Y-91395714D01*
X145057142Y-91967142D01*
X144114285Y-90610000D02*
X144114285Y-89681428D01*
X144800000Y-90181428D01*
X144800000Y-89967142D01*
X144885714Y-89824285D01*
X144971428Y-89752857D01*
X145142857Y-89681428D01*
X145571428Y-89681428D01*
X145742857Y-89752857D01*
X145828571Y-89824285D01*
X145914285Y-89967142D01*
X145914285Y-90395714D01*
X145828571Y-90538571D01*
X145742857Y-90610000D01*
%TO.C,R2*%
X131030000Y-71544285D02*
X130530000Y-70687142D01*
X130172857Y-71544285D02*
X130172857Y-69744285D01*
X130744285Y-69744285D01*
X130887142Y-69830000D01*
X130958571Y-69915714D01*
X131030000Y-70087142D01*
X131030000Y-70344285D01*
X130958571Y-70515714D01*
X130887142Y-70601428D01*
X130744285Y-70687142D01*
X130172857Y-70687142D01*
X131601428Y-69915714D02*
X131672857Y-69830000D01*
X131815714Y-69744285D01*
X132172857Y-69744285D01*
X132315714Y-69830000D01*
X132387142Y-69915714D01*
X132458571Y-70087142D01*
X132458571Y-70258571D01*
X132387142Y-70515714D01*
X131530000Y-71544285D01*
X132458571Y-71544285D01*
%TO.C,R1*%
X129270000Y-95644285D02*
X128770000Y-94787142D01*
X128412857Y-95644285D02*
X128412857Y-93844285D01*
X128984285Y-93844285D01*
X129127142Y-93930000D01*
X129198571Y-94015714D01*
X129270000Y-94187142D01*
X129270000Y-94444285D01*
X129198571Y-94615714D01*
X129127142Y-94701428D01*
X128984285Y-94787142D01*
X128412857Y-94787142D01*
X130698571Y-95644285D02*
X129841428Y-95644285D01*
X130270000Y-95644285D02*
X130270000Y-93844285D01*
X130127142Y-94101428D01*
X129984285Y-94272857D01*
X129841428Y-94358571D01*
%TO.C,C3*%
X142150000Y-74742857D02*
X142078571Y-74828571D01*
X141864285Y-74914285D01*
X141721428Y-74914285D01*
X141507142Y-74828571D01*
X141364285Y-74657142D01*
X141292857Y-74485714D01*
X141221428Y-74142857D01*
X141221428Y-73885714D01*
X141292857Y-73542857D01*
X141364285Y-73371428D01*
X141507142Y-73200000D01*
X141721428Y-73114285D01*
X141864285Y-73114285D01*
X142078571Y-73200000D01*
X142150000Y-73285714D01*
X142650000Y-73114285D02*
X143578571Y-73114285D01*
X143078571Y-73800000D01*
X143292857Y-73800000D01*
X143435714Y-73885714D01*
X143507142Y-73971428D01*
X143578571Y-74142857D01*
X143578571Y-74571428D01*
X143507142Y-74742857D01*
X143435714Y-74828571D01*
X143292857Y-74914285D01*
X142864285Y-74914285D01*
X142721428Y-74828571D01*
X142650000Y-74742857D01*
%TO.C,C2*%
X127850000Y-81342857D02*
X127778571Y-81428571D01*
X127564285Y-81514285D01*
X127421428Y-81514285D01*
X127207142Y-81428571D01*
X127064285Y-81257142D01*
X126992857Y-81085714D01*
X126921428Y-80742857D01*
X126921428Y-80485714D01*
X126992857Y-80142857D01*
X127064285Y-79971428D01*
X127207142Y-79800000D01*
X127421428Y-79714285D01*
X127564285Y-79714285D01*
X127778571Y-79800000D01*
X127850000Y-79885714D01*
X128421428Y-79885714D02*
X128492857Y-79800000D01*
X128635714Y-79714285D01*
X128992857Y-79714285D01*
X129135714Y-79800000D01*
X129207142Y-79885714D01*
X129278571Y-80057142D01*
X129278571Y-80228571D01*
X129207142Y-80485714D01*
X128350000Y-81514285D01*
X129278571Y-81514285D01*
%TO.C,C1*%
X140550000Y-97342857D02*
X140478571Y-97428571D01*
X140264285Y-97514285D01*
X140121428Y-97514285D01*
X139907142Y-97428571D01*
X139764285Y-97257142D01*
X139692857Y-97085714D01*
X139621428Y-96742857D01*
X139621428Y-96485714D01*
X139692857Y-96142857D01*
X139764285Y-95971428D01*
X139907142Y-95800000D01*
X140121428Y-95714285D01*
X140264285Y-95714285D01*
X140478571Y-95800000D01*
X140550000Y-95885714D01*
X141978571Y-97514285D02*
X141121428Y-97514285D01*
X141550000Y-97514285D02*
X141550000Y-95714285D01*
X141407142Y-95971428D01*
X141264285Y-96142857D01*
X141121428Y-96228571D01*
%TD*%
M02*
