%TF.GenerationSoftware,KiCad,Pcbnew,5.1.10*%
%TF.CreationDate,2021-06-14T18:34:58-05:00*%
%TF.ProjectId,atariPunkConsole,61746172-6950-4756-9e6b-436f6e736f6c,rev?*%
%TF.SameCoordinates,Original*%
%TF.FileFunction,Other,Fab,Top*%
%FSLAX46Y46*%
G04 Gerber Fmt 4.6, Leading zero omitted, Abs format (unit mm)*
G04 Created by KiCad (PCBNEW 5.1.10) date 2021-06-14 18:34:58*
%MOMM*%
%LPD*%
G01*
G04 APERTURE LIST*
%TA.AperFunction,Profile*%
%ADD10C,0.100000*%
%TD*%
%ADD11C,0.100000*%
%ADD12C,0.300000*%
G04 APERTURE END LIST*
D10*
X151000000Y-69000000D02*
X151000000Y-109000000D01*
X111000000Y-69000000D02*
X151000000Y-69000000D01*
X111000000Y-109000000D02*
X111000000Y-69000000D01*
X151000000Y-109000000D02*
X111000000Y-109000000D01*
D11*
%TO.C,R4*%
X134430000Y-78050000D02*
X134430000Y-75550000D01*
X134430000Y-75550000D02*
X128130000Y-75550000D01*
X128130000Y-75550000D02*
X128130000Y-78050000D01*
X128130000Y-78050000D02*
X134430000Y-78050000D01*
X136360000Y-76800000D02*
X134430000Y-76800000D01*
X126200000Y-76800000D02*
X128130000Y-76800000D01*
%TO.C,U1*%
X125630000Y-90665000D02*
X125630000Y-85315000D01*
X125630000Y-85315000D02*
X143410000Y-85315000D01*
X143410000Y-85315000D02*
X143410000Y-91665000D01*
X143410000Y-91665000D02*
X126630000Y-91665000D01*
X126630000Y-91665000D02*
X125630000Y-90665000D01*
%TO.C,BT1*%
X135470000Y-106820000D02*
X135470000Y-101020000D01*
X135470000Y-101020000D02*
X130390000Y-101020000D01*
X130390000Y-101020000D02*
X130390000Y-106820000D01*
X130390000Y-106820000D02*
X135470000Y-106820000D01*
X135470000Y-104400000D02*
X134762893Y-103900000D01*
X134762893Y-103900000D02*
X135470000Y-103400000D01*
%TO.C,D1*%
X142270000Y-106720000D02*
X142270000Y-100920000D01*
X142270000Y-100920000D02*
X137190000Y-100920000D01*
X137190000Y-100920000D02*
X137190000Y-106720000D01*
X137190000Y-106720000D02*
X142270000Y-106720000D01*
X142270000Y-104300000D02*
X141562893Y-103800000D01*
X141562893Y-103800000D02*
X142270000Y-103300000D01*
%TO.C,SW1*%
X128570000Y-106820000D02*
X128570000Y-101020000D01*
X128570000Y-101020000D02*
X123490000Y-101020000D01*
X123490000Y-101020000D02*
X123490000Y-106820000D01*
X123490000Y-106820000D02*
X128570000Y-106820000D01*
X128570000Y-104400000D02*
X127862893Y-103900000D01*
X127862893Y-103900000D02*
X128570000Y-103400000D01*
%TO.C,RV2*%
X115780000Y-91950000D02*
X121580000Y-91950000D01*
X121580000Y-91950000D02*
X121580000Y-84330000D01*
X121580000Y-84330000D02*
X115780000Y-84330000D01*
X115780000Y-84330000D02*
X115780000Y-91950000D01*
X118200000Y-91950000D02*
X118700000Y-91242893D01*
X118700000Y-91242893D02*
X119200000Y-91950000D01*
%TO.C,RV1*%
X115880000Y-100850000D02*
X121680000Y-100850000D01*
X121680000Y-100850000D02*
X121680000Y-93230000D01*
X121680000Y-93230000D02*
X115880000Y-93230000D01*
X115880000Y-93230000D02*
X115880000Y-100850000D01*
X118300000Y-100850000D02*
X118800000Y-100142893D01*
X118800000Y-100142893D02*
X119300000Y-100850000D01*
%TO.C,J1*%
X115780000Y-82270000D02*
X121580000Y-82270000D01*
X121580000Y-82270000D02*
X121580000Y-77190000D01*
X121580000Y-77190000D02*
X115780000Y-77190000D01*
X115780000Y-77190000D02*
X115780000Y-82270000D01*
X118200000Y-82270000D02*
X118700000Y-81562893D01*
X118700000Y-81562893D02*
X119200000Y-82270000D01*
%TO.C,R3*%
X148750000Y-85630000D02*
X146250000Y-85630000D01*
X146250000Y-85630000D02*
X146250000Y-91930000D01*
X146250000Y-91930000D02*
X148750000Y-91930000D01*
X148750000Y-91930000D02*
X148750000Y-85630000D01*
X147500000Y-83700000D02*
X147500000Y-85630000D01*
X147500000Y-93860000D02*
X147500000Y-91930000D01*
%TO.C,R2*%
X128130000Y-71850000D02*
X128130000Y-74350000D01*
X128130000Y-74350000D02*
X134430000Y-74350000D01*
X134430000Y-74350000D02*
X134430000Y-71850000D01*
X134430000Y-71850000D02*
X128130000Y-71850000D01*
X126200000Y-73100000D02*
X128130000Y-73100000D01*
X136360000Y-73100000D02*
X134430000Y-73100000D01*
%TO.C,R1*%
X126370000Y-95950000D02*
X126370000Y-98450000D01*
X126370000Y-98450000D02*
X132670000Y-98450000D01*
X132670000Y-98450000D02*
X132670000Y-95950000D01*
X132670000Y-95950000D02*
X126370000Y-95950000D01*
X124440000Y-97200000D02*
X126370000Y-97200000D01*
X134600000Y-97200000D02*
X132670000Y-97200000D01*
%TO.C,C3*%
X145200000Y-78300000D02*
G75*
G03*
X145200000Y-78300000I-2500000J0D01*
G01*
X141612500Y-80433605D02*
X141612500Y-79933605D01*
X141362500Y-80183605D02*
X141862500Y-80183605D01*
%TO.C,C2*%
X125600000Y-79450000D02*
X125600000Y-81950000D01*
X125600000Y-81950000D02*
X130600000Y-81950000D01*
X130600000Y-81950000D02*
X130600000Y-79450000D01*
X130600000Y-79450000D02*
X125600000Y-79450000D01*
%TO.C,C1*%
X138300000Y-95450000D02*
X138300000Y-97950000D01*
X138300000Y-97950000D02*
X143300000Y-97950000D01*
X143300000Y-97950000D02*
X143300000Y-95450000D01*
X143300000Y-95450000D02*
X138300000Y-95450000D01*
%TD*%
%TO.C,R4*%
D12*
X130244285Y-72814285D02*
X130244285Y-74014285D01*
X129887142Y-72128571D02*
X129530000Y-73414285D01*
X130458571Y-73414285D01*
X131030000Y-74014285D02*
X131030000Y-72214285D01*
X131172857Y-73328571D02*
X131601428Y-74014285D01*
X131601428Y-72814285D02*
X131030000Y-73500000D01*
X132101428Y-72214285D02*
X133101428Y-72214285D01*
X132458571Y-74014285D01*
X123450000Y-77614285D02*
X122950000Y-76757142D01*
X122592857Y-77614285D02*
X122592857Y-75814285D01*
X123164285Y-75814285D01*
X123307142Y-75900000D01*
X123378571Y-75985714D01*
X123450000Y-76157142D01*
X123450000Y-76414285D01*
X123378571Y-76585714D01*
X123307142Y-76671428D01*
X123164285Y-76757142D01*
X122592857Y-76757142D01*
X124735714Y-76414285D02*
X124735714Y-77614285D01*
X124378571Y-75728571D02*
X124021428Y-77014285D01*
X124950000Y-77014285D01*
%TO.C,U1*%
X128264285Y-89214285D02*
X127550000Y-89214285D01*
X127550000Y-87414285D01*
X128764285Y-89214285D02*
X128764285Y-87414285D01*
X129264285Y-88700000D01*
X129764285Y-87414285D01*
X129764285Y-89214285D01*
X131192857Y-87414285D02*
X130478571Y-87414285D01*
X130407142Y-88271428D01*
X130478571Y-88185714D01*
X130621428Y-88100000D01*
X130978571Y-88100000D01*
X131121428Y-88185714D01*
X131192857Y-88271428D01*
X131264285Y-88442857D01*
X131264285Y-88871428D01*
X131192857Y-89042857D01*
X131121428Y-89128571D01*
X130978571Y-89214285D01*
X130621428Y-89214285D01*
X130478571Y-89128571D01*
X130407142Y-89042857D01*
X132621428Y-87414285D02*
X131907142Y-87414285D01*
X131835714Y-88271428D01*
X131907142Y-88185714D01*
X132050000Y-88100000D01*
X132407142Y-88100000D01*
X132550000Y-88185714D01*
X132621428Y-88271428D01*
X132692857Y-88442857D01*
X132692857Y-88871428D01*
X132621428Y-89042857D01*
X132550000Y-89128571D01*
X132407142Y-89214285D01*
X132050000Y-89214285D01*
X131907142Y-89128571D01*
X131835714Y-89042857D01*
X133978571Y-87414285D02*
X133692857Y-87414285D01*
X133550000Y-87500000D01*
X133478571Y-87585714D01*
X133335714Y-87842857D01*
X133264285Y-88185714D01*
X133264285Y-88871428D01*
X133335714Y-89042857D01*
X133407142Y-89128571D01*
X133550000Y-89214285D01*
X133835714Y-89214285D01*
X133978571Y-89128571D01*
X134050000Y-89042857D01*
X134121428Y-88871428D01*
X134121428Y-88442857D01*
X134050000Y-88271428D01*
X133978571Y-88185714D01*
X133835714Y-88100000D01*
X133550000Y-88100000D01*
X133407142Y-88185714D01*
X133335714Y-88271428D01*
X133264285Y-88442857D01*
X122857142Y-87714285D02*
X122857142Y-89171428D01*
X122928571Y-89342857D01*
X123000000Y-89428571D01*
X123142857Y-89514285D01*
X123428571Y-89514285D01*
X123571428Y-89428571D01*
X123642857Y-89342857D01*
X123714285Y-89171428D01*
X123714285Y-87714285D01*
X125214285Y-89514285D02*
X124357142Y-89514285D01*
X124785714Y-89514285D02*
X124785714Y-87714285D01*
X124642857Y-87971428D01*
X124500000Y-88142857D01*
X124357142Y-88228571D01*
%TO.C,BT1*%
X132001428Y-100634285D02*
X132287142Y-100634285D01*
X132430000Y-100548571D01*
X132501428Y-100462857D01*
X132644285Y-100205714D01*
X132715714Y-99862857D01*
X132715714Y-99177142D01*
X132644285Y-99005714D01*
X132572857Y-98920000D01*
X132430000Y-98834285D01*
X132144285Y-98834285D01*
X132001428Y-98920000D01*
X131930000Y-99005714D01*
X131858571Y-99177142D01*
X131858571Y-99605714D01*
X131930000Y-99777142D01*
X132001428Y-99862857D01*
X132144285Y-99948571D01*
X132430000Y-99948571D01*
X132572857Y-99862857D01*
X132644285Y-99777142D01*
X132715714Y-99605714D01*
X133144285Y-98834285D02*
X133644285Y-100634285D01*
X134144285Y-98834285D01*
X131751428Y-107871428D02*
X131965714Y-107957142D01*
X132037142Y-108042857D01*
X132108571Y-108214285D01*
X132108571Y-108471428D01*
X132037142Y-108642857D01*
X131965714Y-108728571D01*
X131822857Y-108814285D01*
X131251428Y-108814285D01*
X131251428Y-107014285D01*
X131751428Y-107014285D01*
X131894285Y-107100000D01*
X131965714Y-107185714D01*
X132037142Y-107357142D01*
X132037142Y-107528571D01*
X131965714Y-107700000D01*
X131894285Y-107785714D01*
X131751428Y-107871428D01*
X131251428Y-107871428D01*
X132537142Y-107014285D02*
X133394285Y-107014285D01*
X132965714Y-108814285D02*
X132965714Y-107014285D01*
X134680000Y-108814285D02*
X133822857Y-108814285D01*
X134251428Y-108814285D02*
X134251428Y-107014285D01*
X134108571Y-107271428D01*
X133965714Y-107442857D01*
X133822857Y-107528571D01*
%TO.C,D1*%
X138765714Y-100534285D02*
X138051428Y-100534285D01*
X138051428Y-98734285D01*
X139265714Y-99591428D02*
X139765714Y-99591428D01*
X139980000Y-100534285D02*
X139265714Y-100534285D01*
X139265714Y-98734285D01*
X139980000Y-98734285D01*
X140622857Y-100534285D02*
X140622857Y-98734285D01*
X140980000Y-98734285D01*
X141194285Y-98820000D01*
X141337142Y-98991428D01*
X141408571Y-99162857D01*
X141480000Y-99505714D01*
X141480000Y-99762857D01*
X141408571Y-100105714D01*
X141337142Y-100277142D01*
X141194285Y-100448571D01*
X140980000Y-100534285D01*
X140622857Y-100534285D01*
X138592857Y-108714285D02*
X138592857Y-106914285D01*
X138950000Y-106914285D01*
X139164285Y-107000000D01*
X139307142Y-107171428D01*
X139378571Y-107342857D01*
X139450000Y-107685714D01*
X139450000Y-107942857D01*
X139378571Y-108285714D01*
X139307142Y-108457142D01*
X139164285Y-108628571D01*
X138950000Y-108714285D01*
X138592857Y-108714285D01*
X140878571Y-108714285D02*
X140021428Y-108714285D01*
X140450000Y-108714285D02*
X140450000Y-106914285D01*
X140307142Y-107171428D01*
X140164285Y-107342857D01*
X140021428Y-107428571D01*
%TO.C,SW1*%
X124030000Y-100548571D02*
X124244285Y-100634285D01*
X124601428Y-100634285D01*
X124744285Y-100548571D01*
X124815714Y-100462857D01*
X124887142Y-100291428D01*
X124887142Y-100120000D01*
X124815714Y-99948571D01*
X124744285Y-99862857D01*
X124601428Y-99777142D01*
X124315714Y-99691428D01*
X124172857Y-99605714D01*
X124101428Y-99520000D01*
X124030000Y-99348571D01*
X124030000Y-99177142D01*
X124101428Y-99005714D01*
X124172857Y-98920000D01*
X124315714Y-98834285D01*
X124672857Y-98834285D01*
X124887142Y-98920000D01*
X125387142Y-98834285D02*
X125744285Y-100634285D01*
X126030000Y-99348571D01*
X126315714Y-100634285D01*
X126672857Y-98834285D01*
X128030000Y-100634285D02*
X127172857Y-100634285D01*
X127601428Y-100634285D02*
X127601428Y-98834285D01*
X127458571Y-99091428D01*
X127315714Y-99262857D01*
X127172857Y-99348571D01*
X124030000Y-108728571D02*
X124244285Y-108814285D01*
X124601428Y-108814285D01*
X124744285Y-108728571D01*
X124815714Y-108642857D01*
X124887142Y-108471428D01*
X124887142Y-108300000D01*
X124815714Y-108128571D01*
X124744285Y-108042857D01*
X124601428Y-107957142D01*
X124315714Y-107871428D01*
X124172857Y-107785714D01*
X124101428Y-107700000D01*
X124030000Y-107528571D01*
X124030000Y-107357142D01*
X124101428Y-107185714D01*
X124172857Y-107100000D01*
X124315714Y-107014285D01*
X124672857Y-107014285D01*
X124887142Y-107100000D01*
X125387142Y-107014285D02*
X125744285Y-108814285D01*
X126030000Y-107528571D01*
X126315714Y-108814285D01*
X126672857Y-107014285D01*
X128030000Y-108814285D02*
X127172857Y-108814285D01*
X127601428Y-108814285D02*
X127601428Y-107014285D01*
X127458571Y-107271428D01*
X127315714Y-107442857D01*
X127172857Y-107528571D01*
%TO.C,RV2*%
X113771428Y-92014285D02*
X112914285Y-92014285D01*
X113342857Y-92014285D02*
X113342857Y-90214285D01*
X113200000Y-90471428D01*
X113057142Y-90642857D01*
X112914285Y-90728571D01*
X114414285Y-92014285D02*
X114414285Y-90214285D01*
X114914285Y-91500000D01*
X115414285Y-90214285D01*
X115414285Y-92014285D01*
X115414285Y-87292857D02*
X114557142Y-87792857D01*
X115414285Y-88150000D02*
X113614285Y-88150000D01*
X113614285Y-87578571D01*
X113700000Y-87435714D01*
X113785714Y-87364285D01*
X113957142Y-87292857D01*
X114214285Y-87292857D01*
X114385714Y-87364285D01*
X114471428Y-87435714D01*
X114557142Y-87578571D01*
X114557142Y-88150000D01*
X113614285Y-86864285D02*
X115414285Y-86364285D01*
X113614285Y-85864285D01*
X113785714Y-85435714D02*
X113700000Y-85364285D01*
X113614285Y-85221428D01*
X113614285Y-84864285D01*
X113700000Y-84721428D01*
X113785714Y-84650000D01*
X113957142Y-84578571D01*
X114128571Y-84578571D01*
X114385714Y-84650000D01*
X115414285Y-85507142D01*
X115414285Y-84578571D01*
%TO.C,RV1*%
X113871428Y-100814285D02*
X113014285Y-100814285D01*
X113442857Y-100814285D02*
X113442857Y-99014285D01*
X113300000Y-99271428D01*
X113157142Y-99442857D01*
X113014285Y-99528571D01*
X114514285Y-100814285D02*
X114514285Y-99014285D01*
X115014285Y-100300000D01*
X115514285Y-99014285D01*
X115514285Y-100814285D01*
X115514285Y-96092857D02*
X114657142Y-96592857D01*
X115514285Y-96950000D02*
X113714285Y-96950000D01*
X113714285Y-96378571D01*
X113800000Y-96235714D01*
X113885714Y-96164285D01*
X114057142Y-96092857D01*
X114314285Y-96092857D01*
X114485714Y-96164285D01*
X114571428Y-96235714D01*
X114657142Y-96378571D01*
X114657142Y-96950000D01*
X113714285Y-95664285D02*
X115514285Y-95164285D01*
X113714285Y-94664285D01*
X115514285Y-93378571D02*
X115514285Y-94235714D01*
X115514285Y-93807142D02*
X113714285Y-93807142D01*
X113971428Y-93950000D01*
X114142857Y-94092857D01*
X114228571Y-94235714D01*
%TO.C,J1*%
X116685714Y-74514285D02*
X116685714Y-75800000D01*
X116614285Y-76057142D01*
X116471428Y-76228571D01*
X116257142Y-76314285D01*
X116114285Y-76314285D01*
X118042857Y-76314285D02*
X118042857Y-75371428D01*
X117971428Y-75200000D01*
X117828571Y-75114285D01*
X117542857Y-75114285D01*
X117400000Y-75200000D01*
X118042857Y-76228571D02*
X117900000Y-76314285D01*
X117542857Y-76314285D01*
X117400000Y-76228571D01*
X117328571Y-76057142D01*
X117328571Y-75885714D01*
X117400000Y-75714285D01*
X117542857Y-75628571D01*
X117900000Y-75628571D01*
X118042857Y-75542857D01*
X119400000Y-76228571D02*
X119257142Y-76314285D01*
X118971428Y-76314285D01*
X118828571Y-76228571D01*
X118757142Y-76142857D01*
X118685714Y-75971428D01*
X118685714Y-75457142D01*
X118757142Y-75285714D01*
X118828571Y-75200000D01*
X118971428Y-75114285D01*
X119257142Y-75114285D01*
X119400000Y-75200000D01*
X120042857Y-76314285D02*
X120042857Y-74514285D01*
X120185714Y-75628571D02*
X120614285Y-76314285D01*
X120614285Y-75114285D02*
X120042857Y-75800000D01*
X113614285Y-80200000D02*
X114900000Y-80200000D01*
X115157142Y-80271428D01*
X115328571Y-80414285D01*
X115414285Y-80628571D01*
X115414285Y-80771428D01*
X115414285Y-78700000D02*
X115414285Y-79557142D01*
X115414285Y-79128571D02*
X113614285Y-79128571D01*
X113871428Y-79271428D01*
X114042857Y-79414285D01*
X114128571Y-79557142D01*
%TO.C,R3*%
X147114285Y-89902857D02*
X148314285Y-89902857D01*
X146428571Y-90260000D02*
X147714285Y-90617142D01*
X147714285Y-89688571D01*
X146514285Y-89260000D02*
X146514285Y-88260000D01*
X148314285Y-88902857D01*
X146514285Y-87402857D02*
X146514285Y-87260000D01*
X146600000Y-87117142D01*
X146685714Y-87045714D01*
X146857142Y-86974285D01*
X147200000Y-86902857D01*
X147628571Y-86902857D01*
X147971428Y-86974285D01*
X148142857Y-87045714D01*
X148228571Y-87117142D01*
X148314285Y-87260000D01*
X148314285Y-87402857D01*
X148228571Y-87545714D01*
X148142857Y-87617142D01*
X147971428Y-87688571D01*
X147628571Y-87760000D01*
X147200000Y-87760000D01*
X146857142Y-87688571D01*
X146685714Y-87617142D01*
X146600000Y-87545714D01*
X146514285Y-87402857D01*
X145914285Y-91110000D02*
X145057142Y-91610000D01*
X145914285Y-91967142D02*
X144114285Y-91967142D01*
X144114285Y-91395714D01*
X144200000Y-91252857D01*
X144285714Y-91181428D01*
X144457142Y-91110000D01*
X144714285Y-91110000D01*
X144885714Y-91181428D01*
X144971428Y-91252857D01*
X145057142Y-91395714D01*
X145057142Y-91967142D01*
X144114285Y-90610000D02*
X144114285Y-89681428D01*
X144800000Y-90181428D01*
X144800000Y-89967142D01*
X144885714Y-89824285D01*
X144971428Y-89752857D01*
X145142857Y-89681428D01*
X145571428Y-89681428D01*
X145742857Y-89752857D01*
X145828571Y-89824285D01*
X145914285Y-89967142D01*
X145914285Y-90395714D01*
X145828571Y-90538571D01*
X145742857Y-90610000D01*
%TO.C,R2*%
X130507142Y-77614285D02*
X129650000Y-77614285D01*
X130078571Y-77614285D02*
X130078571Y-75814285D01*
X129935714Y-76071428D01*
X129792857Y-76242857D01*
X129650000Y-76328571D01*
X131435714Y-75814285D02*
X131578571Y-75814285D01*
X131721428Y-75900000D01*
X131792857Y-75985714D01*
X131864285Y-76157142D01*
X131935714Y-76500000D01*
X131935714Y-76928571D01*
X131864285Y-77271428D01*
X131792857Y-77442857D01*
X131721428Y-77528571D01*
X131578571Y-77614285D01*
X131435714Y-77614285D01*
X131292857Y-77528571D01*
X131221428Y-77442857D01*
X131150000Y-77271428D01*
X131078571Y-76928571D01*
X131078571Y-76500000D01*
X131150000Y-76157142D01*
X131221428Y-75985714D01*
X131292857Y-75900000D01*
X131435714Y-75814285D01*
X132578571Y-77614285D02*
X132578571Y-75814285D01*
X132721428Y-76928571D02*
X133150000Y-77614285D01*
X133150000Y-76414285D02*
X132578571Y-77100000D01*
X131050000Y-71514285D02*
X130550000Y-70657142D01*
X130192857Y-71514285D02*
X130192857Y-69714285D01*
X130764285Y-69714285D01*
X130907142Y-69800000D01*
X130978571Y-69885714D01*
X131050000Y-70057142D01*
X131050000Y-70314285D01*
X130978571Y-70485714D01*
X130907142Y-70571428D01*
X130764285Y-70657142D01*
X130192857Y-70657142D01*
X131621428Y-69885714D02*
X131692857Y-69800000D01*
X131835714Y-69714285D01*
X132192857Y-69714285D01*
X132335714Y-69800000D01*
X132407142Y-69885714D01*
X132478571Y-70057142D01*
X132478571Y-70228571D01*
X132407142Y-70485714D01*
X131550000Y-71514285D01*
X132478571Y-71514285D01*
%TO.C,R1*%
X129261428Y-98114285D02*
X128404285Y-98114285D01*
X128832857Y-98114285D02*
X128832857Y-96314285D01*
X128690000Y-96571428D01*
X128547142Y-96742857D01*
X128404285Y-96828571D01*
X129904285Y-98114285D02*
X129904285Y-96314285D01*
X130047142Y-97428571D02*
X130475714Y-98114285D01*
X130475714Y-96914285D02*
X129904285Y-97600000D01*
X129270000Y-95614285D02*
X128770000Y-94757142D01*
X128412857Y-95614285D02*
X128412857Y-93814285D01*
X128984285Y-93814285D01*
X129127142Y-93900000D01*
X129198571Y-93985714D01*
X129270000Y-94157142D01*
X129270000Y-94414285D01*
X129198571Y-94585714D01*
X129127142Y-94671428D01*
X128984285Y-94757142D01*
X128412857Y-94757142D01*
X130698571Y-95614285D02*
X129841428Y-95614285D01*
X130270000Y-95614285D02*
X130270000Y-93814285D01*
X130127142Y-94071428D01*
X129984285Y-94242857D01*
X129841428Y-94328571D01*
%TO.C,C3*%
X141835714Y-83014285D02*
X140978571Y-83014285D01*
X141407142Y-83014285D02*
X141407142Y-81214285D01*
X141264285Y-81471428D01*
X141121428Y-81642857D01*
X140978571Y-81728571D01*
X142764285Y-81214285D02*
X142907142Y-81214285D01*
X143050000Y-81300000D01*
X143121428Y-81385714D01*
X143192857Y-81557142D01*
X143264285Y-81900000D01*
X143264285Y-82328571D01*
X143192857Y-82671428D01*
X143121428Y-82842857D01*
X143050000Y-82928571D01*
X142907142Y-83014285D01*
X142764285Y-83014285D01*
X142621428Y-82928571D01*
X142550000Y-82842857D01*
X142478571Y-82671428D01*
X142407142Y-82328571D01*
X142407142Y-81900000D01*
X142478571Y-81557142D01*
X142550000Y-81385714D01*
X142621428Y-81300000D01*
X142764285Y-81214285D01*
X144550000Y-81814285D02*
X144550000Y-83014285D01*
X143907142Y-81814285D02*
X143907142Y-82757142D01*
X143978571Y-82928571D01*
X144121428Y-83014285D01*
X144335714Y-83014285D01*
X144478571Y-82928571D01*
X144550000Y-82842857D01*
X142150000Y-74742857D02*
X142078571Y-74828571D01*
X141864285Y-74914285D01*
X141721428Y-74914285D01*
X141507142Y-74828571D01*
X141364285Y-74657142D01*
X141292857Y-74485714D01*
X141221428Y-74142857D01*
X141221428Y-73885714D01*
X141292857Y-73542857D01*
X141364285Y-73371428D01*
X141507142Y-73200000D01*
X141721428Y-73114285D01*
X141864285Y-73114285D01*
X142078571Y-73200000D01*
X142150000Y-73285714D01*
X142650000Y-73114285D02*
X143578571Y-73114285D01*
X143078571Y-73800000D01*
X143292857Y-73800000D01*
X143435714Y-73885714D01*
X143507142Y-73971428D01*
X143578571Y-74142857D01*
X143578571Y-74571428D01*
X143507142Y-74742857D01*
X143435714Y-74828571D01*
X143292857Y-74914285D01*
X142864285Y-74914285D01*
X142721428Y-74828571D01*
X142650000Y-74742857D01*
%TO.C,C2*%
X132278571Y-79714285D02*
X132421428Y-79714285D01*
X132564285Y-79800000D01*
X132635714Y-79885714D01*
X132707142Y-80057142D01*
X132778571Y-80400000D01*
X132778571Y-80828571D01*
X132707142Y-81171428D01*
X132635714Y-81342857D01*
X132564285Y-81428571D01*
X132421428Y-81514285D01*
X132278571Y-81514285D01*
X132135714Y-81428571D01*
X132064285Y-81342857D01*
X131992857Y-81171428D01*
X131921428Y-80828571D01*
X131921428Y-80400000D01*
X131992857Y-80057142D01*
X132064285Y-79885714D01*
X132135714Y-79800000D01*
X132278571Y-79714285D01*
X133421428Y-81342857D02*
X133492857Y-81428571D01*
X133421428Y-81514285D01*
X133350000Y-81428571D01*
X133421428Y-81342857D01*
X133421428Y-81514285D01*
X134921428Y-81514285D02*
X134064285Y-81514285D01*
X134492857Y-81514285D02*
X134492857Y-79714285D01*
X134350000Y-79971428D01*
X134207142Y-80142857D01*
X134064285Y-80228571D01*
X136207142Y-80314285D02*
X136207142Y-81514285D01*
X135564285Y-80314285D02*
X135564285Y-81257142D01*
X135635714Y-81428571D01*
X135778571Y-81514285D01*
X135992857Y-81514285D01*
X136135714Y-81428571D01*
X136207142Y-81342857D01*
X127850000Y-81342857D02*
X127778571Y-81428571D01*
X127564285Y-81514285D01*
X127421428Y-81514285D01*
X127207142Y-81428571D01*
X127064285Y-81257142D01*
X126992857Y-81085714D01*
X126921428Y-80742857D01*
X126921428Y-80485714D01*
X126992857Y-80142857D01*
X127064285Y-79971428D01*
X127207142Y-79800000D01*
X127421428Y-79714285D01*
X127564285Y-79714285D01*
X127778571Y-79800000D01*
X127850000Y-79885714D01*
X128421428Y-79885714D02*
X128492857Y-79800000D01*
X128635714Y-79714285D01*
X128992857Y-79714285D01*
X129135714Y-79800000D01*
X129207142Y-79885714D01*
X129278571Y-80057142D01*
X129278571Y-80228571D01*
X129207142Y-80485714D01*
X128350000Y-81514285D01*
X129278571Y-81514285D01*
%TO.C,C1*%
X138264285Y-93114285D02*
X138407142Y-93114285D01*
X138550000Y-93200000D01*
X138621428Y-93285714D01*
X138692857Y-93457142D01*
X138764285Y-93800000D01*
X138764285Y-94228571D01*
X138692857Y-94571428D01*
X138621428Y-94742857D01*
X138550000Y-94828571D01*
X138407142Y-94914285D01*
X138264285Y-94914285D01*
X138121428Y-94828571D01*
X138050000Y-94742857D01*
X137978571Y-94571428D01*
X137907142Y-94228571D01*
X137907142Y-93800000D01*
X137978571Y-93457142D01*
X138050000Y-93285714D01*
X138121428Y-93200000D01*
X138264285Y-93114285D01*
X139407142Y-94742857D02*
X139478571Y-94828571D01*
X139407142Y-94914285D01*
X139335714Y-94828571D01*
X139407142Y-94742857D01*
X139407142Y-94914285D01*
X140407142Y-93114285D02*
X140550000Y-93114285D01*
X140692857Y-93200000D01*
X140764285Y-93285714D01*
X140835714Y-93457142D01*
X140907142Y-93800000D01*
X140907142Y-94228571D01*
X140835714Y-94571428D01*
X140764285Y-94742857D01*
X140692857Y-94828571D01*
X140550000Y-94914285D01*
X140407142Y-94914285D01*
X140264285Y-94828571D01*
X140192857Y-94742857D01*
X140121428Y-94571428D01*
X140050000Y-94228571D01*
X140050000Y-93800000D01*
X140121428Y-93457142D01*
X140192857Y-93285714D01*
X140264285Y-93200000D01*
X140407142Y-93114285D01*
X142335714Y-94914285D02*
X141478571Y-94914285D01*
X141907142Y-94914285D02*
X141907142Y-93114285D01*
X141764285Y-93371428D01*
X141621428Y-93542857D01*
X141478571Y-93628571D01*
X143621428Y-93714285D02*
X143621428Y-94914285D01*
X142978571Y-93714285D02*
X142978571Y-94657142D01*
X143050000Y-94828571D01*
X143192857Y-94914285D01*
X143407142Y-94914285D01*
X143550000Y-94828571D01*
X143621428Y-94742857D01*
X140550000Y-97342857D02*
X140478571Y-97428571D01*
X140264285Y-97514285D01*
X140121428Y-97514285D01*
X139907142Y-97428571D01*
X139764285Y-97257142D01*
X139692857Y-97085714D01*
X139621428Y-96742857D01*
X139621428Y-96485714D01*
X139692857Y-96142857D01*
X139764285Y-95971428D01*
X139907142Y-95800000D01*
X140121428Y-95714285D01*
X140264285Y-95714285D01*
X140478571Y-95800000D01*
X140550000Y-95885714D01*
X141978571Y-97514285D02*
X141121428Y-97514285D01*
X141550000Y-97514285D02*
X141550000Y-95714285D01*
X141407142Y-95971428D01*
X141264285Y-96142857D01*
X141121428Y-96228571D01*
%TD*%
M02*
