%FSLAX45Y45*%
G04 Gerber Fmt 4.5, Leading zero omitted, Abs format (unit mm)*
G04 Created by KiCad (PCBNEW 5.1.10) date 2021-06-24 07:50:53*
%MOMM*%
%LPD*%
G01*
G04 APERTURE LIST*
%TA.AperFunction,Profile*%
%ADD10C,0.100000*%
%TD*%
%ADD11C,0.200000*%
%ADD12C,0.300000*%
G04 APERTURE END LIST*
D10*
X9380000Y-6800000D02*
X9380000Y-7770000D01*
X8410000Y-6800000D02*
X9380000Y-6800000D01*
X8410000Y-7770000D02*
X8410000Y-6800000D01*
X9380000Y-7770000D02*
X8410000Y-7770000D01*
D11*
D12*
X8691428Y-8240714D02*
X8691428Y-7940714D01*
X8762857Y-7940714D01*
X8805714Y-7955000D01*
X8834286Y-7983571D01*
X8848571Y-8012143D01*
X8862857Y-8069286D01*
X8862857Y-8112143D01*
X8848571Y-8169286D01*
X8834286Y-8197857D01*
X8805714Y-8226429D01*
X8762857Y-8240714D01*
X8691428Y-8240714D01*
X8991428Y-8240714D02*
X8991428Y-8040714D01*
X8991428Y-8097857D02*
X9005714Y-8069286D01*
X9020000Y-8055000D01*
X9048571Y-8040714D01*
X9077143Y-8040714D01*
X9177143Y-8240714D02*
X9177143Y-8040714D01*
X9177143Y-7940714D02*
X9162857Y-7955000D01*
X9177143Y-7969286D01*
X9191428Y-7955000D01*
X9177143Y-7940714D01*
X9177143Y-7969286D01*
X9362857Y-8240714D02*
X9334286Y-8226429D01*
X9320000Y-8197857D01*
X9320000Y-7940714D01*
X9520000Y-8240714D02*
X9491428Y-8226429D01*
X9477143Y-8197857D01*
X9477143Y-7940714D01*
X9862857Y-8240714D02*
X9862857Y-7940714D01*
X9962857Y-8155000D01*
X10062857Y-7940714D01*
X10062857Y-8240714D01*
X10334286Y-8240714D02*
X10334286Y-8083571D01*
X10320000Y-8055000D01*
X10291428Y-8040714D01*
X10234286Y-8040714D01*
X10205714Y-8055000D01*
X10334286Y-8226429D02*
X10305714Y-8240714D01*
X10234286Y-8240714D01*
X10205714Y-8226429D01*
X10191428Y-8197857D01*
X10191428Y-8169286D01*
X10205714Y-8140714D01*
X10234286Y-8126429D01*
X10305714Y-8126429D01*
X10334286Y-8112143D01*
X10477143Y-8040714D02*
X10477143Y-8340714D01*
X10477143Y-8055000D02*
X10505714Y-8040714D01*
X10562857Y-8040714D01*
X10591428Y-8055000D01*
X10605714Y-8069286D01*
X10620000Y-8097857D01*
X10620000Y-8183571D01*
X10605714Y-8212143D01*
X10591428Y-8226429D01*
X10562857Y-8240714D01*
X10505714Y-8240714D01*
X10477143Y-8226429D01*
X10748571Y-8212143D02*
X10762857Y-8226429D01*
X10748571Y-8240714D01*
X10734286Y-8226429D01*
X10748571Y-8212143D01*
X10748571Y-8240714D01*
X10748571Y-8055000D02*
X10762857Y-8069286D01*
X10748571Y-8083571D01*
X10734286Y-8069286D01*
X10748571Y-8055000D01*
X10748571Y-8083571D01*
M02*
