<?xml version="1.0" encoding="UTF-8" standalone="no"?>
<!-- Created with Inkscape (http://www.inkscape.org/) -->

<svg
   xmlns:dc="http://purl.org/dc/elements/1.1/"
   xmlns:cc="http://creativecommons.org/ns#"
   xmlns:rdf="http://www.w3.org/1999/02/22-rdf-syntax-ns#"
   xmlns:svg="http://www.w3.org/2000/svg"
   xmlns="http://www.w3.org/2000/svg"
   xmlns:sodipodi="http://sodipodi.sourceforge.net/DTD/sodipodi-0.dtd"
   xmlns:inkscape="http://www.inkscape.org/namespaces/inkscape"
   width="14in"
   height="8.5in"
   viewBox="0 0 355.6 215.9"
   version="1.1"
   id="svg8"
   inkscape:version="0.92.3 (2405546, 2018-03-11)"
   sodipodi:docname="heliceOficio.svg">
  <defs
     id="defs2">
    <marker
       inkscape:isstock="true"
       style="overflow:visible"
       id="marker4916"
       refX="0"
       refY="0"
       orient="auto"
       inkscape:stockid="Arrow1Lend">
      <path
         transform="matrix(-0.8,0,0,-0.8,-10,0)"
         style="fill:#000000;fill-opacity:1;fill-rule:evenodd;stroke:#000000;stroke-width:1.00000003pt;stroke-opacity:1"
         d="M 0,0 5,-5 -12.5,0 5,5 Z"
         id="path4914"
         inkscape:connector-curvature="0" />
    </marker>
  </defs>
  <sodipodi:namedview
     id="base"
     pagecolor="#ffffff"
     bordercolor="#666666"
     borderopacity="1.0"
     inkscape:pageopacity="0.0"
     inkscape:pageshadow="2"
     inkscape:zoom="0.71317263"
     inkscape:cx="584.20725"
     inkscape:cy="397.38726"
     inkscape:document-units="mm"
     inkscape:current-layer="layer1"
     showgrid="false"
     units="in"
     inkscape:snap-bbox="true"
     inkscape:snap-nodes="true"
     inkscape:bbox-paths="true"
     inkscape:bbox-nodes="true"
     inkscape:snap-bbox-edge-midpoints="true"
     inkscape:snap-bbox-midpoints="false"
     inkscape:window-width="1920"
     inkscape:window-height="1016"
     inkscape:window-x="0"
     inkscape:window-y="27"
     inkscape:window-maximized="1"
     inkscape:measure-start="644.718,606.839"
     inkscape:measure-end="565.606,528.204"
     inkscape:snap-intersection-paths="true"
     showguides="true"
     inkscape:guide-bbox="true"
     inkscape:snap-global="true" />
  <metadata
     id="metadata5">
    <rdf:RDF>
      <cc:Work
         rdf:about="">
        <dc:format>image/svg+xml</dc:format>
        <dc:type
           rdf:resource="http://purl.org/dc/dcmitype/StillImage" />
        <dc:title></dc:title>
      </cc:Work>
    </rdf:RDF>
  </metadata>
  <g
     inkscape:label="Capa 1"
     inkscape:groupmode="layer"
     id="layer1"
     transform="translate(0,-81.1)">
    <g
       id="g897"
       transform="translate(-21.720934,2.8316586)">
      <rect
         y="171.21626"
         x="64.06572"
         height="29.627342"
         width="99.627342"
         id="rect10"
         style="fill:none;stroke:#000000;stroke-width:0.30000001;stroke-miterlimit:4;stroke-dasharray:none" />
      <text
         id="text4530"
         y="188.47554"
         x="89.562157"
         style="font-style:normal;font-weight:normal;font-size:10.58333302px;line-height:1.25;font-family:sans-serif;letter-spacing:0px;word-spacing:0px;fill:#000000;fill-opacity:1;stroke:none;stroke-width:0.26458332"
         xml:space="preserve"><tspan
           style="stroke-width:0.26458332"
           y="188.47554"
           x="89.562157"
           id="tspan4528"
           sodipodi:role="line">Arduino</tspan></text>
      <path
         transform="matrix(1.7044035,0.14361788,-0.14415489,1.6980542,-75.671873,-16.39547)"
         inkscape:transform-center-y="3.6405198"
         inkscape:transform-center-x="0.27556748"
         d="m 191.88361,111.80138 -11.21113,13.20092 -17.26192,1.40699 -13.20092,-11.21112 -1.407,-17.261926 11.21113,-13.200919 17.26192,-1.406995 13.20092,11.211128 z"
         inkscape:randomized="0"
         inkscape:rounded="0"
         inkscape:flatsided="true"
         sodipodi:arg2="0.70406938"
         sodipodi:arg1="0.3113703"
         sodipodi:r2="11.314292"
         sodipodi:r1="22.628586"
         sodipodi:cy="104.86881"
         sodipodi:cx="170.34312"
         sodipodi:sides="8"
         id="path4542"
         style="fill:none;stroke:#000000;stroke-width:0.21671647;stroke-miterlimit:4;stroke-dasharray:none"
         sodipodi:type="star" />
      <circle
         r="4.8280392"
         cy="185.67802"
         cx="198.9877"
         id="path4546"
         style="fill:none;stroke:#000000;stroke-width:0.16600001;stroke-miterlimit:4;stroke-dasharray:none" />
      <path
         inkscape:connector-curvature="0"
         id="path4552"
         d="m 188.46505,175.15537 21.0453,21.0453"
         style="fill:none;stroke:#000000;stroke-width:0.26458332px;stroke-linecap:butt;stroke-linejoin:miter;stroke-opacity:1" />
      <path
         inkscape:connector-curvature="0"
         id="path4554"
         d="m 209.51035,175.15537 -21.0453,21.0453"
         style="fill:none;stroke:#000000;stroke-width:0.26458332px;stroke-linecap:butt;stroke-linejoin:miter;stroke-opacity:1" />
      <rect
         y="151.28622"
         x="63.998711"
         height="19.760073"
         width="85.051811"
         id="rect4829"
         style="opacity:1;fill:none;stroke:#000000;stroke-width:0.23992853;stroke-miterlimit:4;stroke-dasharray:none" />
      <rect
         style="opacity:1;fill:none;stroke:#000000;stroke-width:0.24032754;stroke-miterlimit:4;stroke-dasharray:none"
         id="rect4831"
         width="85.336647"
         height="19.759672"
         x="64.05603"
         y="200.83392" />
      <rect
         transform="rotate(-44.826404)"
         y="217.0233"
         x="-4.7137356"
         height="19.91268"
         width="29.51268"
         id="rect4961"
         style="opacity:1;fill:none;stroke:#000000;stroke-width:0.287;stroke-miterlimit:4;stroke-dasharray:none" />
      <rect
         y="171.18866"
         x="44.038116"
         height="29.682547"
         width="19.955204"
         id="rect5071"
         style="fill:none;stroke:#000000;stroke-width:0.345;stroke-miterlimit:4;stroke-dasharray:none" />
      <rect
         transform="rotate(-134.8264)"
         y="-45.333427"
         x="-287.60034"
         height="19.91268"
         width="29.51268"
         id="rect4961-3"
         style="opacity:1;fill:none;stroke:#000000;stroke-width:0.287;stroke-miterlimit:4;stroke-dasharray:none" />
      <rect
         style="opacity:1;fill:none;stroke:#000000;stroke-width:0.287;stroke-miterlimit:4;stroke-dasharray:none"
         id="rect1162"
         width="29.51268"
         height="19.91268"
         x="185.07906"
         y="129.80228"
         transform="rotate(0.173596)" />
      <rect
         transform="rotate(0.173596)"
         y="221.25264"
         x="185.17064"
         height="19.91268"
         width="29.51268"
         id="rect1164"
         style="opacity:1;fill:none;stroke:#000000;stroke-width:0.287;stroke-miterlimit:4;stroke-dasharray:none" />
    </g>
    <g
       id="g941"
       transform="rotate(-180,153.52438,-43.931624)">
      <g
         transform="rotate(-180,161.88484,-45.347458)"
         id="g850">
        <rect
           style="opacity:1;fill:none;stroke:#000000;stroke-width:0.13010103;stroke-miterlimit:4;stroke-dasharray:none"
           id="rect846"
           width="24.8699"
           height="19.8699"
           x="119.51189"
           y="116.3027" />
        <rect
           y="116.30891"
           x="89.518105"
           height="19.857494"
           width="29.857494"
           id="rect848"
           style="opacity:1;fill:none;stroke:#000000;stroke-width:0.14250652;stroke-miterlimit:4;stroke-dasharray:none" />
      </g>
      <g
         id="g868"
         transform="translate(-65.399486,-343.2343)">
        <rect
           y="116.3027"
           x="119.51189"
           height="19.8699"
           width="24.8699"
           id="rect864"
           style="opacity:1;fill:none;stroke:#000000;stroke-width:0.13010103;stroke-miterlimit:4;stroke-dasharray:none" />
        <rect
           style="opacity:1;fill:none;stroke:#000000;stroke-width:0.14250652;stroke-miterlimit:4;stroke-dasharray:none"
           id="rect866"
           width="29.857494"
           height="19.857494"
           x="89.518105"
           y="116.30891" />
      </g>
      <g
         id="g876"
         transform="rotate(-180,161.81513,-105.29895)">
        <rect
           y="116.3027"
           x="119.51189"
           height="19.8699"
           width="24.8699"
           id="rect872"
           style="opacity:1;fill:none;stroke:#000000;stroke-width:0.13010103;stroke-miterlimit:4;stroke-dasharray:none" />
        <rect
           style="opacity:1;fill:none;stroke:#000000;stroke-width:0.14250652;stroke-miterlimit:4;stroke-dasharray:none"
           id="rect874"
           width="29.857494"
           height="19.857494"
           x="89.518105"
           y="116.30891" />
      </g>
      <g
         transform="translate(-65.105951,-463.13158)"
         id="g882">
        <rect
           style="opacity:1;fill:none;stroke:#000000;stroke-width:0.13010103;stroke-miterlimit:4;stroke-dasharray:none"
           id="rect878"
           width="24.8699"
           height="19.8699"
           x="119.51189"
           y="116.3027" />
        <rect
           y="116.30891"
           x="89.518105"
           height="19.857494"
           width="29.857494"
           id="rect880"
           style="opacity:1;fill:none;stroke:#000000;stroke-width:0.14250652;stroke-miterlimit:4;stroke-dasharray:none" />
      </g>
    </g>
    <g
       transform="rotate(180,226.87991,191.14546)"
       id="g929">
      <rect
         style="fill:none;stroke:#000000;stroke-width:0.30000001;stroke-miterlimit:4;stroke-dasharray:none"
         id="rect899"
         width="99.627342"
         height="29.627342"
         x="140.50461"
         y="178.33841" />
      <text
         xml:space="preserve"
         style="font-style:normal;font-weight:normal;font-size:10.58333302px;line-height:1.25;font-family:sans-serif;letter-spacing:0px;word-spacing:0px;fill:#000000;fill-opacity:1;stroke:none;stroke-width:0.26458332"
         x="-184.59421"
         y="-187.7067"
         id="text903"
         transform="scale(-1)"><tspan
           sodipodi:role="line"
           x="-184.59421"
           y="-187.7067"
           style="stroke-width:0.26458332"
           id="tspan931">Pila</tspan></text>
      <rect
         style="opacity:1;fill:none;stroke:#000000;stroke-width:0.23992853;stroke-miterlimit:4;stroke-dasharray:none"
         id="rect913"
         width="85.051811"
         height="19.760073"
         x="140.43759"
         y="158.40837" />
      <rect
         y="207.95607"
         x="140.49492"
         height="19.759672"
         width="85.336647"
         id="rect915"
         style="opacity:1;fill:none;stroke:#000000;stroke-width:0.24032754;stroke-miterlimit:4;stroke-dasharray:none" />
      <rect
         style="opacity:1;fill:none;stroke:#000000;stroke-width:0.287;stroke-miterlimit:4;stroke-dasharray:none"
         id="rect917"
         width="29.51268"
         height="19.91268"
         x="44.667473"
         y="276.00766"
         transform="rotate(-44.826404)" />
      <rect
         style="fill:none;stroke:#000000;stroke-width:0.345;stroke-miterlimit:4;stroke-dasharray:none"
         id="rect919"
         width="19.955204"
         height="29.682547"
         x="120.47701"
         y="178.31081" />
      <rect
         style="opacity:1;fill:none;stroke:#000000;stroke-width:0.287;stroke-miterlimit:4;stroke-dasharray:none"
         id="rect923"
         width="29.51268"
         height="19.91268"
         x="-346.27545"
         y="3.7447302"
         transform="rotate(-134.8264)" />
    </g>
  </g>
</svg>
