(kicad_pcb (version 20171130) (host pcbnew 5.1.10)

  (general
    (thickness 1.6)
    (drawings 6)
    (tracks 63)
    (zones 0)
    (modules 18)
    (nets 14)
  )

  (page A4)
  (layers
    (0 F.Cu signal hide)
    (31 B.Cu signal)
    (32 B.Adhes user hide)
    (33 F.Adhes user hide)
    (34 B.Paste user hide)
    (35 F.Paste user hide)
    (36 B.SilkS user hide)
    (37 F.SilkS user)
    (38 B.Mask user)
    (39 F.Mask user hide)
    (40 Dwgs.User user)
    (41 Cmts.User user hide)
    (42 Eco1.User user hide)
    (43 Eco2.User user hide)
    (44 Edge.Cuts user)
    (45 Margin user hide)
    (46 B.CrtYd user hide)
    (47 F.CrtYd user hide)
    (48 B.Fab user hide)
    (49 F.Fab user)
  )

  (setup
    (last_trace_width 0.25)
    (user_trace_width 0.6)
    (user_trace_width 0.635)
    (user_trace_width 0.762)
    (trace_clearance 0.2)
    (zone_clearance 0.508)
    (zone_45_only no)
    (trace_min 0.2)
    (via_size 0.8)
    (via_drill 0.4)
    (via_min_size 0.4)
    (via_min_drill 0.3)
    (uvia_size 0.3)
    (uvia_drill 0.1)
    (uvias_allowed no)
    (uvia_min_size 0.2)
    (uvia_min_drill 0.1)
    (edge_width 0.05)
    (segment_width 0.2)
    (pcb_text_width 0.3)
    (pcb_text_size 1.5 1.5)
    (mod_edge_width 0.12)
    (mod_text_size 1 1)
    (mod_text_width 0.15)
    (pad_size 1.524 1.524)
    (pad_drill 0.762)
    (pad_to_mask_clearance 0)
    (aux_axis_origin 0 0)
    (visible_elements FFFFFF7F)
    (pcbplotparams
      (layerselection 0x21160_fffffffe)
      (usegerberextensions false)
      (usegerberattributes true)
      (usegerberadvancedattributes true)
      (creategerberjobfile true)
      (excludeedgelayer false)
      (linewidth 0.100000)
      (plotframeref false)
      (viasonmask false)
      (mode 1)
      (useauxorigin false)
      (hpglpennumber 1)
      (hpglpenspeed 20)
      (hpglpendiameter 15.000000)
      (psnegative false)
      (psa4output false)
      (plotreference true)
      (plotvalue true)
      (plotinvisibletext false)
      (padsonsilk false)
      (subtractmaskfromsilk false)
      (outputformat 4)
      (mirror false)
      (drillshape 1)
      (scaleselection 1)
      (outputdirectory "../pdf/"))
  )

  (net 0 "")
  (net 1 GND)
  (net 2 "Net-(BT1-Pad1)")
  (net 3 "Net-(C1-Pad1)")
  (net 4 "Net-(C2-Pad1)")
  (net 5 "Net-(C3-Pad2)")
  (net 6 "Net-(C3-Pad1)")
  (net 7 +9V)
  (net 8 "Net-(D1-Pad1)")
  (net 9 "Net-(J1-Pad2)")
  (net 10 "Net-(R1-Pad1)")
  (net 11 "Net-(U1-Pad11)")
  (net 12 "Net-(U1-Pad5)")
  (net 13 "Net-(U1-Pad3)")

  (net_class Default "This is the default net class."
    (clearance 0.2)
    (trace_width 0.25)
    (via_dia 0.8)
    (via_drill 0.4)
    (uvia_dia 0.3)
    (uvia_drill 0.1)
    (add_net +9V)
    (add_net GND)
    (add_net "Net-(BT1-Pad1)")
    (add_net "Net-(C1-Pad1)")
    (add_net "Net-(C2-Pad1)")
    (add_net "Net-(C3-Pad1)")
    (add_net "Net-(C3-Pad2)")
    (add_net "Net-(D1-Pad1)")
    (add_net "Net-(J1-Pad2)")
    (add_net "Net-(R1-Pad1)")
    (add_net "Net-(U1-Pad11)")
    (add_net "Net-(U1-Pad3)")
    (add_net "Net-(U1-Pad5)")
  )

  (module Resistor_THT:R_Axial_DIN0207_L6.3mm_D2.5mm_P10.16mm_Horizontal (layer F.Cu) (tedit 5AE5139B) (tstamp 60A448D0)
    (at 136.36 76.8 180)
    (descr "Resistor, Axial_DIN0207 series, Axial, Horizontal, pin pitch=10.16mm, 0.25W = 1/4W, length*diameter=6.3*2.5mm^2, http://cdn-reichelt.de/documents/datenblatt/B400/1_4W%23YAG.pdf")
    (tags "Resistor Axial_DIN0207 series Axial Horizontal pin pitch 10.16mm 0.25W = 1/4W length 6.3mm diameter 2.5mm")
    (path /609E1A97)
    (fp_text reference R4 (at 12.66 0) (layer F.SilkS)
      (effects (font (size 1.8 1.5) (thickness 0.3)))
    )
    (fp_text value 4k7 (at 5.08 3.6) (layer F.Fab)
      (effects (font (size 1.8 1.5) (thickness 0.3)))
    )
    (fp_line (start 1.93 -1.25) (end 1.93 1.25) (layer F.Fab) (width 0.1))
    (fp_line (start 1.93 1.25) (end 8.23 1.25) (layer F.Fab) (width 0.1))
    (fp_line (start 8.23 1.25) (end 8.23 -1.25) (layer F.Fab) (width 0.1))
    (fp_line (start 8.23 -1.25) (end 1.93 -1.25) (layer F.Fab) (width 0.1))
    (fp_line (start 0 0) (end 1.93 0) (layer F.Fab) (width 0.1))
    (fp_line (start 10.16 0) (end 8.23 0) (layer F.Fab) (width 0.1))
    (fp_line (start 1.81 -1.37) (end 1.81 1.37) (layer F.SilkS) (width 0.12))
    (fp_line (start 1.81 1.37) (end 8.35 1.37) (layer F.SilkS) (width 0.12))
    (fp_line (start 8.35 1.37) (end 8.35 -1.37) (layer F.SilkS) (width 0.12))
    (fp_line (start 8.35 -1.37) (end 1.81 -1.37) (layer F.SilkS) (width 0.12))
    (fp_line (start 1.04 0) (end 1.81 0) (layer F.SilkS) (width 0.12))
    (fp_line (start 9.12 0) (end 8.35 0) (layer F.SilkS) (width 0.12))
    (fp_line (start -1.05 -1.5) (end -1.05 1.5) (layer F.CrtYd) (width 0.05))
    (fp_line (start -1.05 1.5) (end 11.21 1.5) (layer F.CrtYd) (width 0.05))
    (fp_line (start 11.21 1.5) (end 11.21 -1.5) (layer F.CrtYd) (width 0.05))
    (fp_line (start 11.21 -1.5) (end -1.05 -1.5) (layer F.CrtYd) (width 0.05))
    (fp_text user %R (at 12.66 0) (layer F.Fab)
      (effects (font (size 1.8 1.5) (thickness 0.3)))
    )
    (pad 2 thru_hole oval (at 10.16 0 180) (size 1.6 1.6) (drill 0.8) (layers *.Cu *.Mask)
      (net 9 "Net-(J1-Pad2)"))
    (pad 1 thru_hole circle (at 0 0 180) (size 1.6 1.6) (drill 0.8) (layers *.Cu *.Mask)
      (net 1 GND))
    (model ${KISYS3DMOD}/Resistor_THT.3dshapes/R_Axial_DIN0207_L6.3mm_D2.5mm_P10.16mm_Horizontal.wrl
      (at (xyz 0 0 0))
      (scale (xyz 1 1 1))
      (rotate (xyz 0 0 0))
    )
  )

  (module Package_DIP:DIP-14_W7.62mm_LongPads (layer F.Cu) (tedit 5A02E8C5) (tstamp 60A4482E)
    (at 126.9 92.3 90)
    (descr "14-lead though-hole mounted DIP package, row spacing 7.62 mm (300 mils), LongPads")
    (tags "THT DIP DIL PDIP 2.54mm 7.62mm 300mil LongPads")
    (path /609A7841)
    (fp_text reference U1 (at 3.6 -2.9 180) (layer F.SilkS)
      (effects (font (size 1.8 1.5) (thickness 0.3)))
    )
    (fp_text value LM556 (at 3.9 3.9 180) (layer F.Fab)
      (effects (font (size 1.8 1.5) (thickness 0.3)))
    )
    (fp_line (start 1.635 -1.27) (end 6.985 -1.27) (layer F.Fab) (width 0.1))
    (fp_line (start 6.985 -1.27) (end 6.985 16.51) (layer F.Fab) (width 0.1))
    (fp_line (start 6.985 16.51) (end 0.635 16.51) (layer F.Fab) (width 0.1))
    (fp_line (start 0.635 16.51) (end 0.635 -0.27) (layer F.Fab) (width 0.1))
    (fp_line (start 0.635 -0.27) (end 1.635 -1.27) (layer F.Fab) (width 0.1))
    (fp_line (start 2.81 -1.33) (end 1.56 -1.33) (layer F.SilkS) (width 0.12))
    (fp_line (start 1.56 -1.33) (end 1.56 16.57) (layer F.SilkS) (width 0.12))
    (fp_line (start 1.56 16.57) (end 6.06 16.57) (layer F.SilkS) (width 0.12))
    (fp_line (start 6.06 16.57) (end 6.06 -1.33) (layer F.SilkS) (width 0.12))
    (fp_line (start 6.06 -1.33) (end 4.81 -1.33) (layer F.SilkS) (width 0.12))
    (fp_line (start -1.45 -1.55) (end -1.45 16.8) (layer F.CrtYd) (width 0.05))
    (fp_line (start -1.45 16.8) (end 9.1 16.8) (layer F.CrtYd) (width 0.05))
    (fp_line (start 9.1 16.8) (end 9.1 -1.55) (layer F.CrtYd) (width 0.05))
    (fp_line (start 9.1 -1.55) (end -1.45 -1.55) (layer F.CrtYd) (width 0.05))
    (fp_text user %R (at 3.6 -2.9 180) (layer F.Fab)
      (effects (font (size 1.8 1.5) (thickness 0.3)))
    )
    (fp_arc (start 3.81 -1.33) (end 2.81 -1.33) (angle -180) (layer F.SilkS) (width 0.12))
    (pad 14 thru_hole oval (at 7.62 0 90) (size 2.4 1.6) (drill 0.8) (layers *.Cu *.Mask)
      (net 7 +9V))
    (pad 7 thru_hole oval (at 0 15.24 90) (size 2.4 1.6) (drill 0.8) (layers *.Cu *.Mask)
      (net 1 GND))
    (pad 13 thru_hole oval (at 7.62 2.54 90) (size 2.4 1.6) (drill 0.8) (layers *.Cu *.Mask)
      (net 4 "Net-(C2-Pad1)"))
    (pad 6 thru_hole oval (at 0 12.7 90) (size 2.4 1.6) (drill 0.8) (layers *.Cu *.Mask)
      (net 3 "Net-(C1-Pad1)"))
    (pad 12 thru_hole oval (at 7.62 5.08 90) (size 2.4 1.6) (drill 0.8) (layers *.Cu *.Mask)
      (net 4 "Net-(C2-Pad1)"))
    (pad 5 thru_hole oval (at 0 10.16 90) (size 2.4 1.6) (drill 0.8) (layers *.Cu *.Mask)
      (net 12 "Net-(U1-Pad5)"))
    (pad 11 thru_hole oval (at 7.62 7.62 90) (size 2.4 1.6) (drill 0.8) (layers *.Cu *.Mask)
      (net 11 "Net-(U1-Pad11)"))
    (pad 4 thru_hole oval (at 0 7.62 90) (size 2.4 1.6) (drill 0.8) (layers *.Cu *.Mask)
      (net 7 +9V))
    (pad 10 thru_hole oval (at 7.62 10.16 90) (size 2.4 1.6) (drill 0.8) (layers *.Cu *.Mask)
      (net 7 +9V))
    (pad 3 thru_hole oval (at 0 5.08 90) (size 2.4 1.6) (drill 0.8) (layers *.Cu *.Mask)
      (net 13 "Net-(U1-Pad3)"))
    (pad 9 thru_hole oval (at 7.62 12.7 90) (size 2.4 1.6) (drill 0.8) (layers *.Cu *.Mask)
      (net 6 "Net-(C3-Pad1)"))
    (pad 2 thru_hole oval (at 0 2.54 90) (size 2.4 1.6) (drill 0.8) (layers *.Cu *.Mask)
      (net 3 "Net-(C1-Pad1)"))
    (pad 8 thru_hole oval (at 7.62 15.24 90) (size 2.4 1.6) (drill 0.8) (layers *.Cu *.Mask)
      (net 12 "Net-(U1-Pad5)"))
    (pad 1 thru_hole rect (at 0 0 90) (size 2.4 1.6) (drill 0.8) (layers *.Cu *.Mask)
      (net 10 "Net-(R1-Pad1)"))
    (model ${KISYS3DMOD}/Package_DIP.3dshapes/DIP-14_W7.62mm.wrl
      (at (xyz 0 0 0))
      (scale (xyz 1 1 1))
      (rotate (xyz 0 0 0))
    )
  )

  (module Connector_Molex:Molex_KK-254_AE-6410-02A_1x02_P2.54mm_Vertical (layer F.Cu) (tedit 5EA53D3B) (tstamp 60A47BB5)
    (at 134.2 103.9 180)
    (descr "Molex KK-254 Interconnect System, old/engineering part number: AE-6410-02A example for new part number: 22-27-2021, 2 Pins (http://www.molex.com/pdm_docs/sd/022272021_sd.pdf), generated with kicad-footprint-generator")
    (tags "connector Molex KK-254 vertical")
    (path /60A06CFC)
    (fp_text reference BT1 (at 1.27 -4.12) (layer F.SilkS)
      (effects (font (size 1.8 1.5) (thickness 0.3)))
    )
    (fp_text value 9V (at 1.27 4.08) (layer F.Fab)
      (effects (font (size 1.8 1.5) (thickness 0.3)))
    )
    (fp_line (start -1.27 -2.92) (end -1.27 2.88) (layer F.Fab) (width 0.1))
    (fp_line (start -1.27 2.88) (end 3.81 2.88) (layer F.Fab) (width 0.1))
    (fp_line (start 3.81 2.88) (end 3.81 -2.92) (layer F.Fab) (width 0.1))
    (fp_line (start 3.81 -2.92) (end -1.27 -2.92) (layer F.Fab) (width 0.1))
    (fp_line (start -1.38 -3.03) (end -1.38 2.99) (layer F.SilkS) (width 0.12))
    (fp_line (start -1.38 2.99) (end 3.92 2.99) (layer F.SilkS) (width 0.12))
    (fp_line (start 3.92 2.99) (end 3.92 -3.03) (layer F.SilkS) (width 0.12))
    (fp_line (start 3.92 -3.03) (end -1.38 -3.03) (layer F.SilkS) (width 0.12))
    (fp_line (start -1.67 -2) (end -1.67 2) (layer F.SilkS) (width 0.12))
    (fp_line (start -1.27 -0.5) (end -0.562893 0) (layer F.Fab) (width 0.1))
    (fp_line (start -0.562893 0) (end -1.27 0.5) (layer F.Fab) (width 0.1))
    (fp_line (start 0 2.99) (end 0 1.99) (layer F.SilkS) (width 0.12))
    (fp_line (start 0 1.99) (end 2.54 1.99) (layer F.SilkS) (width 0.12))
    (fp_line (start 2.54 1.99) (end 2.54 2.99) (layer F.SilkS) (width 0.12))
    (fp_line (start 0 1.99) (end 0.25 1.46) (layer F.SilkS) (width 0.12))
    (fp_line (start 0.25 1.46) (end 2.29 1.46) (layer F.SilkS) (width 0.12))
    (fp_line (start 2.29 1.46) (end 2.54 1.99) (layer F.SilkS) (width 0.12))
    (fp_line (start 0.25 2.99) (end 0.25 1.99) (layer F.SilkS) (width 0.12))
    (fp_line (start 2.29 2.99) (end 2.29 1.99) (layer F.SilkS) (width 0.12))
    (fp_line (start -0.8 -3.03) (end -0.8 -2.43) (layer F.SilkS) (width 0.12))
    (fp_line (start -0.8 -2.43) (end 0.8 -2.43) (layer F.SilkS) (width 0.12))
    (fp_line (start 0.8 -2.43) (end 0.8 -3.03) (layer F.SilkS) (width 0.12))
    (fp_line (start 1.74 -3.03) (end 1.74 -2.43) (layer F.SilkS) (width 0.12))
    (fp_line (start 1.74 -2.43) (end 3.34 -2.43) (layer F.SilkS) (width 0.12))
    (fp_line (start 3.34 -2.43) (end 3.34 -3.03) (layer F.SilkS) (width 0.12))
    (fp_line (start -1.77 -3.42) (end -1.77 3.38) (layer F.CrtYd) (width 0.05))
    (fp_line (start -1.77 3.38) (end 4.31 3.38) (layer F.CrtYd) (width 0.05))
    (fp_line (start 4.31 3.38) (end 4.31 -3.42) (layer F.CrtYd) (width 0.05))
    (fp_line (start 4.31 -3.42) (end -1.77 -3.42) (layer F.CrtYd) (width 0.05))
    (fp_text user %R (at 1.27 -4.1) (layer F.Fab)
      (effects (font (size 1.8 1.5) (thickness 0.3)))
    )
    (pad 2 thru_hole oval (at 2.54 0 180) (size 1.74 2.19) (drill 1.19) (layers *.Cu *.Mask)
      (net 1 GND))
    (pad 1 thru_hole roundrect (at 0 0 180) (size 1.74 2.19) (drill 1.19) (layers *.Cu *.Mask) (roundrect_rratio 0.1436775862068966)
      (net 2 "Net-(BT1-Pad1)"))
    (model ${KISYS3DMOD}/Connector_Molex.3dshapes/Molex_KK-254_AE-6410-02A_1x02_P2.54mm_Vertical.wrl
      (at (xyz 0 0 0))
      (scale (xyz 1 1 1))
      (rotate (xyz 0 0 0))
    )
  )

  (module Connector_Molex:Molex_KK-254_AE-6410-02A_1x02_P2.54mm_Vertical (layer F.Cu) (tedit 5EA53D3B) (tstamp 60A44A37)
    (at 141 103.8 180)
    (descr "Molex KK-254 Interconnect System, old/engineering part number: AE-6410-02A example for new part number: 22-27-2021, 2 Pins (http://www.molex.com/pdm_docs/sd/022272021_sd.pdf), generated with kicad-footprint-generator")
    (tags "connector Molex KK-254 vertical")
    (path /60A0D94D)
    (fp_text reference D1 (at 1.27 -4.12) (layer F.SilkS)
      (effects (font (size 1.8 1.5) (thickness 0.3)))
    )
    (fp_text value LED (at 1.27 4.08) (layer F.Fab)
      (effects (font (size 1.8 1.5) (thickness 0.3)))
    )
    (fp_line (start -1.27 -2.92) (end -1.27 2.88) (layer F.Fab) (width 0.1))
    (fp_line (start -1.27 2.88) (end 3.81 2.88) (layer F.Fab) (width 0.1))
    (fp_line (start 3.81 2.88) (end 3.81 -2.92) (layer F.Fab) (width 0.1))
    (fp_line (start 3.81 -2.92) (end -1.27 -2.92) (layer F.Fab) (width 0.1))
    (fp_line (start -1.38 -3.03) (end -1.38 2.99) (layer F.SilkS) (width 0.12))
    (fp_line (start -1.38 2.99) (end 3.92 2.99) (layer F.SilkS) (width 0.12))
    (fp_line (start 3.92 2.99) (end 3.92 -3.03) (layer F.SilkS) (width 0.12))
    (fp_line (start 3.92 -3.03) (end -1.38 -3.03) (layer F.SilkS) (width 0.12))
    (fp_line (start -1.67 -2) (end -1.67 2) (layer F.SilkS) (width 0.12))
    (fp_line (start -1.27 -0.5) (end -0.562893 0) (layer F.Fab) (width 0.1))
    (fp_line (start -0.562893 0) (end -1.27 0.5) (layer F.Fab) (width 0.1))
    (fp_line (start 0 2.99) (end 0 1.99) (layer F.SilkS) (width 0.12))
    (fp_line (start 0 1.99) (end 2.54 1.99) (layer F.SilkS) (width 0.12))
    (fp_line (start 2.54 1.99) (end 2.54 2.99) (layer F.SilkS) (width 0.12))
    (fp_line (start 0 1.99) (end 0.25 1.46) (layer F.SilkS) (width 0.12))
    (fp_line (start 0.25 1.46) (end 2.29 1.46) (layer F.SilkS) (width 0.12))
    (fp_line (start 2.29 1.46) (end 2.54 1.99) (layer F.SilkS) (width 0.12))
    (fp_line (start 0.25 2.99) (end 0.25 1.99) (layer F.SilkS) (width 0.12))
    (fp_line (start 2.29 2.99) (end 2.29 1.99) (layer F.SilkS) (width 0.12))
    (fp_line (start -0.8 -3.03) (end -0.8 -2.43) (layer F.SilkS) (width 0.12))
    (fp_line (start -0.8 -2.43) (end 0.8 -2.43) (layer F.SilkS) (width 0.12))
    (fp_line (start 0.8 -2.43) (end 0.8 -3.03) (layer F.SilkS) (width 0.12))
    (fp_line (start 1.74 -3.03) (end 1.74 -2.43) (layer F.SilkS) (width 0.12))
    (fp_line (start 1.74 -2.43) (end 3.34 -2.43) (layer F.SilkS) (width 0.12))
    (fp_line (start 3.34 -2.43) (end 3.34 -3.03) (layer F.SilkS) (width 0.12))
    (fp_line (start -1.77 -3.42) (end -1.77 3.38) (layer F.CrtYd) (width 0.05))
    (fp_line (start -1.77 3.38) (end 4.31 3.38) (layer F.CrtYd) (width 0.05))
    (fp_line (start 4.31 3.38) (end 4.31 -3.42) (layer F.CrtYd) (width 0.05))
    (fp_line (start 4.31 -3.42) (end -1.77 -3.42) (layer F.CrtYd) (width 0.05))
    (fp_text user %R (at 1.3 -4.1) (layer F.Fab)
      (effects (font (size 1.8 1.5) (thickness 0.3)))
    )
    (pad 2 thru_hole oval (at 2.54 0 180) (size 1.74 2.19) (drill 1.19) (layers *.Cu *.Mask)
      (net 7 +9V))
    (pad 1 thru_hole roundrect (at 0 0 180) (size 1.74 2.19) (drill 1.19) (layers *.Cu *.Mask) (roundrect_rratio 0.1436775862068966)
      (net 8 "Net-(D1-Pad1)"))
    (model ${KISYS3DMOD}/Connector_Molex.3dshapes/Molex_KK-254_AE-6410-02A_1x02_P2.54mm_Vertical.wrl
      (at (xyz 0 0 0))
      (scale (xyz 1 1 1))
      (rotate (xyz 0 0 0))
    )
  )

  (module Connector_Molex:Molex_KK-254_AE-6410-02A_1x02_P2.54mm_Vertical (layer F.Cu) (tedit 5EA53D3B) (tstamp 60A44888)
    (at 127.3 103.9 180)
    (descr "Molex KK-254 Interconnect System, old/engineering part number: AE-6410-02A example for new part number: 22-27-2021, 2 Pins (http://www.molex.com/pdm_docs/sd/022272021_sd.pdf), generated with kicad-footprint-generator")
    (tags "connector Molex KK-254 vertical")
    (path /60A4D50E)
    (fp_text reference SW1 (at 1.27 -4.12) (layer F.SilkS)
      (effects (font (size 1.8 1.5) (thickness 0.3)))
    )
    (fp_text value SW1 (at 1.27 4.08) (layer F.Fab)
      (effects (font (size 1.8 1.5) (thickness 0.3)))
    )
    (fp_line (start -1.27 -2.92) (end -1.27 2.88) (layer F.Fab) (width 0.1))
    (fp_line (start -1.27 2.88) (end 3.81 2.88) (layer F.Fab) (width 0.1))
    (fp_line (start 3.81 2.88) (end 3.81 -2.92) (layer F.Fab) (width 0.1))
    (fp_line (start 3.81 -2.92) (end -1.27 -2.92) (layer F.Fab) (width 0.1))
    (fp_line (start -1.38 -3.03) (end -1.38 2.99) (layer F.SilkS) (width 0.12))
    (fp_line (start -1.38 2.99) (end 3.92 2.99) (layer F.SilkS) (width 0.12))
    (fp_line (start 3.92 2.99) (end 3.92 -3.03) (layer F.SilkS) (width 0.12))
    (fp_line (start 3.92 -3.03) (end -1.38 -3.03) (layer F.SilkS) (width 0.12))
    (fp_line (start -1.67 -2) (end -1.67 2) (layer F.SilkS) (width 0.12))
    (fp_line (start -1.27 -0.5) (end -0.562893 0) (layer F.Fab) (width 0.1))
    (fp_line (start -0.562893 0) (end -1.27 0.5) (layer F.Fab) (width 0.1))
    (fp_line (start 0 2.99) (end 0 1.99) (layer F.SilkS) (width 0.12))
    (fp_line (start 0 1.99) (end 2.54 1.99) (layer F.SilkS) (width 0.12))
    (fp_line (start 2.54 1.99) (end 2.54 2.99) (layer F.SilkS) (width 0.12))
    (fp_line (start 0 1.99) (end 0.25 1.46) (layer F.SilkS) (width 0.12))
    (fp_line (start 0.25 1.46) (end 2.29 1.46) (layer F.SilkS) (width 0.12))
    (fp_line (start 2.29 1.46) (end 2.54 1.99) (layer F.SilkS) (width 0.12))
    (fp_line (start 0.25 2.99) (end 0.25 1.99) (layer F.SilkS) (width 0.12))
    (fp_line (start 2.29 2.99) (end 2.29 1.99) (layer F.SilkS) (width 0.12))
    (fp_line (start -0.8 -3.03) (end -0.8 -2.43) (layer F.SilkS) (width 0.12))
    (fp_line (start -0.8 -2.43) (end 0.8 -2.43) (layer F.SilkS) (width 0.12))
    (fp_line (start 0.8 -2.43) (end 0.8 -3.03) (layer F.SilkS) (width 0.12))
    (fp_line (start 1.74 -3.03) (end 1.74 -2.43) (layer F.SilkS) (width 0.12))
    (fp_line (start 1.74 -2.43) (end 3.34 -2.43) (layer F.SilkS) (width 0.12))
    (fp_line (start 3.34 -2.43) (end 3.34 -3.03) (layer F.SilkS) (width 0.12))
    (fp_line (start -1.77 -3.42) (end -1.77 3.38) (layer F.CrtYd) (width 0.05))
    (fp_line (start -1.77 3.38) (end 4.31 3.38) (layer F.CrtYd) (width 0.05))
    (fp_line (start 4.31 3.38) (end 4.31 -3.42) (layer F.CrtYd) (width 0.05))
    (fp_line (start 4.31 -3.42) (end -1.77 -3.42) (layer F.CrtYd) (width 0.05))
    (fp_text user %R (at 1.27 -4.1) (layer F.Fab)
      (effects (font (size 1.8 1.5) (thickness 0.3)))
    )
    (pad 2 thru_hole oval (at 2.54 0 180) (size 1.74 2.19) (drill 1.19) (layers *.Cu *.Mask)
      (net 7 +9V))
    (pad 1 thru_hole roundrect (at 0 0 180) (size 1.74 2.19) (drill 1.19) (layers *.Cu *.Mask) (roundrect_rratio 0.1436775862068966)
      (net 2 "Net-(BT1-Pad1)"))
    (model ${KISYS3DMOD}/Connector_Molex.3dshapes/Molex_KK-254_AE-6410-02A_1x02_P2.54mm_Vertical.wrl
      (at (xyz 0 0 0))
      (scale (xyz 1 1 1))
      (rotate (xyz 0 0 0))
    )
  )

  (module Connector_Molex:Molex_KK-254_AE-6410-03A_1x03_P2.54mm_Vertical (layer F.Cu) (tedit 5EA53D3B) (tstamp 60A447DA)
    (at 118.7 90.68 90)
    (descr "Molex KK-254 Interconnect System, old/engineering part number: AE-6410-03A example for new part number: 22-27-2031, 3 Pins (http://www.molex.com/pdm_docs/sd/022272021_sd.pdf), generated with kicad-footprint-generator")
    (tags "connector Molex KK-254 vertical")
    (path /609EED21)
    (fp_text reference RV2 (at 4.28 -4.12 90) (layer F.SilkS)
      (effects (font (size 1.8 1.5) (thickness 0.3)))
    )
    (fp_text value 1M (at -0.52 -4.5 180) (layer F.Fab)
      (effects (font (size 1.8 1.5) (thickness 0.3)))
    )
    (fp_line (start -1.27 -2.92) (end -1.27 2.88) (layer F.Fab) (width 0.1))
    (fp_line (start -1.27 2.88) (end 6.35 2.88) (layer F.Fab) (width 0.1))
    (fp_line (start 6.35 2.88) (end 6.35 -2.92) (layer F.Fab) (width 0.1))
    (fp_line (start 6.35 -2.92) (end -1.27 -2.92) (layer F.Fab) (width 0.1))
    (fp_line (start -1.38 -3.03) (end -1.38 2.99) (layer F.SilkS) (width 0.12))
    (fp_line (start -1.38 2.99) (end 6.46 2.99) (layer F.SilkS) (width 0.12))
    (fp_line (start 6.46 2.99) (end 6.46 -3.03) (layer F.SilkS) (width 0.12))
    (fp_line (start 6.46 -3.03) (end -1.38 -3.03) (layer F.SilkS) (width 0.12))
    (fp_line (start -1.67 -2) (end -1.67 2) (layer F.SilkS) (width 0.12))
    (fp_line (start -1.27 -0.5) (end -0.562893 0) (layer F.Fab) (width 0.1))
    (fp_line (start -0.562893 0) (end -1.27 0.5) (layer F.Fab) (width 0.1))
    (fp_line (start 0 2.99) (end 0 1.99) (layer F.SilkS) (width 0.12))
    (fp_line (start 0 1.99) (end 5.08 1.99) (layer F.SilkS) (width 0.12))
    (fp_line (start 5.08 1.99) (end 5.08 2.99) (layer F.SilkS) (width 0.12))
    (fp_line (start 0 1.99) (end 0.25 1.46) (layer F.SilkS) (width 0.12))
    (fp_line (start 0.25 1.46) (end 4.83 1.46) (layer F.SilkS) (width 0.12))
    (fp_line (start 4.83 1.46) (end 5.08 1.99) (layer F.SilkS) (width 0.12))
    (fp_line (start 0.25 2.99) (end 0.25 1.99) (layer F.SilkS) (width 0.12))
    (fp_line (start 4.83 2.99) (end 4.83 1.99) (layer F.SilkS) (width 0.12))
    (fp_line (start -0.8 -3.03) (end -0.8 -2.43) (layer F.SilkS) (width 0.12))
    (fp_line (start -0.8 -2.43) (end 0.8 -2.43) (layer F.SilkS) (width 0.12))
    (fp_line (start 0.8 -2.43) (end 0.8 -3.03) (layer F.SilkS) (width 0.12))
    (fp_line (start 1.74 -3.03) (end 1.74 -2.43) (layer F.SilkS) (width 0.12))
    (fp_line (start 1.74 -2.43) (end 3.34 -2.43) (layer F.SilkS) (width 0.12))
    (fp_line (start 3.34 -2.43) (end 3.34 -3.03) (layer F.SilkS) (width 0.12))
    (fp_line (start 4.28 -3.03) (end 4.28 -2.43) (layer F.SilkS) (width 0.12))
    (fp_line (start 4.28 -2.43) (end 5.88 -2.43) (layer F.SilkS) (width 0.12))
    (fp_line (start 5.88 -2.43) (end 5.88 -3.03) (layer F.SilkS) (width 0.12))
    (fp_line (start -1.77 -3.42) (end -1.77 3.38) (layer F.CrtYd) (width 0.05))
    (fp_line (start -1.77 3.38) (end 6.85 3.38) (layer F.CrtYd) (width 0.05))
    (fp_line (start 6.85 3.38) (end 6.85 -3.42) (layer F.CrtYd) (width 0.05))
    (fp_line (start 6.85 -3.42) (end -1.77 -3.42) (layer F.CrtYd) (width 0.05))
    (fp_text user %R (at 4.28 -4.1 90) (layer F.Fab)
      (effects (font (size 1.8 1.5) (thickness 0.3)))
    )
    (pad 3 thru_hole oval (at 5.08 0 90) (size 1.74 2.19) (drill 1.19) (layers *.Cu *.Mask)
      (net 4 "Net-(C2-Pad1)"))
    (pad 2 thru_hole oval (at 2.54 0 90) (size 1.74 2.19) (drill 1.19) (layers *.Cu *.Mask)
      (net 7 +9V))
    (pad 1 thru_hole roundrect (at 0 0 90) (size 1.74 2.19) (drill 1.19) (layers *.Cu *.Mask) (roundrect_rratio 0.1436775862068966)
      (net 7 +9V))
    (model ${KISYS3DMOD}/Connector_Molex.3dshapes/Molex_KK-254_AE-6410-03A_1x03_P2.54mm_Vertical.wrl
      (at (xyz 0 0 0))
      (scale (xyz 1 1 1))
      (rotate (xyz 0 0 0))
    )
  )

  (module Connector_Molex:Molex_KK-254_AE-6410-03A_1x03_P2.54mm_Vertical (layer F.Cu) (tedit 5EA53D3B) (tstamp 60A44744)
    (at 118.8 99.58 90)
    (descr "Molex KK-254 Interconnect System, old/engineering part number: AE-6410-03A example for new part number: 22-27-2031, 3 Pins (http://www.molex.com/pdm_docs/sd/022272021_sd.pdf), generated with kicad-footprint-generator")
    (tags "connector Molex KK-254 vertical")
    (path /609A9D9F)
    (fp_text reference RV1 (at 4.38 -4.12 90) (layer F.SilkS)
      (effects (font (size 1.8 1.5) (thickness 0.3)))
    )
    (fp_text value 1M (at -0.42 -4.5 180) (layer F.Fab)
      (effects (font (size 1.8 1.5) (thickness 0.3)))
    )
    (fp_line (start -1.27 -2.92) (end -1.27 2.88) (layer F.Fab) (width 0.1))
    (fp_line (start -1.27 2.88) (end 6.35 2.88) (layer F.Fab) (width 0.1))
    (fp_line (start 6.35 2.88) (end 6.35 -2.92) (layer F.Fab) (width 0.1))
    (fp_line (start 6.35 -2.92) (end -1.27 -2.92) (layer F.Fab) (width 0.1))
    (fp_line (start -1.38 -3.03) (end -1.38 2.99) (layer F.SilkS) (width 0.12))
    (fp_line (start -1.38 2.99) (end 6.46 2.99) (layer F.SilkS) (width 0.12))
    (fp_line (start 6.46 2.99) (end 6.46 -3.03) (layer F.SilkS) (width 0.12))
    (fp_line (start 6.46 -3.03) (end -1.38 -3.03) (layer F.SilkS) (width 0.12))
    (fp_line (start -1.67 -2) (end -1.67 2) (layer F.SilkS) (width 0.12))
    (fp_line (start -1.27 -0.5) (end -0.562893 0) (layer F.Fab) (width 0.1))
    (fp_line (start -0.562893 0) (end -1.27 0.5) (layer F.Fab) (width 0.1))
    (fp_line (start 0 2.99) (end 0 1.99) (layer F.SilkS) (width 0.12))
    (fp_line (start 0 1.99) (end 5.08 1.99) (layer F.SilkS) (width 0.12))
    (fp_line (start 5.08 1.99) (end 5.08 2.99) (layer F.SilkS) (width 0.12))
    (fp_line (start 0 1.99) (end 0.25 1.46) (layer F.SilkS) (width 0.12))
    (fp_line (start 0.25 1.46) (end 4.83 1.46) (layer F.SilkS) (width 0.12))
    (fp_line (start 4.83 1.46) (end 5.08 1.99) (layer F.SilkS) (width 0.12))
    (fp_line (start 0.25 2.99) (end 0.25 1.99) (layer F.SilkS) (width 0.12))
    (fp_line (start 4.83 2.99) (end 4.83 1.99) (layer F.SilkS) (width 0.12))
    (fp_line (start -0.8 -3.03) (end -0.8 -2.43) (layer F.SilkS) (width 0.12))
    (fp_line (start -0.8 -2.43) (end 0.8 -2.43) (layer F.SilkS) (width 0.12))
    (fp_line (start 0.8 -2.43) (end 0.8 -3.03) (layer F.SilkS) (width 0.12))
    (fp_line (start 1.74 -3.03) (end 1.74 -2.43) (layer F.SilkS) (width 0.12))
    (fp_line (start 1.74 -2.43) (end 3.34 -2.43) (layer F.SilkS) (width 0.12))
    (fp_line (start 3.34 -2.43) (end 3.34 -3.03) (layer F.SilkS) (width 0.12))
    (fp_line (start 4.28 -3.03) (end 4.28 -2.43) (layer F.SilkS) (width 0.12))
    (fp_line (start 4.28 -2.43) (end 5.88 -2.43) (layer F.SilkS) (width 0.12))
    (fp_line (start 5.88 -2.43) (end 5.88 -3.03) (layer F.SilkS) (width 0.12))
    (fp_line (start -1.77 -3.42) (end -1.77 3.38) (layer F.CrtYd) (width 0.05))
    (fp_line (start -1.77 3.38) (end 6.85 3.38) (layer F.CrtYd) (width 0.05))
    (fp_line (start 6.85 3.38) (end 6.85 -3.42) (layer F.CrtYd) (width 0.05))
    (fp_line (start 6.85 -3.42) (end -1.77 -3.42) (layer F.CrtYd) (width 0.05))
    (fp_text user %R (at 4.38 -4.1 90) (layer F.Fab)
      (effects (font (size 1.8 1.5) (thickness 0.3)))
    )
    (pad 3 thru_hole oval (at 5.08 0 90) (size 1.74 2.19) (drill 1.19) (layers *.Cu *.Mask)
      (net 10 "Net-(R1-Pad1)"))
    (pad 2 thru_hole oval (at 2.54 0 90) (size 1.74 2.19) (drill 1.19) (layers *.Cu *.Mask)
      (net 7 +9V))
    (pad 1 thru_hole roundrect (at 0 0 90) (size 1.74 2.19) (drill 1.19) (layers *.Cu *.Mask) (roundrect_rratio 0.1436775862068966)
      (net 7 +9V))
    (model ${KISYS3DMOD}/Connector_Molex.3dshapes/Molex_KK-254_AE-6410-03A_1x03_P2.54mm_Vertical.wrl
      (at (xyz 0 0 0))
      (scale (xyz 1 1 1))
      (rotate (xyz 0 0 0))
    )
  )

  (module Connector_Molex:Molex_KK-254_AE-6410-02A_1x02_P2.54mm_Vertical (layer F.Cu) (tedit 5EA53D3B) (tstamp 60A44A77)
    (at 118.7 81 90)
    (descr "Molex KK-254 Interconnect System, old/engineering part number: AE-6410-02A example for new part number: 22-27-2021, 2 Pins (http://www.molex.com/pdm_docs/sd/022272021_sd.pdf), generated with kicad-footprint-generator")
    (tags "connector Molex KK-254 vertical")
    (path /60A5DAFC)
    (fp_text reference J1 (at 1.27 -4.12 90) (layer F.SilkS)
      (effects (font (size 1.8 1.5) (thickness 0.3)))
    )
    (fp_text value Jack (at 5.5 -0.3 180) (layer F.Fab)
      (effects (font (size 1.8 1.5) (thickness 0.3)))
    )
    (fp_line (start -1.27 -2.92) (end -1.27 2.88) (layer F.Fab) (width 0.1))
    (fp_line (start -1.27 2.88) (end 3.81 2.88) (layer F.Fab) (width 0.1))
    (fp_line (start 3.81 2.88) (end 3.81 -2.92) (layer F.Fab) (width 0.1))
    (fp_line (start 3.81 -2.92) (end -1.27 -2.92) (layer F.Fab) (width 0.1))
    (fp_line (start -1.38 -3.03) (end -1.38 2.99) (layer F.SilkS) (width 0.12))
    (fp_line (start -1.38 2.99) (end 3.92 2.99) (layer F.SilkS) (width 0.12))
    (fp_line (start 3.92 2.99) (end 3.92 -3.03) (layer F.SilkS) (width 0.12))
    (fp_line (start 3.92 -3.03) (end -1.38 -3.03) (layer F.SilkS) (width 0.12))
    (fp_line (start -1.67 -2) (end -1.67 2) (layer F.SilkS) (width 0.12))
    (fp_line (start -1.27 -0.5) (end -0.562893 0) (layer F.Fab) (width 0.1))
    (fp_line (start -0.562893 0) (end -1.27 0.5) (layer F.Fab) (width 0.1))
    (fp_line (start 0 2.99) (end 0 1.99) (layer F.SilkS) (width 0.12))
    (fp_line (start 0 1.99) (end 2.54 1.99) (layer F.SilkS) (width 0.12))
    (fp_line (start 2.54 1.99) (end 2.54 2.99) (layer F.SilkS) (width 0.12))
    (fp_line (start 0 1.99) (end 0.25 1.46) (layer F.SilkS) (width 0.12))
    (fp_line (start 0.25 1.46) (end 2.29 1.46) (layer F.SilkS) (width 0.12))
    (fp_line (start 2.29 1.46) (end 2.54 1.99) (layer F.SilkS) (width 0.12))
    (fp_line (start 0.25 2.99) (end 0.25 1.99) (layer F.SilkS) (width 0.12))
    (fp_line (start 2.29 2.99) (end 2.29 1.99) (layer F.SilkS) (width 0.12))
    (fp_line (start -0.8 -3.03) (end -0.8 -2.43) (layer F.SilkS) (width 0.12))
    (fp_line (start -0.8 -2.43) (end 0.8 -2.43) (layer F.SilkS) (width 0.12))
    (fp_line (start 0.8 -2.43) (end 0.8 -3.03) (layer F.SilkS) (width 0.12))
    (fp_line (start 1.74 -3.03) (end 1.74 -2.43) (layer F.SilkS) (width 0.12))
    (fp_line (start 1.74 -2.43) (end 3.34 -2.43) (layer F.SilkS) (width 0.12))
    (fp_line (start 3.34 -2.43) (end 3.34 -3.03) (layer F.SilkS) (width 0.12))
    (fp_line (start -1.77 -3.42) (end -1.77 3.38) (layer F.CrtYd) (width 0.05))
    (fp_line (start -1.77 3.38) (end 4.31 3.38) (layer F.CrtYd) (width 0.05))
    (fp_line (start 4.31 3.38) (end 4.31 -3.42) (layer F.CrtYd) (width 0.05))
    (fp_line (start 4.31 -3.42) (end -1.77 -3.42) (layer F.CrtYd) (width 0.05))
    (fp_text user %R (at 1.3 -4.1 90) (layer F.Fab)
      (effects (font (size 1.8 1.5) (thickness 0.3)))
    )
    (pad 2 thru_hole oval (at 2.54 0 90) (size 1.74 2.19) (drill 1.19) (layers *.Cu *.Mask)
      (net 9 "Net-(J1-Pad2)"))
    (pad 1 thru_hole roundrect (at 0 0 90) (size 1.74 2.19) (drill 1.19) (layers *.Cu *.Mask) (roundrect_rratio 0.1436775862068966)
      (net 1 GND))
    (model ${KISYS3DMOD}/Connector_Molex.3dshapes/Molex_KK-254_AE-6410-02A_1x02_P2.54mm_Vertical.wrl
      (at (xyz 0 0 0))
      (scale (xyz 1 1 1))
      (rotate (xyz 0 0 0))
    )
  )

  (module MountingHole:MountingHole_3.2mm_M3_ISO7380_Pad (layer F.Cu) (tedit 56D1B4CB) (tstamp 60B758C0)
    (at 114.2 105.8)
    (descr "Mounting Hole 3.2mm, M3, ISO7380")
    (tags "mounting hole 3.2mm m3 iso7380")
    (attr virtual)
    (fp_text reference REF** (at 0 -3.85) (layer F.SilkS) hide
      (effects (font (size 1.8 1.5) (thickness 0.3)))
    )
    (fp_text value MountingHole_3.2mm_M3_ISO7380_Pad (at 0 3.85) (layer F.Fab) hide
      (effects (font (size 1.8 1.5) (thickness 0.3)))
    )
    (fp_circle (center 0 0) (end 2.85 0) (layer Cmts.User) (width 0.15))
    (fp_circle (center 0 0) (end 3.1 0) (layer F.CrtYd) (width 0.05))
    (fp_text user %R (at 0.3 0) (layer F.Fab) hide
      (effects (font (size 1.8 1.5) (thickness 0.3)))
    )
    (pad 1 thru_hole circle (at 0 0) (size 5.7 5.7) (drill 3.2) (layers *.Cu *.Mask))
  )

  (module MountingHole:MountingHole_3.2mm_M3_ISO7380_Pad (layer F.Cu) (tedit 56D1B4CB) (tstamp 60B758C0)
    (at 114.2 72.2)
    (descr "Mounting Hole 3.2mm, M3, ISO7380")
    (tags "mounting hole 3.2mm m3 iso7380")
    (attr virtual)
    (fp_text reference REF** (at 0 -3.85) (layer F.SilkS) hide
      (effects (font (size 1.8 1.5) (thickness 0.3)))
    )
    (fp_text value MountingHole_3.2mm_M3_ISO7380_Pad (at 0 3.85) (layer F.Fab) hide
      (effects (font (size 1.8 1.5) (thickness 0.3)))
    )
    (fp_circle (center 0 0) (end 2.85 0) (layer Cmts.User) (width 0.15))
    (fp_circle (center 0 0) (end 3.1 0) (layer F.CrtYd) (width 0.05))
    (fp_text user %R (at 0.3 0) (layer F.Fab) hide
      (effects (font (size 1.8 1.5) (thickness 0.3)))
    )
    (pad 1 thru_hole circle (at 0 0) (size 5.7 5.7) (drill 3.2) (layers *.Cu *.Mask))
  )

  (module MountingHole:MountingHole_3.2mm_M3_ISO7380_Pad (layer F.Cu) (tedit 56D1B4CB) (tstamp 60B75872)
    (at 147.8 105.8)
    (descr "Mounting Hole 3.2mm, M3, ISO7380")
    (tags "mounting hole 3.2mm m3 iso7380")
    (attr virtual)
    (fp_text reference REF** (at 0 -3.85) (layer F.SilkS) hide
      (effects (font (size 1.8 1.5) (thickness 0.3)))
    )
    (fp_text value MountingHole_3.2mm_M3_ISO7380_Pad (at 0 3.85) (layer F.Fab) hide
      (effects (font (size 1.8 1.5) (thickness 0.3)))
    )
    (fp_circle (center 0 0) (end 2.85 0) (layer Cmts.User) (width 0.15))
    (fp_circle (center 0 0) (end 3.1 0) (layer F.CrtYd) (width 0.05))
    (fp_text user %R (at -15.6 -8.4) (layer F.Fab) hide
      (effects (font (size 1.8 1.5) (thickness 0.3)))
    )
    (pad 1 thru_hole circle (at 0 0) (size 5.7 5.7) (drill 3.2) (layers *.Cu *.Mask))
  )

  (module MountingHole:MountingHole_3.2mm_M3_ISO7380_Pad (layer F.Cu) (tedit 56D1B4CB) (tstamp 60B75889)
    (at 147.8 72.2)
    (descr "Mounting Hole 3.2mm, M3, ISO7380")
    (tags "mounting hole 3.2mm m3 iso7380")
    (attr virtual)
    (fp_text reference REF** (at 0 -3.85) (layer F.SilkS) hide
      (effects (font (size 1.8 1.5) (thickness 0.3)))
    )
    (fp_text value MountingHole_3.2mm_M3_ISO7380_Pad (at 0 3.85) (layer F.Fab) hide
      (effects (font (size 1.8 1.5) (thickness 0.3)))
    )
    (fp_circle (center 0 0) (end 2.85 0) (layer Cmts.User) (width 0.15))
    (fp_circle (center 0 0) (end 3.1 0) (layer F.CrtYd) (width 0.05))
    (fp_text user %R (at 0.3 0) (layer F.Fab) hide
      (effects (font (size 1.8 1.5) (thickness 0.3)))
    )
    (pad 1 thru_hole circle (at 0 0) (size 5.7 5.7) (drill 3.2) (layers *.Cu *.Mask))
  )

  (module Resistor_THT:R_Axial_DIN0207_L6.3mm_D2.5mm_P10.16mm_Horizontal (layer F.Cu) (tedit 5AE5139B) (tstamp 60A44930)
    (at 147.5 83.7 270)
    (descr "Resistor, Axial_DIN0207 series, Axial, Horizontal, pin pitch=10.16mm, 0.25W = 1/4W, length*diameter=6.3*2.5mm^2, http://cdn-reichelt.de/documents/datenblatt/B400/1_4W%23YAG.pdf")
    (tags "Resistor Axial_DIN0207 series Axial Horizontal pin pitch 10.16mm 0.25W = 1/4W length 6.3mm diameter 2.5mm")
    (path /60A0DD03)
    (fp_text reference R3 (at 7.16 2.4 90) (layer F.SilkS)
      (effects (font (size 1.8 1.5) (thickness 0.3)))
    )
    (fp_text value 470 (at 5.06 0 90) (layer F.Fab)
      (effects (font (size 1.8 1.5) (thickness 0.3)))
    )
    (fp_line (start 1.93 -1.25) (end 1.93 1.25) (layer F.Fab) (width 0.1))
    (fp_line (start 1.93 1.25) (end 8.23 1.25) (layer F.Fab) (width 0.1))
    (fp_line (start 8.23 1.25) (end 8.23 -1.25) (layer F.Fab) (width 0.1))
    (fp_line (start 8.23 -1.25) (end 1.93 -1.25) (layer F.Fab) (width 0.1))
    (fp_line (start 0 0) (end 1.93 0) (layer F.Fab) (width 0.1))
    (fp_line (start 10.16 0) (end 8.23 0) (layer F.Fab) (width 0.1))
    (fp_line (start 1.81 -1.37) (end 1.81 1.37) (layer F.SilkS) (width 0.12))
    (fp_line (start 1.81 1.37) (end 8.35 1.37) (layer F.SilkS) (width 0.12))
    (fp_line (start 8.35 1.37) (end 8.35 -1.37) (layer F.SilkS) (width 0.12))
    (fp_line (start 8.35 -1.37) (end 1.81 -1.37) (layer F.SilkS) (width 0.12))
    (fp_line (start 1.04 0) (end 1.81 0) (layer F.SilkS) (width 0.12))
    (fp_line (start 9.12 0) (end 8.35 0) (layer F.SilkS) (width 0.12))
    (fp_line (start -1.05 -1.5) (end -1.05 1.5) (layer F.CrtYd) (width 0.05))
    (fp_line (start -1.05 1.5) (end 11.21 1.5) (layer F.CrtYd) (width 0.05))
    (fp_line (start 11.21 1.5) (end 11.21 -1.5) (layer F.CrtYd) (width 0.05))
    (fp_line (start 11.21 -1.5) (end -1.05 -1.5) (layer F.CrtYd) (width 0.05))
    (fp_text user %R (at 7.16 2.4 90) (layer F.Fab)
      (effects (font (size 1.8 1.5) (thickness 0.3)))
    )
    (pad 2 thru_hole oval (at 10.16 0 270) (size 1.6 1.6) (drill 0.8) (layers *.Cu *.Mask)
      (net 8 "Net-(D1-Pad1)"))
    (pad 1 thru_hole circle (at 0 0 270) (size 1.6 1.6) (drill 0.8) (layers *.Cu *.Mask)
      (net 1 GND))
    (model ${KISYS3DMOD}/Resistor_THT.3dshapes/R_Axial_DIN0207_L6.3mm_D2.5mm_P10.16mm_Horizontal.wrl
      (at (xyz 0 0 0))
      (scale (xyz 1 1 1))
      (rotate (xyz 0 0 0))
    )
  )

  (module Resistor_THT:R_Axial_DIN0207_L6.3mm_D2.5mm_P10.16mm_Horizontal (layer F.Cu) (tedit 5AE5139B) (tstamp 60A44900)
    (at 126.2 73.1)
    (descr "Resistor, Axial_DIN0207 series, Axial, Horizontal, pin pitch=10.16mm, 0.25W = 1/4W, length*diameter=6.3*2.5mm^2, http://cdn-reichelt.de/documents/datenblatt/B400/1_4W%23YAG.pdf")
    (tags "Resistor Axial_DIN0207 series Axial Horizontal pin pitch 10.16mm 0.25W = 1/4W length 6.3mm diameter 2.5mm")
    (path /609A8E3D)
    (fp_text reference R2 (at 5.08 -2.37) (layer F.SilkS)
      (effects (font (size 1.8 1.5) (thickness 0.3)))
    )
    (fp_text value 10k (at 5.2 3.7) (layer F.Fab)
      (effects (font (size 1.8 1.5) (thickness 0.3)))
    )
    (fp_line (start 1.93 -1.25) (end 1.93 1.25) (layer F.Fab) (width 0.1))
    (fp_line (start 1.93 1.25) (end 8.23 1.25) (layer F.Fab) (width 0.1))
    (fp_line (start 8.23 1.25) (end 8.23 -1.25) (layer F.Fab) (width 0.1))
    (fp_line (start 8.23 -1.25) (end 1.93 -1.25) (layer F.Fab) (width 0.1))
    (fp_line (start 0 0) (end 1.93 0) (layer F.Fab) (width 0.1))
    (fp_line (start 10.16 0) (end 8.23 0) (layer F.Fab) (width 0.1))
    (fp_line (start 1.81 -1.37) (end 1.81 1.37) (layer F.SilkS) (width 0.12))
    (fp_line (start 1.81 1.37) (end 8.35 1.37) (layer F.SilkS) (width 0.12))
    (fp_line (start 8.35 1.37) (end 8.35 -1.37) (layer F.SilkS) (width 0.12))
    (fp_line (start 8.35 -1.37) (end 1.81 -1.37) (layer F.SilkS) (width 0.12))
    (fp_line (start 1.04 0) (end 1.81 0) (layer F.SilkS) (width 0.12))
    (fp_line (start 9.12 0) (end 8.35 0) (layer F.SilkS) (width 0.12))
    (fp_line (start -1.05 -1.5) (end -1.05 1.5) (layer F.CrtYd) (width 0.05))
    (fp_line (start -1.05 1.5) (end 11.21 1.5) (layer F.CrtYd) (width 0.05))
    (fp_line (start 11.21 1.5) (end 11.21 -1.5) (layer F.CrtYd) (width 0.05))
    (fp_line (start 11.21 -1.5) (end -1.05 -1.5) (layer F.CrtYd) (width 0.05))
    (fp_text user %R (at 5.1 -2.4 180) (layer F.Fab)
      (effects (font (size 1.8 1.5) (thickness 0.3)))
    )
    (pad 2 thru_hole oval (at 10.16 0) (size 1.6 1.6) (drill 0.8) (layers *.Cu *.Mask)
      (net 5 "Net-(C3-Pad2)"))
    (pad 1 thru_hole circle (at 0 0) (size 1.6 1.6) (drill 0.8) (layers *.Cu *.Mask)
      (net 9 "Net-(J1-Pad2)"))
    (model ${KISYS3DMOD}/Resistor_THT.3dshapes/R_Axial_DIN0207_L6.3mm_D2.5mm_P10.16mm_Horizontal.wrl
      (at (xyz 0 0 0))
      (scale (xyz 1 1 1))
      (rotate (xyz 0 0 0))
    )
  )

  (module Resistor_THT:R_Axial_DIN0207_L6.3mm_D2.5mm_P10.16mm_Horizontal (layer F.Cu) (tedit 5AE5139B) (tstamp 60A44ABF)
    (at 124.44 97.2)
    (descr "Resistor, Axial_DIN0207 series, Axial, Horizontal, pin pitch=10.16mm, 0.25W = 1/4W, length*diameter=6.3*2.5mm^2, http://cdn-reichelt.de/documents/datenblatt/B400/1_4W%23YAG.pdf")
    (tags "Resistor Axial_DIN0207 series Axial Horizontal pin pitch 10.16mm 0.25W = 1/4W length 6.3mm diameter 2.5mm")
    (path /609A9995)
    (fp_text reference R1 (at 5.08 -2.37) (layer F.SilkS)
      (effects (font (size 1.8 1.5) (thickness 0.3)))
    )
    (fp_text value 1k (at 5 0.1) (layer F.Fab)
      (effects (font (size 1.8 1.5) (thickness 0.3)))
    )
    (fp_line (start 1.93 -1.25) (end 1.93 1.25) (layer F.Fab) (width 0.1))
    (fp_line (start 1.93 1.25) (end 8.23 1.25) (layer F.Fab) (width 0.1))
    (fp_line (start 8.23 1.25) (end 8.23 -1.25) (layer F.Fab) (width 0.1))
    (fp_line (start 8.23 -1.25) (end 1.93 -1.25) (layer F.Fab) (width 0.1))
    (fp_line (start 0 0) (end 1.93 0) (layer F.Fab) (width 0.1))
    (fp_line (start 10.16 0) (end 8.23 0) (layer F.Fab) (width 0.1))
    (fp_line (start 1.81 -1.37) (end 1.81 1.37) (layer F.SilkS) (width 0.12))
    (fp_line (start 1.81 1.37) (end 8.35 1.37) (layer F.SilkS) (width 0.12))
    (fp_line (start 8.35 1.37) (end 8.35 -1.37) (layer F.SilkS) (width 0.12))
    (fp_line (start 8.35 -1.37) (end 1.81 -1.37) (layer F.SilkS) (width 0.12))
    (fp_line (start 1.04 0) (end 1.81 0) (layer F.SilkS) (width 0.12))
    (fp_line (start 9.12 0) (end 8.35 0) (layer F.SilkS) (width 0.12))
    (fp_line (start -1.05 -1.5) (end -1.05 1.5) (layer F.CrtYd) (width 0.05))
    (fp_line (start -1.05 1.5) (end 11.21 1.5) (layer F.CrtYd) (width 0.05))
    (fp_line (start 11.21 1.5) (end 11.21 -1.5) (layer F.CrtYd) (width 0.05))
    (fp_line (start 11.21 -1.5) (end -1.05 -1.5) (layer F.CrtYd) (width 0.05))
    (fp_text user %R (at 5.08 -2.4) (layer F.Fab)
      (effects (font (size 1.8 1.5) (thickness 0.3)))
    )
    (pad 2 thru_hole oval (at 10.16 0) (size 1.6 1.6) (drill 0.8) (layers *.Cu *.Mask)
      (net 3 "Net-(C1-Pad1)"))
    (pad 1 thru_hole circle (at 0 0) (size 1.6 1.6) (drill 0.8) (layers *.Cu *.Mask)
      (net 10 "Net-(R1-Pad1)"))
    (model ${KISYS3DMOD}/Resistor_THT.3dshapes/R_Axial_DIN0207_L6.3mm_D2.5mm_P10.16mm_Horizontal.wrl
      (at (xyz 0 0 0))
      (scale (xyz 1 1 1))
      (rotate (xyz 0 0 0))
    )
  )

  (module Capacitor_THT:CP_Radial_D5.0mm_P2.00mm (layer F.Cu) (tedit 5AE50EF0) (tstamp 60A449D7)
    (at 142.7 79.3 90)
    (descr "CP, Radial series, Radial, pin pitch=2.00mm, , diameter=5mm, Electrolytic Capacitor")
    (tags "CP Radial series Radial pin pitch 2.00mm  diameter 5mm Electrolytic Capacitor")
    (path /609AC0C2)
    (fp_text reference C3 (at 5.2 -0.3 180) (layer F.SilkS)
      (effects (font (size 1.8 1.5) (thickness 0.3)))
    )
    (fp_text value 10u (at -2.9 0.1 180) (layer F.Fab)
      (effects (font (size 1.8 1.5) (thickness 0.3)))
    )
    (fp_circle (center 1 0) (end 3.5 0) (layer F.Fab) (width 0.1))
    (fp_circle (center 1 0) (end 3.62 0) (layer F.SilkS) (width 0.12))
    (fp_circle (center 1 0) (end 3.75 0) (layer F.CrtYd) (width 0.05))
    (fp_line (start -1.133605 -1.0875) (end -0.633605 -1.0875) (layer F.Fab) (width 0.1))
    (fp_line (start -0.883605 -1.3375) (end -0.883605 -0.8375) (layer F.Fab) (width 0.1))
    (fp_line (start 1 1.04) (end 1 2.58) (layer F.SilkS) (width 0.12))
    (fp_line (start 1 -2.58) (end 1 -1.04) (layer F.SilkS) (width 0.12))
    (fp_line (start 1.04 1.04) (end 1.04 2.58) (layer F.SilkS) (width 0.12))
    (fp_line (start 1.04 -2.58) (end 1.04 -1.04) (layer F.SilkS) (width 0.12))
    (fp_line (start 1.08 -2.579) (end 1.08 -1.04) (layer F.SilkS) (width 0.12))
    (fp_line (start 1.08 1.04) (end 1.08 2.579) (layer F.SilkS) (width 0.12))
    (fp_line (start 1.12 -2.578) (end 1.12 -1.04) (layer F.SilkS) (width 0.12))
    (fp_line (start 1.12 1.04) (end 1.12 2.578) (layer F.SilkS) (width 0.12))
    (fp_line (start 1.16 -2.576) (end 1.16 -1.04) (layer F.SilkS) (width 0.12))
    (fp_line (start 1.16 1.04) (end 1.16 2.576) (layer F.SilkS) (width 0.12))
    (fp_line (start 1.2 -2.573) (end 1.2 -1.04) (layer F.SilkS) (width 0.12))
    (fp_line (start 1.2 1.04) (end 1.2 2.573) (layer F.SilkS) (width 0.12))
    (fp_line (start 1.24 -2.569) (end 1.24 -1.04) (layer F.SilkS) (width 0.12))
    (fp_line (start 1.24 1.04) (end 1.24 2.569) (layer F.SilkS) (width 0.12))
    (fp_line (start 1.28 -2.565) (end 1.28 -1.04) (layer F.SilkS) (width 0.12))
    (fp_line (start 1.28 1.04) (end 1.28 2.565) (layer F.SilkS) (width 0.12))
    (fp_line (start 1.32 -2.561) (end 1.32 -1.04) (layer F.SilkS) (width 0.12))
    (fp_line (start 1.32 1.04) (end 1.32 2.561) (layer F.SilkS) (width 0.12))
    (fp_line (start 1.36 -2.556) (end 1.36 -1.04) (layer F.SilkS) (width 0.12))
    (fp_line (start 1.36 1.04) (end 1.36 2.556) (layer F.SilkS) (width 0.12))
    (fp_line (start 1.4 -2.55) (end 1.4 -1.04) (layer F.SilkS) (width 0.12))
    (fp_line (start 1.4 1.04) (end 1.4 2.55) (layer F.SilkS) (width 0.12))
    (fp_line (start 1.44 -2.543) (end 1.44 -1.04) (layer F.SilkS) (width 0.12))
    (fp_line (start 1.44 1.04) (end 1.44 2.543) (layer F.SilkS) (width 0.12))
    (fp_line (start 1.48 -2.536) (end 1.48 -1.04) (layer F.SilkS) (width 0.12))
    (fp_line (start 1.48 1.04) (end 1.48 2.536) (layer F.SilkS) (width 0.12))
    (fp_line (start 1.52 -2.528) (end 1.52 -1.04) (layer F.SilkS) (width 0.12))
    (fp_line (start 1.52 1.04) (end 1.52 2.528) (layer F.SilkS) (width 0.12))
    (fp_line (start 1.56 -2.52) (end 1.56 -1.04) (layer F.SilkS) (width 0.12))
    (fp_line (start 1.56 1.04) (end 1.56 2.52) (layer F.SilkS) (width 0.12))
    (fp_line (start 1.6 -2.511) (end 1.6 -1.04) (layer F.SilkS) (width 0.12))
    (fp_line (start 1.6 1.04) (end 1.6 2.511) (layer F.SilkS) (width 0.12))
    (fp_line (start 1.64 -2.501) (end 1.64 -1.04) (layer F.SilkS) (width 0.12))
    (fp_line (start 1.64 1.04) (end 1.64 2.501) (layer F.SilkS) (width 0.12))
    (fp_line (start 1.68 -2.491) (end 1.68 -1.04) (layer F.SilkS) (width 0.12))
    (fp_line (start 1.68 1.04) (end 1.68 2.491) (layer F.SilkS) (width 0.12))
    (fp_line (start 1.721 -2.48) (end 1.721 -1.04) (layer F.SilkS) (width 0.12))
    (fp_line (start 1.721 1.04) (end 1.721 2.48) (layer F.SilkS) (width 0.12))
    (fp_line (start 1.761 -2.468) (end 1.761 -1.04) (layer F.SilkS) (width 0.12))
    (fp_line (start 1.761 1.04) (end 1.761 2.468) (layer F.SilkS) (width 0.12))
    (fp_line (start 1.801 -2.455) (end 1.801 -1.04) (layer F.SilkS) (width 0.12))
    (fp_line (start 1.801 1.04) (end 1.801 2.455) (layer F.SilkS) (width 0.12))
    (fp_line (start 1.841 -2.442) (end 1.841 -1.04) (layer F.SilkS) (width 0.12))
    (fp_line (start 1.841 1.04) (end 1.841 2.442) (layer F.SilkS) (width 0.12))
    (fp_line (start 1.881 -2.428) (end 1.881 -1.04) (layer F.SilkS) (width 0.12))
    (fp_line (start 1.881 1.04) (end 1.881 2.428) (layer F.SilkS) (width 0.12))
    (fp_line (start 1.921 -2.414) (end 1.921 -1.04) (layer F.SilkS) (width 0.12))
    (fp_line (start 1.921 1.04) (end 1.921 2.414) (layer F.SilkS) (width 0.12))
    (fp_line (start 1.961 -2.398) (end 1.961 -1.04) (layer F.SilkS) (width 0.12))
    (fp_line (start 1.961 1.04) (end 1.961 2.398) (layer F.SilkS) (width 0.12))
    (fp_line (start 2.001 -2.382) (end 2.001 -1.04) (layer F.SilkS) (width 0.12))
    (fp_line (start 2.001 1.04) (end 2.001 2.382) (layer F.SilkS) (width 0.12))
    (fp_line (start 2.041 -2.365) (end 2.041 -1.04) (layer F.SilkS) (width 0.12))
    (fp_line (start 2.041 1.04) (end 2.041 2.365) (layer F.SilkS) (width 0.12))
    (fp_line (start 2.081 -2.348) (end 2.081 -1.04) (layer F.SilkS) (width 0.12))
    (fp_line (start 2.081 1.04) (end 2.081 2.348) (layer F.SilkS) (width 0.12))
    (fp_line (start 2.121 -2.329) (end 2.121 -1.04) (layer F.SilkS) (width 0.12))
    (fp_line (start 2.121 1.04) (end 2.121 2.329) (layer F.SilkS) (width 0.12))
    (fp_line (start 2.161 -2.31) (end 2.161 -1.04) (layer F.SilkS) (width 0.12))
    (fp_line (start 2.161 1.04) (end 2.161 2.31) (layer F.SilkS) (width 0.12))
    (fp_line (start 2.201 -2.29) (end 2.201 -1.04) (layer F.SilkS) (width 0.12))
    (fp_line (start 2.201 1.04) (end 2.201 2.29) (layer F.SilkS) (width 0.12))
    (fp_line (start 2.241 -2.268) (end 2.241 -1.04) (layer F.SilkS) (width 0.12))
    (fp_line (start 2.241 1.04) (end 2.241 2.268) (layer F.SilkS) (width 0.12))
    (fp_line (start 2.281 -2.247) (end 2.281 -1.04) (layer F.SilkS) (width 0.12))
    (fp_line (start 2.281 1.04) (end 2.281 2.247) (layer F.SilkS) (width 0.12))
    (fp_line (start 2.321 -2.224) (end 2.321 -1.04) (layer F.SilkS) (width 0.12))
    (fp_line (start 2.321 1.04) (end 2.321 2.224) (layer F.SilkS) (width 0.12))
    (fp_line (start 2.361 -2.2) (end 2.361 -1.04) (layer F.SilkS) (width 0.12))
    (fp_line (start 2.361 1.04) (end 2.361 2.2) (layer F.SilkS) (width 0.12))
    (fp_line (start 2.401 -2.175) (end 2.401 -1.04) (layer F.SilkS) (width 0.12))
    (fp_line (start 2.401 1.04) (end 2.401 2.175) (layer F.SilkS) (width 0.12))
    (fp_line (start 2.441 -2.149) (end 2.441 -1.04) (layer F.SilkS) (width 0.12))
    (fp_line (start 2.441 1.04) (end 2.441 2.149) (layer F.SilkS) (width 0.12))
    (fp_line (start 2.481 -2.122) (end 2.481 -1.04) (layer F.SilkS) (width 0.12))
    (fp_line (start 2.481 1.04) (end 2.481 2.122) (layer F.SilkS) (width 0.12))
    (fp_line (start 2.521 -2.095) (end 2.521 -1.04) (layer F.SilkS) (width 0.12))
    (fp_line (start 2.521 1.04) (end 2.521 2.095) (layer F.SilkS) (width 0.12))
    (fp_line (start 2.561 -2.065) (end 2.561 -1.04) (layer F.SilkS) (width 0.12))
    (fp_line (start 2.561 1.04) (end 2.561 2.065) (layer F.SilkS) (width 0.12))
    (fp_line (start 2.601 -2.035) (end 2.601 -1.04) (layer F.SilkS) (width 0.12))
    (fp_line (start 2.601 1.04) (end 2.601 2.035) (layer F.SilkS) (width 0.12))
    (fp_line (start 2.641 -2.004) (end 2.641 -1.04) (layer F.SilkS) (width 0.12))
    (fp_line (start 2.641 1.04) (end 2.641 2.004) (layer F.SilkS) (width 0.12))
    (fp_line (start 2.681 -1.971) (end 2.681 -1.04) (layer F.SilkS) (width 0.12))
    (fp_line (start 2.681 1.04) (end 2.681 1.971) (layer F.SilkS) (width 0.12))
    (fp_line (start 2.721 -1.937) (end 2.721 -1.04) (layer F.SilkS) (width 0.12))
    (fp_line (start 2.721 1.04) (end 2.721 1.937) (layer F.SilkS) (width 0.12))
    (fp_line (start 2.761 -1.901) (end 2.761 -1.04) (layer F.SilkS) (width 0.12))
    (fp_line (start 2.761 1.04) (end 2.761 1.901) (layer F.SilkS) (width 0.12))
    (fp_line (start 2.801 -1.864) (end 2.801 -1.04) (layer F.SilkS) (width 0.12))
    (fp_line (start 2.801 1.04) (end 2.801 1.864) (layer F.SilkS) (width 0.12))
    (fp_line (start 2.841 -1.826) (end 2.841 -1.04) (layer F.SilkS) (width 0.12))
    (fp_line (start 2.841 1.04) (end 2.841 1.826) (layer F.SilkS) (width 0.12))
    (fp_line (start 2.881 -1.785) (end 2.881 -1.04) (layer F.SilkS) (width 0.12))
    (fp_line (start 2.881 1.04) (end 2.881 1.785) (layer F.SilkS) (width 0.12))
    (fp_line (start 2.921 -1.743) (end 2.921 -1.04) (layer F.SilkS) (width 0.12))
    (fp_line (start 2.921 1.04) (end 2.921 1.743) (layer F.SilkS) (width 0.12))
    (fp_line (start 2.961 -1.699) (end 2.961 -1.04) (layer F.SilkS) (width 0.12))
    (fp_line (start 2.961 1.04) (end 2.961 1.699) (layer F.SilkS) (width 0.12))
    (fp_line (start 3.001 -1.653) (end 3.001 -1.04) (layer F.SilkS) (width 0.12))
    (fp_line (start 3.001 1.04) (end 3.001 1.653) (layer F.SilkS) (width 0.12))
    (fp_line (start 3.041 -1.605) (end 3.041 1.605) (layer F.SilkS) (width 0.12))
    (fp_line (start 3.081 -1.554) (end 3.081 1.554) (layer F.SilkS) (width 0.12))
    (fp_line (start 3.121 -1.5) (end 3.121 1.5) (layer F.SilkS) (width 0.12))
    (fp_line (start 3.161 -1.443) (end 3.161 1.443) (layer F.SilkS) (width 0.12))
    (fp_line (start 3.201 -1.383) (end 3.201 1.383) (layer F.SilkS) (width 0.12))
    (fp_line (start 3.241 -1.319) (end 3.241 1.319) (layer F.SilkS) (width 0.12))
    (fp_line (start 3.281 -1.251) (end 3.281 1.251) (layer F.SilkS) (width 0.12))
    (fp_line (start 3.321 -1.178) (end 3.321 1.178) (layer F.SilkS) (width 0.12))
    (fp_line (start 3.361 -1.098) (end 3.361 1.098) (layer F.SilkS) (width 0.12))
    (fp_line (start 3.401 -1.011) (end 3.401 1.011) (layer F.SilkS) (width 0.12))
    (fp_line (start 3.441 -0.915) (end 3.441 0.915) (layer F.SilkS) (width 0.12))
    (fp_line (start 3.481 -0.805) (end 3.481 0.805) (layer F.SilkS) (width 0.12))
    (fp_line (start 3.521 -0.677) (end 3.521 0.677) (layer F.SilkS) (width 0.12))
    (fp_line (start 3.561 -0.518) (end 3.561 0.518) (layer F.SilkS) (width 0.12))
    (fp_line (start 3.601 -0.284) (end 3.601 0.284) (layer F.SilkS) (width 0.12))
    (fp_line (start -1.804775 -1.475) (end -1.304775 -1.475) (layer F.SilkS) (width 0.12))
    (fp_line (start -1.554775 -1.725) (end -1.554775 -1.225) (layer F.SilkS) (width 0.12))
    (fp_text user %R (at 5.2 -0.3 180) (layer F.Fab)
      (effects (font (size 1.8 1.5) (thickness 0.3)))
    )
    (pad 2 thru_hole circle (at 2 0 90) (size 1.6 1.6) (drill 0.8) (layers *.Cu *.Mask)
      (net 5 "Net-(C3-Pad2)"))
    (pad 1 thru_hole rect (at 0 0 90) (size 1.6 1.6) (drill 0.8) (layers *.Cu *.Mask)
      (net 6 "Net-(C3-Pad1)"))
    (model ${KISYS3DMOD}/Capacitor_THT.3dshapes/CP_Radial_D5.0mm_P2.00mm.wrl
      (at (xyz 0 0 0))
      (scale (xyz 1 1 1))
      (rotate (xyz 0 0 0))
    )
  )

  (module Capacitor_THT:C_Disc_D5.0mm_W2.5mm_P5.00mm (layer F.Cu) (tedit 5AE50EF0) (tstamp 60A44990)
    (at 125.6 80.7)
    (descr "C, Disc series, Radial, pin pitch=5.00mm, , diameter*width=5*2.5mm^2, Capacitor, http://cdn-reichelt.de/documents/datenblatt/B300/DS_KERKO_TC.pdf")
    (tags "C Disc series Radial pin pitch 5.00mm  diameter 5mm width 2.5mm Capacitor")
    (path /609AB839)
    (fp_text reference C2 (at 2.5 0) (layer F.SilkS)
      (effects (font (size 1.8 1.5) (thickness 0.3)))
    )
    (fp_text value 0.1u (at 8.5 0) (layer F.Fab)
      (effects (font (size 1.8 1.5) (thickness 0.3)))
    )
    (fp_line (start 0 -1.25) (end 0 1.25) (layer F.Fab) (width 0.1))
    (fp_line (start 0 1.25) (end 5 1.25) (layer F.Fab) (width 0.1))
    (fp_line (start 5 1.25) (end 5 -1.25) (layer F.Fab) (width 0.1))
    (fp_line (start 5 -1.25) (end 0 -1.25) (layer F.Fab) (width 0.1))
    (fp_line (start -0.12 -1.37) (end 5.12 -1.37) (layer F.SilkS) (width 0.12))
    (fp_line (start -0.12 1.37) (end 5.12 1.37) (layer F.SilkS) (width 0.12))
    (fp_line (start -0.12 -1.37) (end -0.12 -1.055) (layer F.SilkS) (width 0.12))
    (fp_line (start -0.12 1.055) (end -0.12 1.37) (layer F.SilkS) (width 0.12))
    (fp_line (start 5.12 -1.37) (end 5.12 -1.055) (layer F.SilkS) (width 0.12))
    (fp_line (start 5.12 1.055) (end 5.12 1.37) (layer F.SilkS) (width 0.12))
    (fp_line (start -1.05 -1.5) (end -1.05 1.5) (layer F.CrtYd) (width 0.05))
    (fp_line (start -1.05 1.5) (end 6.05 1.5) (layer F.CrtYd) (width 0.05))
    (fp_line (start 6.05 1.5) (end 6.05 -1.5) (layer F.CrtYd) (width 0.05))
    (fp_line (start 6.05 -1.5) (end -1.05 -1.5) (layer F.CrtYd) (width 0.05))
    (fp_text user %R (at 2.5 0) (layer F.Fab)
      (effects (font (size 1.8 1.5) (thickness 0.3)))
    )
    (pad 2 thru_hole circle (at 5 0) (size 1.6 1.6) (drill 0.8) (layers *.Cu *.Mask)
      (net 1 GND))
    (pad 1 thru_hole circle (at 0 0) (size 1.6 1.6) (drill 0.8) (layers *.Cu *.Mask)
      (net 4 "Net-(C2-Pad1)"))
    (model ${KISYS3DMOD}/Capacitor_THT.3dshapes/C_Disc_D5.0mm_W2.5mm_P5.00mm.wrl
      (at (xyz 0 0 0))
      (scale (xyz 1 1 1))
      (rotate (xyz 0 0 0))
    )
  )

  (module Capacitor_THT:C_Disc_D5.0mm_W2.5mm_P5.00mm (layer F.Cu) (tedit 5AE50EF0) (tstamp 60A44960)
    (at 138.3 96.7)
    (descr "C, Disc series, Radial, pin pitch=5.00mm, , diameter*width=5*2.5mm^2, Capacitor, http://cdn-reichelt.de/documents/datenblatt/B300/DS_KERKO_TC.pdf")
    (tags "C Disc series Radial pin pitch 5.00mm  diameter 5mm width 2.5mm Capacitor")
    (path /609AA638)
    (fp_text reference C1 (at 2.5 0) (layer F.SilkS)
      (effects (font (size 1.8 1.5) (thickness 0.3)))
    )
    (fp_text value 0.01u (at 2.5 -2.6) (layer F.Fab)
      (effects (font (size 1.8 1.5) (thickness 0.3)))
    )
    (fp_line (start 0 -1.25) (end 0 1.25) (layer F.Fab) (width 0.1))
    (fp_line (start 0 1.25) (end 5 1.25) (layer F.Fab) (width 0.1))
    (fp_line (start 5 1.25) (end 5 -1.25) (layer F.Fab) (width 0.1))
    (fp_line (start 5 -1.25) (end 0 -1.25) (layer F.Fab) (width 0.1))
    (fp_line (start -0.12 -1.37) (end 5.12 -1.37) (layer F.SilkS) (width 0.12))
    (fp_line (start -0.12 1.37) (end 5.12 1.37) (layer F.SilkS) (width 0.12))
    (fp_line (start -0.12 -1.37) (end -0.12 -1.055) (layer F.SilkS) (width 0.12))
    (fp_line (start -0.12 1.055) (end -0.12 1.37) (layer F.SilkS) (width 0.12))
    (fp_line (start 5.12 -1.37) (end 5.12 -1.055) (layer F.SilkS) (width 0.12))
    (fp_line (start 5.12 1.055) (end 5.12 1.37) (layer F.SilkS) (width 0.12))
    (fp_line (start -1.05 -1.5) (end -1.05 1.5) (layer F.CrtYd) (width 0.05))
    (fp_line (start -1.05 1.5) (end 6.05 1.5) (layer F.CrtYd) (width 0.05))
    (fp_line (start 6.05 1.5) (end 6.05 -1.5) (layer F.CrtYd) (width 0.05))
    (fp_line (start 6.05 -1.5) (end -1.05 -1.5) (layer F.CrtYd) (width 0.05))
    (fp_text user %R (at 2.5 0) (layer F.Fab)
      (effects (font (size 1.8 1.5) (thickness 0.3)))
    )
    (pad 2 thru_hole circle (at 5 0) (size 1.6 1.6) (drill 0.8) (layers *.Cu *.Mask)
      (net 1 GND))
    (pad 1 thru_hole circle (at 0 0) (size 1.6 1.6) (drill 0.8) (layers *.Cu *.Mask)
      (net 3 "Net-(C1-Pad1)"))
    (model ${KISYS3DMOD}/Capacitor_THT.3dshapes/C_Disc_D5.0mm_W2.5mm_P5.00mm.wrl
      (at (xyz 0 0 0))
      (scale (xyz 1 1 1))
      (rotate (xyz 0 0 0))
    )
  )

  (gr_line (start 151 69) (end 151 109) (layer Edge.Cuts) (width 0.1))
  (gr_line (start 111 69) (end 151 69) (layer Edge.Cuts) (width 0.1))
  (gr_line (start 111 109) (end 111 69) (layer Edge.Cuts) (width 0.1) (tstamp 60A4480D))
  (gr_line (start 151 109) (end 111 109) (layer Edge.Cuts) (width 0.1))
  (dimension 40 (width 0.15) (layer Dwgs.User)
    (gr_text "40.000 mm" (at 131 60.7) (layer Dwgs.User)
      (effects (font (size 1 1) (thickness 0.15)))
    )
    (feature1 (pts (xy 151 69) (xy 151 61.413579)))
    (feature2 (pts (xy 111 69) (xy 111 61.413579)))
    (crossbar (pts (xy 111 62) (xy 151 62)))
    (arrow1a (pts (xy 151 62) (xy 149.873496 62.586421)))
    (arrow1b (pts (xy 151 62) (xy 149.873496 61.413579)))
    (arrow2a (pts (xy 111 62) (xy 112.126504 62.586421)))
    (arrow2b (pts (xy 111 62) (xy 112.126504 61.413579)))
  )
  (dimension 40 (width 0.15) (layer Dwgs.User) (tstamp 60A44808)
    (gr_text "40.000 mm" (at 102.7 89 270) (layer Dwgs.User) (tstamp 60A44808)
      (effects (font (size 1 1) (thickness 0.15)))
    )
    (feature1 (pts (xy 111 109) (xy 103.413579 109)))
    (feature2 (pts (xy 111 69) (xy 103.413579 69)))
    (crossbar (pts (xy 104 69) (xy 104 109)))
    (arrow1a (pts (xy 104 109) (xy 103.413579 107.873496)))
    (arrow1b (pts (xy 104 109) (xy 104.586421 107.873496)))
    (arrow2a (pts (xy 104 69) (xy 103.413579 70.126504)))
    (arrow2b (pts (xy 104 69) (xy 104.586421 70.126504)))
  )

  (segment (start 134.2 103.9) (end 134.2 105) (width 0.635) (layer B.Cu) (net 2))
  (segment (start 134.2 105) (end 132.9 106.3) (width 0.635) (layer B.Cu) (net 2))
  (segment (start 132.9 106.3) (end 128.5 106.3) (width 0.635) (layer B.Cu) (net 2))
  (segment (start 127.3 105.1) (end 127.3 103.9) (width 0.635) (layer B.Cu) (net 2))
  (segment (start 128.5 106.3) (end 127.3 105.1) (width 0.635) (layer B.Cu) (net 2))
  (segment (start 139.6 95.4) (end 138.3 96.7) (width 0.635) (layer B.Cu) (net 3))
  (segment (start 139.6 92.3) (end 139.6 95.4) (width 0.635) (layer B.Cu) (net 3))
  (segment (start 129.44 92.3) (end 129.44 94.04) (width 0.635) (layer B.Cu) (net 3))
  (segment (start 132.6 97.2) (end 134.6 97.2) (width 0.635) (layer B.Cu) (net 3))
  (segment (start 129.44 94.04) (end 132.6 97.2) (width 0.635) (layer B.Cu) (net 3))
  (segment (start 137.8 97.2) (end 138.3 96.7) (width 0.635) (layer B.Cu) (net 3))
  (segment (start 134.6 97.2) (end 137.8 97.2) (width 0.635) (layer B.Cu) (net 3))
  (segment (start 129.44 84.68) (end 131.98 84.68) (width 0.762) (layer B.Cu) (net 4))
  (segment (start 129.44 84.68) (end 129.44 83.44) (width 0.635) (layer B.Cu) (net 4))
  (segment (start 126.7 80.7) (end 125.6 80.7) (width 0.635) (layer B.Cu) (net 4))
  (segment (start 129.44 83.44) (end 126.7 80.7) (width 0.635) (layer B.Cu) (net 4))
  (segment (start 125.6 80.7) (end 123.8 80.7) (width 0.635) (layer B.Cu) (net 4))
  (segment (start 118.9 85.6) (end 118.7 85.6) (width 0.635) (layer B.Cu) (net 4))
  (segment (start 123.8 80.7) (end 118.9 85.6) (width 0.635) (layer B.Cu) (net 4))
  (segment (start 139.16 73.1) (end 141.3 73.1) (width 0.6) (layer B.Cu) (net 5))
  (segment (start 142.7 74.5) (end 142.7 77.3) (width 0.6) (layer B.Cu) (net 5))
  (segment (start 141.3 73.1) (end 142.7 74.5) (width 0.6) (layer B.Cu) (net 5))
  (segment (start 139.16 73.1) (end 136.36 73.1) (width 0.6) (layer B.Cu) (net 5))
  (segment (start 139.6 82.4) (end 142.7 79.3) (width 0.762) (layer B.Cu) (net 6))
  (segment (start 139.6 84.68) (end 139.6 82.4) (width 0.762) (layer B.Cu) (net 6))
  (segment (start 118.8 99.58) (end 118.8 97.04) (width 0.6) (layer B.Cu) (net 7))
  (segment (start 118.8 97.04) (end 117.24 97.04) (width 0.635) (layer B.Cu) (net 7))
  (segment (start 117.24 97.04) (end 116 95.8) (width 0.635) (layer B.Cu) (net 7))
  (segment (start 116 95.8) (end 116 92.2) (width 0.635) (layer B.Cu) (net 7))
  (segment (start 117.52 90.68) (end 118.7 90.68) (width 0.635) (layer B.Cu) (net 7))
  (segment (start 116 92.2) (end 117.52 90.68) (width 0.635) (layer B.Cu) (net 7))
  (segment (start 118.7 90.68) (end 118.7 88.14) (width 0.635) (layer B.Cu) (net 7))
  (segment (start 118.8 99.58) (end 118.8 100.7) (width 0.635) (layer B.Cu) (net 7))
  (segment (start 122 103.9) (end 124.76 103.9) (width 0.635) (layer B.Cu) (net 7))
  (segment (start 118.8 100.7) (end 122 103.9) (width 0.635) (layer B.Cu) (net 7))
  (segment (start 124.76 103.9) (end 124.76 102.44) (width 0.635) (layer B.Cu) (net 7))
  (segment (start 124.76 102.44) (end 126.4 100.8) (width 0.635) (layer B.Cu) (net 7))
  (segment (start 126.4 100.8) (end 136.6 100.8) (width 0.635) (layer B.Cu) (net 7))
  (segment (start 138.46 102.66) (end 138.46 103.8) (width 0.635) (layer B.Cu) (net 7))
  (segment (start 136.6 100.8) (end 138.46 102.66) (width 0.635) (layer B.Cu) (net 7))
  (segment (start 137.06 87.04) (end 137.06 84.68) (width 0.635) (layer B.Cu) (net 7))
  (segment (start 135.96 88.14) (end 137.06 87.04) (width 0.635) (layer B.Cu) (net 7))
  (segment (start 134.52 89.58) (end 135.96 88.14) (width 0.635) (layer B.Cu) (net 7))
  (segment (start 134.52 92.3) (end 134.52 89.58) (width 0.635) (layer B.Cu) (net 7))
  (segment (start 118.7 88.14) (end 125.34 88.14) (width 0.635) (layer B.Cu) (net 7))
  (segment (start 125.34 88.14) (end 135.96 88.14) (width 0.635) (layer B.Cu) (net 7))
  (segment (start 126.9 86.58) (end 125.34 88.14) (width 0.635) (layer B.Cu) (net 7))
  (segment (start 126.9 84.68) (end 126.9 86.58) (width 0.635) (layer B.Cu) (net 7))
  (segment (start 147.5 97.3) (end 141 103.8) (width 0.635) (layer B.Cu) (net 8))
  (segment (start 147.5 93.86) (end 147.5 97.3) (width 0.635) (layer B.Cu) (net 8))
  (segment (start 118.7 78.46) (end 120.06 77.1) (width 0.635) (layer B.Cu) (net 9))
  (segment (start 120.06 77.1) (end 120.1 77.1) (width 0.635) (layer B.Cu) (net 9))
  (segment (start 120.4 76.8) (end 126.2 76.8) (width 0.635) (layer B.Cu) (net 9))
  (segment (start 120.1 77.1) (end 120.4 76.8) (width 0.635) (layer B.Cu) (net 9))
  (segment (start 126.2 76.8) (end 126.2 73.1) (width 0.635) (layer B.Cu) (net 9))
  (segment (start 118.8 94.5) (end 120.6 94.5) (width 0.635) (layer B.Cu) (net 10))
  (segment (start 122.8 92.3) (end 126.9 92.3) (width 0.635) (layer B.Cu) (net 10))
  (segment (start 120.6 94.5) (end 122.8 92.3) (width 0.635) (layer B.Cu) (net 10))
  (segment (start 126.9 94.74) (end 124.44 97.2) (width 0.635) (layer B.Cu) (net 10))
  (segment (start 126.9 92.3) (end 126.9 94.74) (width 0.635) (layer B.Cu) (net 10))
  (segment (start 137.06 92.3) (end 137.06 91.54) (width 0.635) (layer B.Cu) (net 12))
  (segment (start 142.14 86.46) (end 142.14 84.68) (width 0.635) (layer B.Cu) (net 12))
  (segment (start 137.06 91.54) (end 142.14 86.46) (width 0.635) (layer B.Cu) (net 12))

  (zone (net 1) (net_name GND) (layer B.Cu) (tstamp 60C7E7C5) (hatch edge 0.508)
    (connect_pads (clearance 0.508))
    (min_thickness 0.254)
    (fill yes (arc_segments 32) (thermal_gap 0.508) (thermal_bridge_width 0.508))
    (polygon
      (pts
        (xy 151 109) (xy 111 109) (xy 111 69) (xy 151 69)
      )
    )
    (filled_polygon
      (pts
        (xy 145.093024 69.978442) (xy 144.711633 70.549234) (xy 144.448927 71.183463) (xy 144.315 71.856758) (xy 144.315 72.543242)
        (xy 144.448927 73.216537) (xy 144.711633 73.850766) (xy 145.093024 74.421558) (xy 145.578442 74.906976) (xy 146.149234 75.288367)
        (xy 146.783463 75.551073) (xy 147.456758 75.685) (xy 148.143242 75.685) (xy 148.816537 75.551073) (xy 149.450766 75.288367)
        (xy 150.021558 74.906976) (xy 150.315 74.613534) (xy 150.315001 103.386467) (xy 150.021558 103.093024) (xy 149.450766 102.711633)
        (xy 148.816537 102.448927) (xy 148.143242 102.315) (xy 147.456758 102.315) (xy 146.783463 102.448927) (xy 146.149234 102.711633)
        (xy 145.578442 103.093024) (xy 145.093024 103.578442) (xy 144.711633 104.149234) (xy 144.448927 104.783463) (xy 144.315 105.456758)
        (xy 144.315 106.143242) (xy 144.448927 106.816537) (xy 144.711633 107.450766) (xy 145.093024 108.021558) (xy 145.386466 108.315)
        (xy 116.613534 108.315) (xy 116.906976 108.021558) (xy 117.288367 107.450766) (xy 117.551073 106.816537) (xy 117.685 106.143242)
        (xy 117.685 105.456758) (xy 117.551073 104.783463) (xy 117.288367 104.149234) (xy 116.906976 103.578442) (xy 116.421558 103.093024)
        (xy 115.850766 102.711633) (xy 115.216537 102.448927) (xy 114.543242 102.315) (xy 113.856758 102.315) (xy 113.183463 102.448927)
        (xy 112.549234 102.711633) (xy 111.978442 103.093024) (xy 111.685 103.386466) (xy 111.685 92.2) (xy 115.042892 92.2)
        (xy 115.047501 92.246794) (xy 115.0475 95.753215) (xy 115.042892 95.8) (xy 115.060938 95.983224) (xy 115.061283 95.986722)
        (xy 115.115748 96.166268) (xy 115.204194 96.331741) (xy 115.323222 96.476778) (xy 115.359569 96.506607) (xy 116.533397 97.680436)
        (xy 116.563222 97.716778) (xy 116.708259 97.835806) (xy 116.784911 97.876777) (xy 116.87373 97.924252) (xy 117.053277 97.978717)
        (xy 117.24 97.997108) (xy 117.286785 97.9925) (xy 117.409763 97.9925) (xy 117.505655 98.109345) (xy 117.571114 98.163066)
        (xy 117.461613 98.221595) (xy 117.327038 98.332038) (xy 117.216595 98.466613) (xy 117.134528 98.620149) (xy 117.083992 98.786745)
        (xy 117.066928 98.959999) (xy 117.066928 100.200001) (xy 117.083992 100.373255) (xy 117.134528 100.539851) (xy 117.216595 100.693387)
        (xy 117.327038 100.827962) (xy 117.461613 100.938405) (xy 117.615149 101.020472) (xy 117.781745 101.071008) (xy 117.925869 101.085203)
        (xy 117.9692 101.166269) (xy 118.004195 101.231741) (xy 118.123223 101.376778) (xy 118.159565 101.406603) (xy 121.293393 104.540431)
        (xy 121.323222 104.576778) (xy 121.468259 104.695806) (xy 121.633731 104.784252) (xy 121.784403 104.829958) (xy 121.813277 104.838717)
        (xy 121.999999 104.857108) (xy 122.046784 104.8525) (xy 123.442356 104.8525) (xy 123.502583 104.965178) (xy 123.690655 105.194345)
        (xy 123.919821 105.382417) (xy 124.181275 105.522166) (xy 124.464968 105.608224) (xy 124.76 105.637282) (xy 125.055031 105.608224)
        (xy 125.338724 105.522166) (xy 125.600178 105.382417) (xy 125.829345 105.194345) (xy 125.883066 105.128886) (xy 125.941595 105.238387)
        (xy 126.052038 105.372962) (xy 126.186613 105.483405) (xy 126.340149 105.565472) (xy 126.493664 105.61204) (xy 126.504194 105.631741)
        (xy 126.623222 105.776778) (xy 126.659569 105.806607) (xy 127.793397 106.940436) (xy 127.823222 106.976778) (xy 127.968259 107.095806)
        (xy 128.133731 107.184252) (xy 128.313277 107.238717) (xy 128.499999 107.257108) (xy 128.546784 107.2525) (xy 132.853215 107.2525)
        (xy 132.9 107.257108) (xy 132.946785 107.2525) (xy 133.086723 107.238717) (xy 133.266269 107.184252) (xy 133.431741 107.095806)
        (xy 133.576778 106.976778) (xy 133.606607 106.940431) (xy 134.840431 105.706607) (xy 134.876778 105.676778) (xy 134.920793 105.623145)
        (xy 134.993255 105.616008) (xy 135.159851 105.565472) (xy 135.313387 105.483405) (xy 135.447962 105.372962) (xy 135.558405 105.238387)
        (xy 135.640472 105.084851) (xy 135.691008 104.918255) (xy 135.708072 104.745001) (xy 135.708072 103.054999) (xy 135.691008 102.881745)
        (xy 135.640472 102.715149) (xy 135.558405 102.561613) (xy 135.447962 102.427038) (xy 135.313387 102.316595) (xy 135.159851 102.234528)
        (xy 134.993255 102.183992) (xy 134.820001 102.166928) (xy 133.579999 102.166928) (xy 133.406745 102.183992) (xy 133.240149 102.234528)
        (xy 133.086613 102.316595) (xy 132.952038 102.427038) (xy 132.841595 102.561613) (xy 132.783345 102.67059) (xy 132.626326 102.511694)
        (xy 132.380809 102.345526) (xy 132.107591 102.230449) (xy 132.020031 102.213698) (xy 131.787 102.334754) (xy 131.787 103.773)
        (xy 131.807 103.773) (xy 131.807 104.027) (xy 131.787 104.027) (xy 131.787 104.047) (xy 131.533 104.047)
        (xy 131.533 104.027) (xy 130.309624 104.027) (xy 130.154123 104.264286) (xy 130.210231 104.555392) (xy 130.322053 104.829958)
        (xy 130.485292 105.077433) (xy 130.693674 105.288306) (xy 130.781134 105.3475) (xy 128.894539 105.3475) (xy 128.70265 105.155611)
        (xy 128.740472 105.084851) (xy 128.791008 104.918255) (xy 128.808072 104.745001) (xy 128.808072 103.535714) (xy 130.154123 103.535714)
        (xy 130.309624 103.773) (xy 131.533 103.773) (xy 131.533 102.334754) (xy 131.299969 102.213698) (xy 131.212409 102.230449)
        (xy 130.939191 102.345526) (xy 130.693674 102.511694) (xy 130.485292 102.722567) (xy 130.322053 102.970042) (xy 130.210231 103.244608)
        (xy 130.154123 103.535714) (xy 128.808072 103.535714) (xy 128.808072 103.054999) (xy 128.791008 102.881745) (xy 128.740472 102.715149)
        (xy 128.658405 102.561613) (xy 128.547962 102.427038) (xy 128.413387 102.316595) (xy 128.259851 102.234528) (xy 128.093255 102.183992)
        (xy 127.920001 102.166928) (xy 126.679999 102.166928) (xy 126.506745 102.183992) (xy 126.340149 102.234528) (xy 126.280774 102.266265)
        (xy 126.794539 101.7525) (xy 136.205462 101.7525) (xy 137.197428 102.744466) (xy 137.062834 102.996275) (xy 136.976776 103.279968)
        (xy 136.955 103.501064) (xy 136.955 104.098935) (xy 136.976776 104.320031) (xy 137.062834 104.603724) (xy 137.202583 104.865178)
        (xy 137.390655 105.094345) (xy 137.619821 105.282417) (xy 137.881275 105.422166) (xy 138.164968 105.508224) (xy 138.46 105.537282)
        (xy 138.755031 105.508224) (xy 139.038724 105.422166) (xy 139.300178 105.282417) (xy 139.529345 105.094345) (xy 139.583066 105.028886)
        (xy 139.641595 105.138387) (xy 139.752038 105.272962) (xy 139.886613 105.383405) (xy 140.040149 105.465472) (xy 140.206745 105.516008)
        (xy 140.379999 105.533072) (xy 141.620001 105.533072) (xy 141.793255 105.516008) (xy 141.959851 105.465472) (xy 142.113387 105.383405)
        (xy 142.247962 105.272962) (xy 142.358405 105.138387) (xy 142.440472 104.984851) (xy 142.491008 104.818255) (xy 142.508072 104.645001)
        (xy 142.508072 103.638966) (xy 148.140436 98.006603) (xy 148.176778 97.976778) (xy 148.295806 97.831741) (xy 148.384252 97.666269)
        (xy 148.438717 97.486723) (xy 148.448566 97.386723) (xy 148.457108 97.300001) (xy 148.4525 97.253216) (xy 148.4525 94.936896)
        (xy 148.614637 94.774759) (xy 148.77168 94.539727) (xy 148.879853 94.278574) (xy 148.935 94.001335) (xy 148.935 93.718665)
        (xy 148.879853 93.441426) (xy 148.77168 93.180273) (xy 148.614637 92.945241) (xy 148.414759 92.745363) (xy 148.179727 92.58832)
        (xy 147.918574 92.480147) (xy 147.641335 92.425) (xy 147.358665 92.425) (xy 147.081426 92.480147) (xy 146.820273 92.58832)
        (xy 146.585241 92.745363) (xy 146.385363 92.945241) (xy 146.22832 93.180273) (xy 146.120147 93.441426) (xy 146.065 93.718665)
        (xy 146.065 94.001335) (xy 146.120147 94.278574) (xy 146.22832 94.539727) (xy 146.385363 94.774759) (xy 146.5475 94.936896)
        (xy 146.547501 96.90546) (xy 141.386034 102.066928) (xy 140.379999 102.066928) (xy 140.206745 102.083992) (xy 140.040149 102.134528)
        (xy 139.886613 102.216595) (xy 139.752038 102.327038) (xy 139.641595 102.461613) (xy 139.583066 102.571114) (xy 139.529345 102.505655)
        (xy 139.368495 102.373648) (xy 139.344252 102.293731) (xy 139.255806 102.128259) (xy 139.136778 101.983222) (xy 139.100436 101.953397)
        (xy 137.306607 100.159569) (xy 137.276778 100.123222) (xy 137.131741 100.004194) (xy 136.966269 99.915748) (xy 136.786723 99.861283)
        (xy 136.646785 99.8475) (xy 136.6 99.842892) (xy 136.553215 99.8475) (xy 126.446784 99.8475) (xy 126.399999 99.842892)
        (xy 126.213277 99.861283) (xy 126.033731 99.915748) (xy 125.868259 100.004194) (xy 125.723222 100.123222) (xy 125.693397 100.159564)
        (xy 124.119564 101.733398) (xy 124.083223 101.763222) (xy 124.053399 101.799563) (xy 123.964194 101.90826) (xy 123.875749 102.073731)
        (xy 123.821283 102.253278) (xy 123.802892 102.44) (xy 123.807501 102.486794) (xy 123.807501 102.509762) (xy 123.690655 102.605655)
        (xy 123.502583 102.834821) (xy 123.442355 102.9475) (xy 122.394538 102.9475) (xy 120.273881 100.826843) (xy 120.383405 100.693387)
        (xy 120.465472 100.539851) (xy 120.516008 100.373255) (xy 120.533072 100.200001) (xy 120.533072 98.959999) (xy 120.516008 98.786745)
        (xy 120.465472 98.620149) (xy 120.383405 98.466613) (xy 120.272962 98.332038) (xy 120.138387 98.221595) (xy 120.028886 98.163066)
        (xy 120.094345 98.109345) (xy 120.282417 97.880179) (xy 120.422166 97.618725) (xy 120.508224 97.335032) (xy 120.537282 97.04)
        (xy 120.508224 96.744968) (xy 120.422166 96.461275) (xy 120.282417 96.199821) (xy 120.094345 95.970655) (xy 119.865179 95.782583)
        (xy 119.841638 95.77) (xy 119.865179 95.757417) (xy 120.094345 95.569345) (xy 120.190237 95.4525) (xy 120.553215 95.4525)
        (xy 120.6 95.457108) (xy 120.646785 95.4525) (xy 120.786723 95.438717) (xy 120.966269 95.384252) (xy 121.131741 95.295806)
        (xy 121.276778 95.176778) (xy 121.306607 95.140431) (xy 123.194539 93.2525) (xy 125.461928 93.2525) (xy 125.461928 93.5)
        (xy 125.474188 93.624482) (xy 125.510498 93.74418) (xy 125.569463 93.854494) (xy 125.648815 93.951185) (xy 125.745506 94.030537)
        (xy 125.85582 94.089502) (xy 125.947501 94.117313) (xy 125.947501 94.345461) (xy 124.527962 95.765) (xy 124.298665 95.765)
        (xy 124.021426 95.820147) (xy 123.760273 95.92832) (xy 123.525241 96.085363) (xy 123.325363 96.285241) (xy 123.16832 96.520273)
        (xy 123.060147 96.781426) (xy 123.005 97.058665) (xy 123.005 97.341335) (xy 123.060147 97.618574) (xy 123.16832 97.879727)
        (xy 123.325363 98.114759) (xy 123.525241 98.314637) (xy 123.760273 98.47168) (xy 124.021426 98.579853) (xy 124.298665 98.635)
        (xy 124.581335 98.635) (xy 124.858574 98.579853) (xy 125.119727 98.47168) (xy 125.354759 98.314637) (xy 125.554637 98.114759)
        (xy 125.71168 97.879727) (xy 125.819853 97.618574) (xy 125.875 97.341335) (xy 125.875 97.112038) (xy 127.540431 95.446607)
        (xy 127.576778 95.416778) (xy 127.695806 95.271741) (xy 127.784252 95.106269) (xy 127.838717 94.926723) (xy 127.8525 94.786785)
        (xy 127.857108 94.740001) (xy 127.8525 94.693216) (xy 127.8525 94.117313) (xy 127.94418 94.089502) (xy 128.054494 94.030537)
        (xy 128.151185 93.951185) (xy 128.230537 93.854494) (xy 128.289502 93.74418) (xy 128.325812 93.624482) (xy 128.327581 93.606517)
        (xy 128.420393 93.719608) (xy 128.487501 93.774682) (xy 128.487501 93.993206) (xy 128.482892 94.04) (xy 128.501283 94.226722)
        (xy 128.52754 94.313277) (xy 128.555749 94.406269) (xy 128.644195 94.571741) (xy 128.763223 94.716778) (xy 128.799564 94.746602)
        (xy 131.893397 97.840436) (xy 131.923222 97.876778) (xy 132.068259 97.995806) (xy 132.233731 98.084252) (xy 132.372344 98.1263)
        (xy 132.413277 98.138717) (xy 132.6 98.157108) (xy 132.646785 98.1525) (xy 133.523104 98.1525) (xy 133.685241 98.314637)
        (xy 133.920273 98.47168) (xy 134.181426 98.579853) (xy 134.458665 98.635) (xy 134.741335 98.635) (xy 135.018574 98.579853)
        (xy 135.279727 98.47168) (xy 135.514759 98.314637) (xy 135.676896 98.1525) (xy 137.753215 98.1525) (xy 137.8 98.157108)
        (xy 137.846785 98.1525) (xy 137.986723 98.138717) (xy 138.062219 98.115815) (xy 138.158665 98.135) (xy 138.441335 98.135)
        (xy 138.718574 98.079853) (xy 138.979727 97.97168) (xy 139.214759 97.814637) (xy 139.336694 97.692702) (xy 142.486903 97.692702)
        (xy 142.558486 97.936671) (xy 142.813996 98.057571) (xy 143.088184 98.1263) (xy 143.370512 98.140217) (xy 143.65013 98.098787)
        (xy 143.916292 98.003603) (xy 144.041514 97.936671) (xy 144.113097 97.692702) (xy 143.3 96.879605) (xy 142.486903 97.692702)
        (xy 139.336694 97.692702) (xy 139.414637 97.614759) (xy 139.57168 97.379727) (xy 139.679853 97.118574) (xy 139.735 96.841335)
        (xy 139.735 96.770512) (xy 141.859783 96.770512) (xy 141.901213 97.05013) (xy 141.996397 97.316292) (xy 142.063329 97.441514)
        (xy 142.307298 97.513097) (xy 143.120395 96.7) (xy 143.479605 96.7) (xy 144.292702 97.513097) (xy 144.536671 97.441514)
        (xy 144.657571 97.186004) (xy 144.7263 96.911816) (xy 144.740217 96.629488) (xy 144.698787 96.34987) (xy 144.603603 96.083708)
        (xy 144.536671 95.958486) (xy 144.292702 95.886903) (xy 143.479605 96.7) (xy 143.120395 96.7) (xy 142.307298 95.886903)
        (xy 142.063329 95.958486) (xy 141.942429 96.213996) (xy 141.8737 96.488184) (xy 141.859783 96.770512) (xy 139.735 96.770512)
        (xy 139.735 96.612038) (xy 140.240431 96.106607) (xy 140.276778 96.076778) (xy 140.395806 95.931741) (xy 140.466223 95.8)
        (xy 140.484252 95.76627) (xy 140.502141 95.707298) (xy 142.486903 95.707298) (xy 143.3 96.520395) (xy 144.113097 95.707298)
        (xy 144.041514 95.463329) (xy 143.786004 95.342429) (xy 143.511816 95.2737) (xy 143.229488 95.259783) (xy 142.94987 95.301213)
        (xy 142.683708 95.396397) (xy 142.558486 95.463329) (xy 142.486903 95.707298) (xy 140.502141 95.707298) (xy 140.521696 95.642834)
        (xy 140.538717 95.586723) (xy 140.5525 95.446785) (xy 140.557108 95.4) (xy 140.5525 95.353215) (xy 140.5525 93.774682)
        (xy 140.619608 93.719608) (xy 140.798932 93.501101) (xy 140.867265 93.373259) (xy 141.017399 93.602839) (xy 141.215105 93.8045)
        (xy 141.448354 93.963715) (xy 141.708182 94.074367) (xy 141.790961 94.091904) (xy 142.013 93.969915) (xy 142.013 92.427)
        (xy 142.267 92.427) (xy 142.267 93.969915) (xy 142.489039 94.091904) (xy 142.571818 94.074367) (xy 142.831646 93.963715)
        (xy 143.064895 93.8045) (xy 143.262601 93.602839) (xy 143.417166 93.366483) (xy 143.52265 93.104514) (xy 143.575 92.827)
        (xy 143.575 92.427) (xy 142.267 92.427) (xy 142.013 92.427) (xy 141.993 92.427) (xy 141.993 92.173)
        (xy 142.013 92.173) (xy 142.013 90.630085) (xy 142.267 90.630085) (xy 142.267 92.173) (xy 143.575 92.173)
        (xy 143.575 91.773) (xy 143.52265 91.495486) (xy 143.417166 91.233517) (xy 143.262601 90.997161) (xy 143.064895 90.7955)
        (xy 142.831646 90.636285) (xy 142.571818 90.525633) (xy 142.489039 90.508096) (xy 142.267 90.630085) (xy 142.013 90.630085)
        (xy 141.790961 90.508096) (xy 141.708182 90.525633) (xy 141.448354 90.636285) (xy 141.215105 90.7955) (xy 141.017399 90.997161)
        (xy 140.867265 91.226741) (xy 140.798932 91.098899) (xy 140.619607 90.880392) (xy 140.4011 90.701068) (xy 140.151807 90.567818)
        (xy 139.881308 90.485764) (xy 139.6 90.458057) (xy 139.476852 90.470186) (xy 142.780436 87.166603) (xy 142.816778 87.136778)
        (xy 142.935806 86.991741) (xy 143.024252 86.826269) (xy 143.078717 86.646723) (xy 143.0925 86.506785) (xy 143.0925 86.506784)
        (xy 143.097108 86.46) (xy 143.0925 86.413215) (xy 143.0925 86.154682) (xy 143.159608 86.099608) (xy 143.338932 85.881101)
        (xy 143.472182 85.631808) (xy 143.554236 85.361309) (xy 143.575 85.150491) (xy 143.575 84.692702) (xy 146.686903 84.692702)
        (xy 146.758486 84.936671) (xy 147.013996 85.057571) (xy 147.288184 85.1263) (xy 147.570512 85.140217) (xy 147.85013 85.098787)
        (xy 148.116292 85.003603) (xy 148.241514 84.936671) (xy 148.313097 84.692702) (xy 147.5 83.879605) (xy 146.686903 84.692702)
        (xy 143.575 84.692702) (xy 143.575 84.209508) (xy 143.554236 83.998691) (xy 143.48502 83.770512) (xy 146.059783 83.770512)
        (xy 146.101213 84.05013) (xy 146.196397 84.316292) (xy 146.263329 84.441514) (xy 146.507298 84.513097) (xy 147.320395 83.7)
        (xy 147.679605 83.7) (xy 148.492702 84.513097) (xy 148.736671 84.441514) (xy 148.857571 84.186004) (xy 148.9263 83.911816)
        (xy 148.940217 83.629488) (xy 148.898787 83.34987) (xy 148.803603 83.083708) (xy 148.736671 82.958486) (xy 148.492702 82.886903)
        (xy 147.679605 83.7) (xy 147.320395 83.7) (xy 146.507298 82.886903) (xy 146.263329 82.958486) (xy 146.142429 83.213996)
        (xy 146.0737 83.488184) (xy 146.059783 83.770512) (xy 143.48502 83.770512) (xy 143.472182 83.728192) (xy 143.338932 83.478899)
        (xy 143.159607 83.260392) (xy 142.9411 83.081068) (xy 142.691807 82.947818) (xy 142.421308 82.865764) (xy 142.14 82.838057)
        (xy 141.858691 82.865764) (xy 141.588192 82.947818) (xy 141.338899 83.081068) (xy 141.120392 83.260393) (xy 140.941068 83.4789)
        (xy 140.87 83.611858) (xy 140.798932 83.478899) (xy 140.619607 83.260392) (xy 140.616 83.257432) (xy 140.616 82.82084)
        (xy 140.729542 82.707298) (xy 146.686903 82.707298) (xy 147.5 83.520395) (xy 148.313097 82.707298) (xy 148.241514 82.463329)
        (xy 147.986004 82.342429) (xy 147.711816 82.2737) (xy 147.429488 82.259783) (xy 147.14987 82.301213) (xy 146.883708 82.396397)
        (xy 146.758486 82.463329) (xy 146.686903 82.707298) (xy 140.729542 82.707298) (xy 142.698769 80.738072) (xy 143.5 80.738072)
        (xy 143.624482 80.725812) (xy 143.74418 80.689502) (xy 143.854494 80.630537) (xy 143.951185 80.551185) (xy 144.030537 80.454494)
        (xy 144.089502 80.34418) (xy 144.125812 80.224482) (xy 144.138072 80.1) (xy 144.138072 78.5) (xy 144.125812 78.375518)
        (xy 144.089502 78.25582) (xy 144.030537 78.145506) (xy 143.951185 78.048815) (xy 143.934607 78.03521) (xy 143.97168 77.979727)
        (xy 144.079853 77.718574) (xy 144.135 77.441335) (xy 144.135 77.158665) (xy 144.079853 76.881426) (xy 143.97168 76.620273)
        (xy 143.814637 76.385241) (xy 143.635 76.205604) (xy 143.635 74.545932) (xy 143.639524 74.5) (xy 143.621471 74.316708)
        (xy 143.568007 74.140461) (xy 143.568007 74.14046) (xy 143.481186 73.978028) (xy 143.364344 73.835656) (xy 143.328665 73.806376)
        (xy 141.99363 72.471341) (xy 141.964344 72.435656) (xy 141.821972 72.318814) (xy 141.65954 72.231993) (xy 141.483292 72.178529)
        (xy 141.345932 72.165) (xy 141.3 72.160476) (xy 141.254068 72.165) (xy 137.454396 72.165) (xy 137.274759 71.985363)
        (xy 137.039727 71.82832) (xy 136.778574 71.720147) (xy 136.501335 71.665) (xy 136.218665 71.665) (xy 135.941426 71.720147)
        (xy 135.680273 71.82832) (xy 135.445241 71.985363) (xy 135.245363 72.185241) (xy 135.08832 72.420273) (xy 134.980147 72.681426)
        (xy 134.925 72.958665) (xy 134.925 73.241335) (xy 134.980147 73.518574) (xy 135.08832 73.779727) (xy 135.245363 74.014759)
        (xy 135.445241 74.214637) (xy 135.680273 74.37168) (xy 135.941426 74.479853) (xy 136.218665 74.535) (xy 136.501335 74.535)
        (xy 136.778574 74.479853) (xy 137.039727 74.37168) (xy 137.274759 74.214637) (xy 137.454396 74.035) (xy 140.912711 74.035)
        (xy 141.765 74.88729) (xy 141.765001 76.205603) (xy 141.585363 76.385241) (xy 141.42832 76.620273) (xy 141.320147 76.881426)
        (xy 141.265 77.158665) (xy 141.265 77.441335) (xy 141.320147 77.718574) (xy 141.42832 77.979727) (xy 141.465393 78.03521)
        (xy 141.448815 78.048815) (xy 141.369463 78.145506) (xy 141.310498 78.25582) (xy 141.274188 78.375518) (xy 141.261928 78.5)
        (xy 141.261928 79.301231) (xy 138.916868 81.646292) (xy 138.878105 81.678104) (xy 138.751141 81.83281) (xy 138.731263 81.87)
        (xy 138.656799 82.009313) (xy 138.598702 82.20083) (xy 138.579085 82.4) (xy 138.584001 82.449911) (xy 138.584001 83.257431)
        (xy 138.580392 83.260393) (xy 138.401068 83.4789) (xy 138.33 83.611858) (xy 138.258932 83.478899) (xy 138.079607 83.260392)
        (xy 137.8611 83.081068) (xy 137.611807 82.947818) (xy 137.341308 82.865764) (xy 137.06 82.838057) (xy 136.778691 82.865764)
        (xy 136.508192 82.947818) (xy 136.258899 83.081068) (xy 136.040392 83.260393) (xy 135.861068 83.4789) (xy 135.79 83.611858)
        (xy 135.718932 83.478899) (xy 135.539607 83.260392) (xy 135.3211 83.081068) (xy 135.071807 82.947818) (xy 134.801308 82.865764)
        (xy 134.52 82.838057) (xy 134.238691 82.865764) (xy 133.968192 82.947818) (xy 133.718899 83.081068) (xy 133.500392 83.260393)
        (xy 133.321068 83.4789) (xy 133.25 83.611858) (xy 133.178932 83.478899) (xy 132.999607 83.260392) (xy 132.7811 83.081068)
        (xy 132.531807 82.947818) (xy 132.261308 82.865764) (xy 131.98 82.838057) (xy 131.698691 82.865764) (xy 131.428192 82.947818)
        (xy 131.178899 83.081068) (xy 130.960392 83.260393) (xy 130.781068 83.4789) (xy 130.71 83.611858) (xy 130.638932 83.478899)
        (xy 130.459607 83.260392) (xy 130.354778 83.174361) (xy 130.338862 83.121895) (xy 130.324252 83.073731) (xy 130.235806 82.908259)
        (xy 130.116778 82.763222) (xy 130.080436 82.733397) (xy 129.039741 81.692702) (xy 129.786903 81.692702) (xy 129.858486 81.936671)
        (xy 130.113996 82.057571) (xy 130.388184 82.1263) (xy 130.670512 82.140217) (xy 130.95013 82.098787) (xy 131.216292 82.003603)
        (xy 131.341514 81.936671) (xy 131.413097 81.692702) (xy 130.6 80.879605) (xy 129.786903 81.692702) (xy 129.039741 81.692702)
        (xy 128.117551 80.770512) (xy 129.159783 80.770512) (xy 129.201213 81.05013) (xy 129.296397 81.316292) (xy 129.363329 81.441514)
        (xy 129.607298 81.513097) (xy 130.420395 80.7) (xy 130.779605 80.7) (xy 131.592702 81.513097) (xy 131.836671 81.441514)
        (xy 131.957571 81.186004) (xy 132.0263 80.911816) (xy 132.040217 80.629488) (xy 131.998787 80.34987) (xy 131.903603 80.083708)
        (xy 131.836671 79.958486) (xy 131.592702 79.886903) (xy 130.779605 80.7) (xy 130.420395 80.7) (xy 129.607298 79.886903)
        (xy 129.363329 79.958486) (xy 129.242429 80.213996) (xy 129.1737 80.488184) (xy 129.159783 80.770512) (xy 128.117551 80.770512)
        (xy 127.406607 80.059569) (xy 127.376778 80.023222) (xy 127.231741 79.904194) (xy 127.066269 79.815748) (xy 126.886723 79.761283)
        (xy 126.746785 79.7475) (xy 126.7 79.742892) (xy 126.674773 79.745377) (xy 126.636694 79.707298) (xy 129.786903 79.707298)
        (xy 130.6 80.520395) (xy 131.413097 79.707298) (xy 131.341514 79.463329) (xy 131.086004 79.342429) (xy 130.811816 79.2737)
        (xy 130.529488 79.259783) (xy 130.24987 79.301213) (xy 129.983708 79.396397) (xy 129.858486 79.463329) (xy 129.786903 79.707298)
        (xy 126.636694 79.707298) (xy 126.514759 79.585363) (xy 126.279727 79.42832) (xy 126.018574 79.320147) (xy 125.741335 79.265)
        (xy 125.458665 79.265) (xy 125.181426 79.320147) (xy 124.920273 79.42832) (xy 124.685241 79.585363) (xy 124.523104 79.7475)
        (xy 123.846784 79.7475) (xy 123.799999 79.742892) (xy 123.613277 79.761283) (xy 123.433731 79.815748) (xy 123.268259 79.904194)
        (xy 123.123222 80.023222) (xy 123.093393 80.059569) (xy 119.05267 84.100292) (xy 118.998936 84.095) (xy 118.401064 84.095)
        (xy 118.179968 84.116776) (xy 117.896275 84.202834) (xy 117.634821 84.342583) (xy 117.405655 84.530655) (xy 117.217583 84.759821)
        (xy 117.077834 85.021275) (xy 116.991776 85.304968) (xy 116.962718 85.6) (xy 116.991776 85.895032) (xy 117.077834 86.178725)
        (xy 117.217583 86.440179) (xy 117.405655 86.669345) (xy 117.634821 86.857417) (xy 117.658362 86.87) (xy 117.634821 86.882583)
        (xy 117.405655 87.070655) (xy 117.217583 87.299821) (xy 117.077834 87.561275) (xy 116.991776 87.844968) (xy 116.962718 88.14)
        (xy 116.991776 88.435032) (xy 117.077834 88.718725) (xy 117.217583 88.980179) (xy 117.405655 89.209345) (xy 117.471114 89.263066)
        (xy 117.361613 89.321595) (xy 117.227038 89.432038) (xy 117.116595 89.566613) (xy 117.034528 89.720149) (xy 116.983992 89.886745)
        (xy 116.98389 89.887779) (xy 116.843222 90.003222) (xy 116.813393 90.039569) (xy 115.359565 91.493397) (xy 115.323223 91.523222)
        (xy 115.293399 91.559563) (xy 115.204194 91.66826) (xy 115.115749 91.833731) (xy 115.061283 92.013278) (xy 115.042892 92.2)
        (xy 111.685 92.2) (xy 111.685 81.87) (xy 116.966928 81.87) (xy 116.979188 81.994482) (xy 117.015498 82.11418)
        (xy 117.074463 82.224494) (xy 117.153815 82.321185) (xy 117.250506 82.400537) (xy 117.36082 82.459502) (xy 117.480518 82.495812)
        (xy 117.605 82.508072) (xy 118.41425 82.505) (xy 118.573 82.34625) (xy 118.573 81.127) (xy 118.827 81.127)
        (xy 118.827 82.34625) (xy 118.98575 82.505) (xy 119.795 82.508072) (xy 119.919482 82.495812) (xy 120.03918 82.459502)
        (xy 120.149494 82.400537) (xy 120.246185 82.321185) (xy 120.325537 82.224494) (xy 120.384502 82.11418) (xy 120.420812 81.994482)
        (xy 120.433072 81.87) (xy 120.43 81.28575) (xy 120.27125 81.127) (xy 118.827 81.127) (xy 118.573 81.127)
        (xy 117.12875 81.127) (xy 116.97 81.28575) (xy 116.966928 81.87) (xy 111.685 81.87) (xy 111.685 78.46)
        (xy 116.962718 78.46) (xy 116.991776 78.755032) (xy 117.077834 79.038725) (xy 117.217583 79.300179) (xy 117.404047 79.527385)
        (xy 117.36082 79.540498) (xy 117.250506 79.599463) (xy 117.153815 79.678815) (xy 117.074463 79.775506) (xy 117.015498 79.88582)
        (xy 116.979188 80.005518) (xy 116.966928 80.13) (xy 116.97 80.71425) (xy 117.12875 80.873) (xy 118.573 80.873)
        (xy 118.573 80.853) (xy 118.827 80.853) (xy 118.827 80.873) (xy 120.27125 80.873) (xy 120.43 80.71425)
        (xy 120.433072 80.13) (xy 120.420812 80.005518) (xy 120.384502 79.88582) (xy 120.325537 79.775506) (xy 120.246185 79.678815)
        (xy 120.149494 79.599463) (xy 120.03918 79.540498) (xy 119.995953 79.527385) (xy 120.182417 79.300179) (xy 120.322166 79.038725)
        (xy 120.408224 78.755032) (xy 120.437282 78.46) (xy 120.408224 78.164968) (xy 120.392827 78.114211) (xy 120.587682 77.919356)
        (xy 120.631741 77.895806) (xy 120.776778 77.776778) (xy 120.796702 77.7525) (xy 125.123104 77.7525) (xy 125.285241 77.914637)
        (xy 125.520273 78.07168) (xy 125.781426 78.179853) (xy 126.058665 78.235) (xy 126.341335 78.235) (xy 126.618574 78.179853)
        (xy 126.879727 78.07168) (xy 127.114759 77.914637) (xy 127.236694 77.792702) (xy 135.546903 77.792702) (xy 135.618486 78.036671)
        (xy 135.873996 78.157571) (xy 136.148184 78.2263) (xy 136.430512 78.240217) (xy 136.71013 78.198787) (xy 136.976292 78.103603)
        (xy 137.101514 78.036671) (xy 137.173097 77.792702) (xy 136.36 76.979605) (xy 135.546903 77.792702) (xy 127.236694 77.792702)
        (xy 127.314637 77.714759) (xy 127.47168 77.479727) (xy 127.579853 77.218574) (xy 127.635 76.941335) (xy 127.635 76.870512)
        (xy 134.919783 76.870512) (xy 134.961213 77.15013) (xy 135.056397 77.416292) (xy 135.123329 77.541514) (xy 135.367298 77.613097)
        (xy 136.180395 76.8) (xy 136.539605 76.8) (xy 137.352702 77.613097) (xy 137.596671 77.541514) (xy 137.717571 77.286004)
        (xy 137.7863 77.011816) (xy 137.800217 76.729488) (xy 137.758787 76.44987) (xy 137.663603 76.183708) (xy 137.596671 76.058486)
        (xy 137.352702 75.986903) (xy 136.539605 76.8) (xy 136.180395 76.8) (xy 135.367298 75.986903) (xy 135.123329 76.058486)
        (xy 135.002429 76.313996) (xy 134.9337 76.588184) (xy 134.919783 76.870512) (xy 127.635 76.870512) (xy 127.635 76.658665)
        (xy 127.579853 76.381426) (xy 127.47168 76.120273) (xy 127.314637 75.885241) (xy 127.236694 75.807298) (xy 135.546903 75.807298)
        (xy 136.36 76.620395) (xy 137.173097 75.807298) (xy 137.101514 75.563329) (xy 136.846004 75.442429) (xy 136.571816 75.3737)
        (xy 136.289488 75.359783) (xy 136.00987 75.401213) (xy 135.743708 75.496397) (xy 135.618486 75.563329) (xy 135.546903 75.807298)
        (xy 127.236694 75.807298) (xy 127.1525 75.723104) (xy 127.1525 74.176896) (xy 127.314637 74.014759) (xy 127.47168 73.779727)
        (xy 127.579853 73.518574) (xy 127.635 73.241335) (xy 127.635 72.958665) (xy 127.579853 72.681426) (xy 127.47168 72.420273)
        (xy 127.314637 72.185241) (xy 127.114759 71.985363) (xy 126.879727 71.82832) (xy 126.618574 71.720147) (xy 126.341335 71.665)
        (xy 126.058665 71.665) (xy 125.781426 71.720147) (xy 125.520273 71.82832) (xy 125.285241 71.985363) (xy 125.085363 72.185241)
        (xy 124.92832 72.420273) (xy 124.820147 72.681426) (xy 124.765 72.958665) (xy 124.765 73.241335) (xy 124.820147 73.518574)
        (xy 124.92832 73.779727) (xy 125.085363 74.014759) (xy 125.247501 74.176897) (xy 125.2475 75.723104) (xy 125.123104 75.8475)
        (xy 120.446784 75.8475) (xy 120.399999 75.842892) (xy 120.213277 75.861283) (xy 120.033731 75.915748) (xy 119.868259 76.004194)
        (xy 119.723222 76.123222) (xy 119.693393 76.159569) (xy 119.572318 76.280644) (xy 119.528259 76.304194) (xy 119.383222 76.423222)
        (xy 119.353393 76.459569) (xy 118.857962 76.955) (xy 118.401064 76.955) (xy 118.179968 76.976776) (xy 117.896275 77.062834)
        (xy 117.634821 77.202583) (xy 117.405655 77.390655) (xy 117.217583 77.619821) (xy 117.077834 77.881275) (xy 116.991776 78.164968)
        (xy 116.962718 78.46) (xy 111.685 78.46) (xy 111.685 74.613534) (xy 111.978442 74.906976) (xy 112.549234 75.288367)
        (xy 113.183463 75.551073) (xy 113.856758 75.685) (xy 114.543242 75.685) (xy 115.216537 75.551073) (xy 115.850766 75.288367)
        (xy 116.421558 74.906976) (xy 116.906976 74.421558) (xy 117.288367 73.850766) (xy 117.551073 73.216537) (xy 117.685 72.543242)
        (xy 117.685 71.856758) (xy 117.551073 71.183463) (xy 117.288367 70.549234) (xy 116.906976 69.978442) (xy 116.613534 69.685)
        (xy 145.386466 69.685)
      )
    )
  )
)
