<?xml version="1.0" encoding="UTF-8" standalone="no"?>
<!-- Created with Inkscape (http://www.inkscape.org/) -->

<svg
   version="1.1"
   id="svg2"
   xml:space="preserve"
   width="215.89999mm"
   height="279.39999mm"
   viewBox="0 0 816 1056"
   sodipodi:docname="02case.svg"
   inkscape:version="1.1 (c4e8f9ed74, 2021-05-24)"
   xmlns:inkscape="http://www.inkscape.org/namespaces/inkscape"
   xmlns:sodipodi="http://sodipodi.sourceforge.net/DTD/sodipodi-0.dtd"
   xmlns="http://www.w3.org/2000/svg"
   xmlns:svg="http://www.w3.org/2000/svg"><defs
     id="defs6" /><sodipodi:namedview
     id="namedview4"
     pagecolor="#ffffff"
     bordercolor="#999999"
     borderopacity="1"
     inkscape:pageshadow="0"
     inkscape:pageopacity="0"
     inkscape:pagecheckerboard="0"
     showgrid="false"
     inkscape:snap-global="true"
     inkscape:snap-bbox="true"
     inkscape:snap-bbox-midpoints="true"
     inkscape:zoom="1.0084307"
     inkscape:cx="328.23277"
     inkscape:cy="441.77552"
     inkscape:window-width="1920"
     inkscape:window-height="1015"
     inkscape:window-x="0"
     inkscape:window-y="32"
     inkscape:window-maximized="1"
     inkscape:current-layer="g1743"
     units="mm"
     inkscape:document-units="mm" /><g
     id="g8"
     inkscape:groupmode="layer"
     inkscape:label="ClosedBox"
     transform="matrix(1.3333333,0,0,-1.3333333,0,1056)"><path
       d="m 140.22346,259.81649 h 34.015 c 0.157,0 0.286,0.129 0.286,0.285 v 8.219 c 0,0.285 -0.286,0 0,0 h 33.449 c 0.281,0 0,0.285 0,0 v -8.219 c 0,-0.156 0.125,-0.285 0.281,-0.285 h 17.008 c 0.156,0 0.285,0.129 0.285,0.285 v 8.219 c 0,0.285 -0.285,0 0,0 h 33.449 c 0.282,0 0,0.285 0,0 v -8.219 c 0,-0.156 0.125,-0.285 0.282,-0.285 h 34.015 8.508 c 0.152,0 0.281,0.129 0.281,0.285 v 8.504 31.179 c 0,0.157 -0.129,0.286 -0.281,0.286 h -8.223 c -0.285,0 0,-0.286 0,0 v 33.449 c 0,0.281 -0.285,0 0,0 h 8.223 c 0.152,0 0.281,0.125 0.281,0.281 v 31.18 8.504 c 0,0.16 -0.129,0.285 -0.281,0.285 h -8.508 -34.015 c -0.157,0 -0.282,-0.125 -0.282,-0.285 v -8.219 c 0,-0.285 0.282,0 0,0 h -33.449 c -0.285,0 0,-0.285 0,0 v 8.219 c 0,0.16 -0.129,0.285 -0.285,0.285 h -17.008 c -0.156,0 -0.281,-0.125 -0.281,-0.285 v -8.219 c 0,-0.285 0.281,0 0,0 h -33.449 c -0.286,0 0,-0.285 0,0 v 8.219 c 0,0.16 -0.129,0.285 -0.286,0.285 h -34.015 -8.504 c -0.156,0 -0.281,-0.125 -0.281,-0.285 v -8.504 -31.18 c 0,-0.156 0.125,-0.281 0.281,-0.281 h 8.223 c 0.281,0 0,0.281 0,0 v -33.449 c 0,-0.286 0.281,0 0,0 h -8.223 c -0.156,0 -0.281,-0.129 -0.281,-0.286 v -31.179 -8.504 c 0,-0.156 0.125,-0.285 0.281,-0.285 h 8.504"
       style="fill:none;stroke:#000000;stroke-width:0.566929;stroke-linecap:round;stroke-linejoin:round;stroke-miterlimit:10;stroke-dasharray:none;stroke-opacity:1"
       id="path20" /><path
       d="m 315.12146,259.81649 h 34.016 c 0.156,0 0.285,0.129 0.285,0.285 v 8.219 c 0,0.285 -0.285,0 0,0 h 33.449 c 0.282,0 0,0.285 0,0 v -8.219 c 0,-0.156 0.125,-0.285 0.282,-0.285 h 17.007 c 0.157,0 0.285,0.129 0.285,0.285 v 8.219 c 0,0.285 -0.285,0 0,0 h 33.45 c 0.281,0 0,0.285 0,0 v -8.219 c 0,-0.156 0.125,-0.285 0.281,-0.285 h 34.016 c 0.156,0 0.285,0.129 0.285,0.285 v 8.504 30.894 c 0,0.285 -0.285,0 0,0 h 8.218 c 0.157,0 0.286,0.129 0.286,0.285 v 34.016 c 0,0.156 -0.129,0.285 -0.286,0.285 h -8.218 c -0.285,0 0,-0.285 0,0 v 30.895 8.504 c 0,0.16 -0.129,0.285 -0.285,0.285 h -34.016 c -0.156,0 -0.281,-0.125 -0.281,-0.285 v -8.219 c 0,-0.285 0.281,0 0,0 h -33.45 c -0.285,0 0,-0.285 0,0 v 8.219 c 0,0.16 -0.128,0.285 -0.285,0.285 h -17.007 c -0.157,0 -0.282,-0.125 -0.282,-0.285 v -8.219 c 0,-0.285 0.282,0 0,0 h -33.449 c -0.285,0 0,-0.285 0,0 v 8.219 c 0,0.16 -0.129,0.285 -0.285,0.285 h -34.016 c -0.156,0 -0.285,-0.125 -0.285,-0.285 v -8.504 -30.895 c 0,-0.285 0.285,0 0,0 h -8.219 c -0.156,0 -0.285,-0.129 -0.285,-0.285 v -34.016 c 0,-0.156 0.129,-0.285 0.285,-0.285 h 8.219 c 0.285,0 0,0.285 0,0 v -30.894 -8.504 c 0,-0.156 0.129,-0.285 0.285,-0.285"
       style="fill:none;stroke:#000000;stroke-width:0.566929;stroke-linecap:round;stroke-linejoin:round;stroke-miterlimit:10;stroke-dasharray:none;stroke-opacity:1"
       id="path26" /><path
       d="m 315.12146,378.02349 h 34.016 c 0.156,0 0.285,0.125 0.285,0.281 v 8.219 c 0,0.285 -0.285,0 0,0 h 33.449 c 0.282,0 0,0.285 0,0 v -8.219 c 0,-0.156 0.125,-0.281 0.282,-0.281 h 17.007 c 0.157,0 0.285,0.125 0.285,0.281 v 8.219 c 0,0.285 -0.285,0 0,0 h 33.45 c 0.281,0 0,0.285 0,0 v -8.219 c 0,-0.156 0.125,-0.281 0.281,-0.281 h 34.016 c 0.156,0 0.285,0.125 0.285,0.281 v 8.504 30.898 c 0,0.282 -0.285,0 0,0 h 8.218 c 0.157,0 0.286,0.125 0.286,0.282 v 34.015 c 0,0.156 -0.129,0.285 -0.286,0.285 h -8.218 c -0.285,0 0,-0.285 0,0 v 30.899 8.504 c 0,0.156 -0.129,0.281 -0.285,0.281 h -34.016 c -0.156,0 -0.281,-0.125 -0.281,-0.281 v -8.223 c 0,-0.281 0.281,0 0,0 h -33.45 c -0.285,0 0,-0.281 0,0 v 8.223 c 0,0.156 -0.128,0.281 -0.285,0.281 h -17.007 c -0.157,0 -0.282,-0.125 -0.282,-0.281 v -8.223 c 0,-0.281 0.282,0 0,0 h -33.449 c -0.285,0 0,-0.281 0,0 v 8.223 c 0,0.156 -0.129,0.281 -0.285,0.281 h -34.016 c -0.156,0 -0.285,-0.125 -0.285,-0.281 v -8.504 -30.899 c 0,-0.285 0.285,0 0,0 h -8.219 c -0.156,0 -0.285,-0.129 -0.285,-0.285 v -34.015 c 0,-0.157 0.129,-0.282 0.285,-0.282 h 8.219 c 0.285,0 0,0.282 0,0 v -30.898 -8.504 c 0,-0.156 0.129,-0.281 0.285,-0.281"
       style="fill:none;stroke:#000000;stroke-width:0.566929;stroke-linecap:round;stroke-linejoin:round;stroke-miterlimit:10;stroke-dasharray:none;stroke-opacity:1"
       id="path32" /><path
       d="m 140.22346,378.02349 h 34.015 c 0.157,0 0.286,0.125 0.286,0.281 v 8.219 c 0,0.285 -0.286,0 0,0 h 33.449 c 0.281,0 0,0.285 0,0 v -8.219 c 0,-0.156 0.125,-0.281 0.281,-0.281 h 17.008 c 0.156,0 0.285,0.125 0.285,0.281 v 8.219 c 0,0.285 -0.285,0 0,0 h 33.449 c 0.282,0 0,0.285 0,0 v -8.219 c 0,-0.156 0.125,-0.281 0.282,-0.281 h 34.015 8.508 c 0.152,0 0.281,0.125 0.281,0.281 v 8.504 31.18 c 0,0.16 -0.129,0.285 -0.281,0.285 h -8.223 c -0.285,0 0,-0.285 0,0 v 33.449 c 0,0.281 -0.285,0 0,0 h 8.223 c 0.152,0 0.281,0.125 0.281,0.281 v 31.184 8.504 c 0,0.156 -0.129,0.281 -0.281,0.281 h -8.508 -34.015 c -0.157,0 -0.282,-0.125 -0.282,-0.281 v -8.223 c 0,-0.281 0.282,0 0,0 h -33.449 c -0.285,0 0,-0.281 0,0 v 8.223 c 0,0.156 -0.129,0.281 -0.285,0.281 h -17.008 c -0.156,0 -0.281,-0.125 -0.281,-0.281 v -8.223 c 0,-0.281 0.281,0 0,0 h -33.449 c -0.286,0 0,-0.281 0,0 v 8.223 c 0,0.156 -0.129,0.281 -0.286,0.281 h -34.015 -8.504 c -0.156,0 -0.281,-0.125 -0.281,-0.281 v -8.504 -31.184 c 0,-0.156 0.125,-0.281 0.281,-0.281 h 8.223 c 0.281,0 0,0.281 0,0 v -33.449 c 0,-0.285 0.281,0 0,0 h -8.223 c -0.156,0 -0.281,-0.125 -0.281,-0.285 v -31.18 -8.504 c 0,-0.156 0.125,-0.281 0.281,-0.281 h 8.504"
       style="fill:none;stroke:#000000;stroke-width:0.566929;stroke-linecap:round;stroke-linejoin:round;stroke-miterlimit:10;stroke-dasharray:none;stroke-opacity:1"
       id="path38" /><path
       d="m 140.26204,514.4594 h 33.734 c 0.281,0 0,0.285 0,0 v -8.223 c 0,-0.156 0.125,-0.281 0.281,-0.281 h 34.016 c 0.156,0 0.285,0.125 0.285,0.281 v 8.223 c 0,0.285 -0.285,0 0,0 h 16.442 c 0.281,0 0,0.285 0,0 v -8.223 c 0,-0.156 0.125,-0.281 0.281,-0.281 h 34.016 c 0.16,0 0.285,0.125 0.285,0.281 v 8.223 c 0,0.285 -0.285,0 0,0 h 33.73 c 0.156,0 0.285,0.125 0.285,0.285 v 33.73 c 0,0.282 -0.285,0 0,0 h 8.223 c 0.152,0 0.281,0.125 0.281,0.282 v 34.015 c 0,0.16 -0.129,0.285 -0.281,0.285 h -8.223 c -0.285,0 0,-0.285 0,0 v 16.442 c 0,0.281 -0.285,0 0,0 h 8.223 c 0.152,0 0.281,0.125 0.281,0.281 v 34.02 c 0,0.156 -0.129,0.281 -0.281,0.281 h -8.223 c -0.285,0 0,-0.281 0,0 v 33.734 c 0,0.157 -0.129,0.282 -0.285,0.282 h -33.73 c -0.285,0 0,-0.282 0,0 v 8.218 c 0,0.16 -0.125,0.285 -0.285,0.285 h -34.016 c -0.156,0 -0.281,-0.125 -0.281,-0.285 v -8.218 c 0,-0.282 0.281,0 0,0 h -16.442 c -0.285,0 0,-0.282 0,0 v 8.218 c 0,0.16 -0.129,0.285 -0.285,0.285 h -34.016 c -0.156,0 -0.281,-0.125 -0.281,-0.285 v -8.218 c 0,-0.282 0.281,0 0,0 h -33.734 c -0.156,0 -0.281,-0.125 -0.281,-0.282 v -33.734 c 0,-0.281 0.281,0 0,0 h -8.223 c -0.156,0 -0.281,-0.125 -0.281,-0.281 v -34.02 c 0,-0.156 0.125,-0.281 0.281,-0.281 h 8.223 c 0.281,0 0,0.281 0,0 v -16.442 c 0,-0.285 0.281,0 0,0 h -8.223 c -0.156,0 -0.281,-0.125 -0.281,-0.285 v -34.015 c 0,-0.157 0.125,-0.282 0.281,-0.282 h 8.223 c 0.281,0 0,0.282 0,0 v -33.73 c 0,-0.16 0.125,-0.285 0.281,-0.285"
       style="fill:none;stroke:#000000;stroke-width:0.566929;stroke-linecap:round;stroke-linejoin:round;stroke-miterlimit:10;stroke-dasharray:none;stroke-opacity:1"
       id="path44" /><path
       d="m 316.7653,513.52776 h 33.735 c 0.281,0 0,0.285 0,0 v -8.223 c 0,-0.156 0.125,-0.281 0.281,-0.281 h 34.016 c 0.156,0 0.285,0.125 0.285,0.281 v 8.223 c 0,0.285 -0.285,0 0,0 h 16.437 c 0.285,0 0,0.285 0,0 v -8.223 c 0,-0.156 0.129,-0.281 0.285,-0.281 h 34.016 c 0.156,0 0.285,0.125 0.285,0.281 v 8.223 c 0,0.285 -0.285,0 0,0 h 33.731 c 0.156,0 0.285,0.125 0.285,0.285 v 33.73 c 0,0.282 -0.285,0 0,0 h 8.218 c 0.157,0 0.286,0.125 0.286,0.282 v 34.015 c 0,0.16 -0.129,0.285 -0.286,0.285 h -8.218 c -0.285,0 0,-0.285 0,0 v 16.442 c 0,0.281 -0.285,0 0,0 h 8.218 c 0.157,0 0.286,0.125 0.286,0.281 v 34.02 c 0,0.156 -0.129,0.281 -0.286,0.281 h -8.218 c -0.285,0 0,-0.281 0,0 v 33.734 c 0,0.157 -0.129,0.282 -0.285,0.282 h -33.731 c -0.285,0 0,-0.282 0,0 v 8.218 c 0,0.16 -0.129,0.285 -0.285,0.285 h -34.016 c -0.156,0 -0.285,-0.125 -0.285,-0.285 v -8.218 c 0,-0.282 0.285,0 0,0 h -16.437 c -0.285,0 0,-0.282 0,0 v 8.218 c 0,0.16 -0.129,0.285 -0.285,0.285 h -34.016 c -0.156,0 -0.281,-0.125 -0.281,-0.285 v -8.218 c 0,-0.282 0.281,0 0,0 h -33.735 c -0.156,0 -0.285,-0.125 -0.285,-0.282 v -33.734 c 0,-0.281 0.285,0 0,0 h -8.219 c -0.156,0 -0.285,-0.125 -0.285,-0.281 v -34.02 c 0,-0.156 0.129,-0.281 0.285,-0.281 h 8.219 c 0.285,0 0,0.281 0,0 v -16.442 c 0,-0.285 0.285,0 0,0 h -8.219 c -0.156,0 -0.285,-0.125 -0.285,-0.285 v -34.015 c 0,-0.157 0.129,-0.282 0.285,-0.282 h 8.219 c 0.285,0 0,0.282 0,0 v -33.73 c 0,-0.16 0.129,-0.285 0.285,-0.285"
       style="fill:none;stroke:#000000;stroke-width:0.566929;stroke-linecap:round;stroke-linejoin:round;stroke-miterlimit:10;stroke-dasharray:none;stroke-opacity:1"
       id="path50" /><g
       id="g1464"
       transform="translate(201.14271,-6.87952)"><g
         id="g60"
         transform="matrix(1,0,0,-1,2.07031,835.68181)"><g
           id="g1743"
           transform="rotate(90,13.54744,393.8043)"><g
             id="g44"
             transform="matrix(-1,0,0,-0.99997803,-531.20656,178.45282)"><path
               d="m -530.988,-265.963 c 0,5.399 -4.375,9.778 -9.778,9.778 -5.402,0 -9.781,-4.379 -9.781,-9.778 0,-5.402 4.379,-9.781 9.781,-9.781 5.403,0 9.778,4.379 9.778,9.781 z"
               style="fill:none;stroke:#000000;stroke-width:0.283468;stroke-linecap:round;stroke-linejoin:miter;stroke-miterlimit:4;stroke-dasharray:none;stroke-opacity:1"
               id="path46" /></g><g
             id="g48"
             transform="rotate(90,-360.82968,-170.37688)"><path
               d="m 177.824,-540.766 c 0,9.313 -7.551,16.868 -16.867,16.868 -9.312,0 -16.867,-7.555 -16.867,-16.868 0,-9.316 7.555,-16.867 16.867,-16.867 9.316,0 16.867,7.551 16.867,16.867 z"
               style="fill:none;stroke:#000000;stroke-width:0.283465;stroke-linecap:round;stroke-linejoin:miter;stroke-miterlimit:4;stroke-dasharray:none;stroke-opacity:1"
               id="path50-3" /></g><g
             id="g52"
             transform="rotate(90,-357.82968,-173.37688)" /></g></g><g
         id="g64"
         transform="matrix(1,0,0,-1,-269.72617,987.41442)"><path
           d="m 302.25,433.109 c 0,9.313 -7.555,16.868 -16.867,16.868 -9.317,0 -16.867,-7.555 -16.867,-16.868 0,-9.316 7.55,-16.867 16.867,-16.867 9.312,0 16.867,7.551 16.867,16.867 z"
           style="fill:none;stroke:#000000;stroke-width:0.283465;stroke-linecap:round;stroke-linejoin:miter;stroke-miterlimit:4;stroke-dasharray:none;stroke-opacity:1"
           id="path66" /></g><g
         id="g68"
         transform="matrix(1,0,0,-1,-269.72617,987.41442)"><path
           d="m 264.895,337.711 c 0,4.617 -3.743,8.363 -8.36,8.363 -4.621,0 -8.363,-3.746 -8.363,-8.363 0,-4.617 3.742,-8.363 8.363,-8.363 4.617,0 8.36,3.746 8.36,8.363 z"
           style="fill:none;stroke:#000000;stroke-width:0.283464;stroke-linecap:round;stroke-linejoin:miter;stroke-miterlimit:4;stroke-dasharray:none;stroke-opacity:1"
           id="path70" /></g><g
         id="g72"
         transform="matrix(1,0,0,-1,-269.72617,987.41442)"><path
           d="m 264.895,356.711 c 0,4.617 -3.743,8.359 -8.36,8.359 -4.621,0 -8.363,-3.742 -8.363,-8.359 0,-4.621 3.742,-8.363 8.363,-8.363 4.617,0 8.36,3.742 8.36,8.363 z"
           style="fill:none;stroke:#000000;stroke-width:0.283464;stroke-linecap:round;stroke-linejoin:miter;stroke-miterlimit:4;stroke-dasharray:none;stroke-opacity:1"
           id="path74" /></g><g
         id="g76"
         transform="matrix(1,0,0,-1,-269.72617,987.41442)"><path
           d="m 264.895,375.699 c 0,4.617 -3.743,8.36 -8.36,8.36 -4.621,0 -8.363,-3.743 -8.363,-8.36 0,-4.621 3.742,-8.363 8.363,-8.363 4.617,0 8.36,3.742 8.36,8.363 z"
           style="fill:none;stroke:#000000;stroke-width:0.283464;stroke-linecap:round;stroke-linejoin:miter;stroke-miterlimit:4;stroke-dasharray:none;stroke-opacity:1"
           id="path78" /></g><g
         id="g80"
         transform="matrix(1,0,0,-1,-269.72617,987.41442)"><path
           d="m 322.539,337.711 c 0,4.617 -3.746,8.363 -8.363,8.363 -4.617,0 -8.364,-3.746 -8.364,-8.363 0,-4.617 3.747,-8.363 8.364,-8.363 4.617,0 8.363,3.746 8.363,8.363 z"
           style="fill:none;stroke:#000000;stroke-width:0.283464;stroke-linecap:round;stroke-linejoin:miter;stroke-miterlimit:4;stroke-dasharray:none;stroke-opacity:1"
           id="path82" /></g><g
         id="g84"
         transform="matrix(1,0,0,-1,-269.72617,987.41442)"><path
           d="m 322.539,356.711 c 0,4.617 -3.746,8.359 -8.363,8.359 -4.617,0 -8.364,-3.742 -8.364,-8.359 0,-4.621 3.747,-8.363 8.364,-8.363 4.617,0 8.363,3.742 8.363,8.363 z"
           style="fill:none;stroke:#000000;stroke-width:0.283464;stroke-linecap:round;stroke-linejoin:miter;stroke-miterlimit:4;stroke-dasharray:none;stroke-opacity:1"
           id="path86" /></g><g
         id="g88"
         transform="matrix(1,0,0,-1,-269.72617,987.96659)"><path
           d="m 322.539,375.699 c 0,4.617 -3.746,8.36 -8.363,8.36 -4.617,0 -8.364,-3.743 -8.364,-8.36 0,-4.621 3.747,-8.363 8.364,-8.363 4.617,0 8.363,3.742 8.363,8.363 z"
           style="fill:none;stroke:#000000;stroke-width:0.283464;stroke-linecap:round;stroke-linejoin:miter;stroke-miterlimit:4;stroke-dasharray:none;stroke-opacity:1"
           id="path90" /></g><g
         id="g92"
         transform="matrix(1,0,0,-1,-269.72617,987.41442)"><path
           d="m 293.746,356.711 c 0,4.617 -3.746,8.359 -8.363,8.359 -4.617,0 -8.363,-3.742 -8.363,-8.359 0,-4.621 3.746,-8.363 8.363,-8.363 4.617,0 8.363,3.742 8.363,8.363 z"
           style="fill:none;stroke:#000000;stroke-width:0.283464;stroke-linecap:round;stroke-linejoin:miter;stroke-miterlimit:4;stroke-dasharray:none;stroke-opacity:1"
           id="path94" /></g><g
         id="g96"
         transform="matrix(1,0,0,-1,-269.72617,987.41442)"><path
           d="m 247,323.98 c 0,2.27 -1.84,4.11 -4.109,4.11 -2.27,0 -4.114,-1.84 -4.114,-4.11 0,-2.269 1.844,-4.113 4.114,-4.113 2.269,0 4.109,1.844 4.109,4.113 z"
           style="fill:none;stroke:#000000;stroke-width:0.283465;stroke-linecap:round;stroke-linejoin:miter;stroke-miterlimit:4;stroke-dasharray:none;stroke-opacity:1"
           id="path98" /></g><g
         id="g100"
         transform="matrix(1,0,0,-1,-269.72617,987.41442)"><path
           d="m 247,394.84 c 0,2.269 -1.84,4.109 -4.109,4.109 -2.27,0 -4.114,-1.84 -4.114,-4.109 0,-2.27 1.844,-4.11 4.114,-4.11 2.269,0 4.109,1.84 4.109,4.11 z"
           style="fill:none;stroke:#000000;stroke-width:0.283465;stroke-linecap:round;stroke-linejoin:miter;stroke-miterlimit:4;stroke-dasharray:none;stroke-opacity:1"
           id="path102" /></g><g
         id="g104"
         transform="matrix(1,0,0,-1,-269.72617,987.41442)"><path
           d="m 332.047,323.98 c 0,2.27 -1.84,4.11 -4.109,4.11 -2.27,0 -4.11,-1.84 -4.11,-4.11 0,-2.269 1.84,-4.113 4.11,-4.113 2.269,0 4.109,1.844 4.109,4.113 z"
           style="fill:none;stroke:#000000;stroke-width:0.283465;stroke-linecap:round;stroke-linejoin:miter;stroke-miterlimit:4;stroke-dasharray:none;stroke-opacity:1"
           id="path106" /></g><g
         id="g108"
         transform="matrix(1,0,0,-1,-269.72617,987.41442)"><path
           d="m 332.047,394.84 c 0,2.269 -1.84,4.109 -4.109,4.109 -2.27,0 -4.11,-1.84 -4.11,-4.109 0,-2.27 1.84,-4.11 4.11,-4.11 2.269,0 4.109,1.84 4.109,4.11 z"
           style="fill:none;stroke:#000000;stroke-width:0.283465;stroke-linecap:round;stroke-linejoin:miter;stroke-miterlimit:4;stroke-dasharray:none;stroke-opacity:1"
           id="path110" /></g></g></g></svg>
