EESchema Schematic File Version 4
EELAYER 30 0
EELAYER END
$Descr A4 11693 8268
encoding utf-8
Sheet 1 1
Title ""
Date ""
Rev ""
Comp ""
Comment1 ""
Comment2 ""
Comment3 ""
Comment4 ""
$EndDescr
$Comp
L Device:R_POT RV1
U 1 1 61223478
P 4000 3800
F 0 "RV1" V 3885 3800 50  0000 C CNN
F 1 "10k" V 3794 3800 50  0000 C CNN
F 2 "Potentiometer_THT:Potentiometer_Piher_T-16L_Single_Vertical_Hole" H 4000 3800 50  0001 C CNN
F 3 "~" H 4000 3800 50  0001 C CNN
	1    4000 3800
	0    -1   -1   0   
$EndComp
$Comp
L power:+5V #PWR02
U 1 1 61223E63
P 4150 3600
F 0 "#PWR02" H 4150 3450 50  0001 C CNN
F 1 "+5V" H 4165 3773 50  0000 C CNN
F 2 "" H 4150 3600 50  0001 C CNN
F 3 "" H 4150 3600 50  0001 C CNN
	1    4150 3600
	1    0    0    -1  
$EndComp
Wire Wire Line
	4150 3600 4150 3800
$Comp
L power:GND #PWR01
U 1 1 61226BEF
P 3850 3600
F 0 "#PWR01" H 3850 3350 50  0001 C CNN
F 1 "GND" H 3855 3427 50  0000 C CNN
F 2 "" H 3850 3600 50  0001 C CNN
F 3 "" H 3850 3600 50  0001 C CNN
	1    3850 3600
	-1   0    0    1   
$EndComp
Wire Wire Line
	3850 3600 3850 3800
Text GLabel 4000 3600 1    50   Input ~ 0
A0
Wire Wire Line
	4000 3600 4000 3650
$Comp
L Device:R_POT RV2
U 1 1 61228C4E
P 4500 3800
F 0 "RV2" V 4385 3800 50  0000 C CNN
F 1 "10k" V 4294 3800 50  0000 C CNN
F 2 "Potentiometer_THT:Potentiometer_Piher_T-16L_Single_Vertical_Hole" H 4500 3800 50  0001 C CNN
F 3 "~" H 4500 3800 50  0001 C CNN
	1    4500 3800
	0    -1   -1   0   
$EndComp
$Comp
L power:+5V #PWR04
U 1 1 61228C54
P 4650 3600
F 0 "#PWR04" H 4650 3450 50  0001 C CNN
F 1 "+5V" H 4665 3773 50  0000 C CNN
F 2 "" H 4650 3600 50  0001 C CNN
F 3 "" H 4650 3600 50  0001 C CNN
	1    4650 3600
	1    0    0    -1  
$EndComp
Wire Wire Line
	4650 3600 4650 3800
$Comp
L power:GND #PWR03
U 1 1 61228C5B
P 4350 3600
F 0 "#PWR03" H 4350 3350 50  0001 C CNN
F 1 "GND" H 4355 3427 50  0000 C CNN
F 2 "" H 4350 3600 50  0001 C CNN
F 3 "" H 4350 3600 50  0001 C CNN
	1    4350 3600
	-1   0    0    1   
$EndComp
Wire Wire Line
	4350 3600 4350 3800
Text GLabel 4500 3600 1    50   Input ~ 0
A1
Wire Wire Line
	4500 3600 4500 3650
$Comp
L Device:R_POT RV3
U 1 1 61229BB9
P 5000 3800
F 0 "RV3" V 4885 3800 50  0000 C CNN
F 1 "10k" V 4794 3800 50  0000 C CNN
F 2 "Potentiometer_THT:Potentiometer_Piher_T-16L_Single_Vertical_Hole" H 5000 3800 50  0001 C CNN
F 3 "~" H 5000 3800 50  0001 C CNN
	1    5000 3800
	0    -1   -1   0   
$EndComp
$Comp
L power:+5V #PWR06
U 1 1 61229BBF
P 5150 3600
F 0 "#PWR06" H 5150 3450 50  0001 C CNN
F 1 "+5V" H 5165 3773 50  0000 C CNN
F 2 "" H 5150 3600 50  0001 C CNN
F 3 "" H 5150 3600 50  0001 C CNN
	1    5150 3600
	1    0    0    -1  
$EndComp
Wire Wire Line
	5150 3600 5150 3800
$Comp
L power:GND #PWR05
U 1 1 61229BC6
P 4850 3600
F 0 "#PWR05" H 4850 3350 50  0001 C CNN
F 1 "GND" H 4855 3427 50  0000 C CNN
F 2 "" H 4850 3600 50  0001 C CNN
F 3 "" H 4850 3600 50  0001 C CNN
	1    4850 3600
	-1   0    0    1   
$EndComp
Wire Wire Line
	4850 3600 4850 3800
Text GLabel 5000 3600 1    50   Input ~ 0
A2
Wire Wire Line
	5000 3600 5000 3650
$Comp
L Device:R_POT RV4
U 1 1 6122A885
P 5500 3800
F 0 "RV4" V 5385 3800 50  0000 C CNN
F 1 "10k" V 5294 3800 50  0000 C CNN
F 2 "Potentiometer_THT:Potentiometer_Piher_T-16L_Single_Vertical_Hole" H 5500 3800 50  0001 C CNN
F 3 "~" H 5500 3800 50  0001 C CNN
	1    5500 3800
	0    -1   -1   0   
$EndComp
$Comp
L power:+5V #PWR08
U 1 1 6122A88B
P 5650 3600
F 0 "#PWR08" H 5650 3450 50  0001 C CNN
F 1 "+5V" H 5665 3773 50  0000 C CNN
F 2 "" H 5650 3600 50  0001 C CNN
F 3 "" H 5650 3600 50  0001 C CNN
	1    5650 3600
	1    0    0    -1  
$EndComp
Wire Wire Line
	5650 3600 5650 3800
$Comp
L power:GND #PWR07
U 1 1 6122A892
P 5350 3600
F 0 "#PWR07" H 5350 3350 50  0001 C CNN
F 1 "GND" H 5355 3427 50  0000 C CNN
F 2 "" H 5350 3600 50  0001 C CNN
F 3 "" H 5350 3600 50  0001 C CNN
	1    5350 3600
	-1   0    0    1   
$EndComp
Wire Wire Line
	5350 3600 5350 3800
Text GLabel 5500 3600 1    50   Input ~ 0
A3
Wire Wire Line
	5500 3600 5500 3650
$Comp
L Device:R_POT RV5
U 1 1 6122BE7C
P 6000 3800
F 0 "RV5" V 5885 3800 50  0000 C CNN
F 1 "10k" V 5794 3800 50  0000 C CNN
F 2 "Potentiometer_THT:Potentiometer_Piher_T-16L_Single_Vertical_Hole" H 6000 3800 50  0001 C CNN
F 3 "~" H 6000 3800 50  0001 C CNN
	1    6000 3800
	0    -1   -1   0   
$EndComp
$Comp
L power:+5V #PWR010
U 1 1 6122BE82
P 6150 3600
F 0 "#PWR010" H 6150 3450 50  0001 C CNN
F 1 "+5V" H 6165 3773 50  0000 C CNN
F 2 "" H 6150 3600 50  0001 C CNN
F 3 "" H 6150 3600 50  0001 C CNN
	1    6150 3600
	1    0    0    -1  
$EndComp
Wire Wire Line
	6150 3600 6150 3800
$Comp
L power:GND #PWR09
U 1 1 6122BE89
P 5850 3600
F 0 "#PWR09" H 5850 3350 50  0001 C CNN
F 1 "GND" H 5855 3427 50  0000 C CNN
F 2 "" H 5850 3600 50  0001 C CNN
F 3 "" H 5850 3600 50  0001 C CNN
	1    5850 3600
	-1   0    0    1   
$EndComp
Wire Wire Line
	5850 3600 5850 3800
Text GLabel 6000 3600 1    50   Input ~ 0
A4
Wire Wire Line
	6000 3600 6000 3650
$Comp
L Device:R_POT RV6
U 1 1 6122D2BB
P 6500 3800
F 0 "RV6" V 6385 3800 50  0000 C CNN
F 1 "10k" V 6294 3800 50  0000 C CNN
F 2 "Potentiometer_THT:Potentiometer_Piher_T-16L_Single_Vertical_Hole" H 6500 3800 50  0001 C CNN
F 3 "~" H 6500 3800 50  0001 C CNN
	1    6500 3800
	0    -1   -1   0   
$EndComp
$Comp
L power:+5V #PWR012
U 1 1 6122D2C1
P 6650 3600
F 0 "#PWR012" H 6650 3450 50  0001 C CNN
F 1 "+5V" H 6665 3773 50  0000 C CNN
F 2 "" H 6650 3600 50  0001 C CNN
F 3 "" H 6650 3600 50  0001 C CNN
	1    6650 3600
	1    0    0    -1  
$EndComp
Wire Wire Line
	6650 3600 6650 3800
$Comp
L power:GND #PWR011
U 1 1 6122D2C8
P 6350 3600
F 0 "#PWR011" H 6350 3350 50  0001 C CNN
F 1 "GND" H 6355 3427 50  0000 C CNN
F 2 "" H 6350 3600 50  0001 C CNN
F 3 "" H 6350 3600 50  0001 C CNN
	1    6350 3600
	-1   0    0    1   
$EndComp
Wire Wire Line
	6350 3600 6350 3800
Text GLabel 6500 3600 1    50   Input ~ 0
A5
Wire Wire Line
	6500 3600 6500 3650
$Comp
L Device:R_POT RV7
U 1 1 6122DE91
P 7000 3800
F 0 "RV7" V 6885 3800 50  0000 C CNN
F 1 "10k" V 6794 3800 50  0000 C CNN
F 2 "Potentiometer_THT:Potentiometer_Piher_T-16L_Single_Vertical_Hole" H 7000 3800 50  0001 C CNN
F 3 "~" H 7000 3800 50  0001 C CNN
	1    7000 3800
	0    -1   -1   0   
$EndComp
$Comp
L power:+5V #PWR014
U 1 1 6122DE97
P 7150 3600
F 0 "#PWR014" H 7150 3450 50  0001 C CNN
F 1 "+5V" H 7165 3773 50  0000 C CNN
F 2 "" H 7150 3600 50  0001 C CNN
F 3 "" H 7150 3600 50  0001 C CNN
	1    7150 3600
	1    0    0    -1  
$EndComp
Wire Wire Line
	7150 3600 7150 3800
$Comp
L power:GND #PWR013
U 1 1 6122DE9E
P 6850 3600
F 0 "#PWR013" H 6850 3350 50  0001 C CNN
F 1 "GND" H 6855 3427 50  0000 C CNN
F 2 "" H 6850 3600 50  0001 C CNN
F 3 "" H 6850 3600 50  0001 C CNN
	1    6850 3600
	-1   0    0    1   
$EndComp
Wire Wire Line
	6850 3600 6850 3800
Text GLabel 7000 3600 1    50   Input ~ 0
A6
Wire Wire Line
	7000 3600 7000 3650
$Comp
L Device:R_POT RV8
U 1 1 61232275
P 7500 3800
F 0 "RV8" V 7385 3800 50  0000 C CNN
F 1 "10k" V 7294 3800 50  0000 C CNN
F 2 "Potentiometer_THT:Potentiometer_Piher_T-16L_Single_Vertical_Hole" H 7500 3800 50  0001 C CNN
F 3 "~" H 7500 3800 50  0001 C CNN
	1    7500 3800
	0    -1   -1   0   
$EndComp
$Comp
L power:+5V #PWR016
U 1 1 6123227B
P 7650 3600
F 0 "#PWR016" H 7650 3450 50  0001 C CNN
F 1 "+5V" H 7665 3773 50  0000 C CNN
F 2 "" H 7650 3600 50  0001 C CNN
F 3 "" H 7650 3600 50  0001 C CNN
	1    7650 3600
	1    0    0    -1  
$EndComp
Wire Wire Line
	7650 3600 7650 3800
$Comp
L power:GND #PWR015
U 1 1 61232282
P 7350 3600
F 0 "#PWR015" H 7350 3350 50  0001 C CNN
F 1 "GND" H 7355 3427 50  0000 C CNN
F 2 "" H 7350 3600 50  0001 C CNN
F 3 "" H 7350 3600 50  0001 C CNN
	1    7350 3600
	-1   0    0    1   
$EndComp
Wire Wire Line
	7350 3600 7350 3800
Text GLabel 7500 3600 1    50   Input ~ 0
A7
Wire Wire Line
	7500 3600 7500 3650
$Comp
L Connector:Conn_01x08_Female J1
U 1 1 61229DF2
P 4400 2700
F 0 "J1" H 4428 2676 50  0000 L CNN
F 1 "Pot" H 4428 2585 50  0000 L CNN
F 2 "Connector_PinHeader_2.54mm:PinHeader_1x08_P2.54mm_Horizontal" H 4400 2700 50  0001 C CNN
F 3 "~" H 4400 2700 50  0001 C CNN
	1    4400 2700
	1    0    0    -1  
$EndComp
Wire Wire Line
	4200 2400 4000 2400
Wire Wire Line
	4200 2500 4000 2500
Wire Wire Line
	4200 2600 4000 2600
Wire Wire Line
	4200 2700 4000 2700
Wire Wire Line
	4200 2800 4000 2800
Wire Wire Line
	4200 2900 4000 2900
Wire Wire Line
	4200 3000 4000 3000
Wire Wire Line
	4200 3100 4000 3100
Text GLabel 4000 2400 0    50   Input ~ 0
A0
Text GLabel 4000 2500 0    50   Input ~ 0
A1
Text GLabel 4000 2600 0    50   Input ~ 0
A2
Text GLabel 4000 2700 0    50   Input ~ 0
A3
Text GLabel 4000 2800 0    50   Input ~ 0
A4
Text GLabel 4000 2900 0    50   Input ~ 0
A5
Text GLabel 4000 3000 0    50   Input ~ 0
A6
Text GLabel 4000 3100 0    50   Input ~ 0
A7
$Comp
L Connector:Conn_01x02_Male J2
U 1 1 612542C3
P 5150 2850
F 0 "J2" H 5122 2732 50  0000 R CNN
F 1 "5V" H 5122 2823 50  0000 R CNN
F 2 "Connector_PinHeader_2.54mm:PinHeader_1x02_P2.54mm_Horizontal" H 5150 2850 50  0001 C CNN
F 3 "~" H 5150 2850 50  0001 C CNN
	1    5150 2850
	-1   0    0    1   
$EndComp
$Comp
L power:+5V #PWR017
U 1 1 612557FA
P 4850 2750
F 0 "#PWR017" H 4850 2600 50  0001 C CNN
F 1 "+5V" H 4865 2923 50  0000 C CNN
F 2 "" H 4850 2750 50  0001 C CNN
F 3 "" H 4850 2750 50  0001 C CNN
	1    4850 2750
	1    0    0    -1  
$EndComp
$Comp
L power:GND #PWR018
U 1 1 61255FE3
P 4850 2850
F 0 "#PWR018" H 4850 2600 50  0001 C CNN
F 1 "GND" H 4855 2677 50  0000 C CNN
F 2 "" H 4850 2850 50  0001 C CNN
F 3 "" H 4850 2850 50  0001 C CNN
	1    4850 2850
	1    0    0    -1  
$EndComp
Wire Wire Line
	4950 2750 4850 2750
Wire Wire Line
	4950 2850 4850 2850
$Comp
L power:+5V #PWR0101
U 1 1 6125E6D3
P 5600 2750
F 0 "#PWR0101" H 5600 2600 50  0001 C CNN
F 1 "+5V" H 5615 2923 50  0000 C CNN
F 2 "" H 5600 2750 50  0001 C CNN
F 3 "" H 5600 2750 50  0001 C CNN
	1    5600 2750
	1    0    0    -1  
$EndComp
$Comp
L power:GND #PWR0102
U 1 1 6125ECB7
P 6000 2750
F 0 "#PWR0102" H 6000 2500 50  0001 C CNN
F 1 "GND" H 6005 2577 50  0000 C CNN
F 2 "" H 6000 2750 50  0001 C CNN
F 3 "" H 6000 2750 50  0001 C CNN
	1    6000 2750
	-1   0    0    1   
$EndComp
$Comp
L power:PWR_FLAG #FLG0101
U 1 1 6125FA56
P 6000 2900
F 0 "#FLG0101" H 6000 2975 50  0001 C CNN
F 1 "PWR_FLAG" H 6000 3073 50  0000 C CNN
F 2 "" H 6000 2900 50  0001 C CNN
F 3 "~" H 6000 2900 50  0001 C CNN
	1    6000 2900
	-1   0    0    1   
$EndComp
$Comp
L power:PWR_FLAG #FLG0102
U 1 1 6126158E
P 5600 2900
F 0 "#FLG0102" H 5600 2975 50  0001 C CNN
F 1 "PWR_FLAG" H 5600 3073 50  0000 C CNN
F 2 "" H 5600 2900 50  0001 C CNN
F 3 "~" H 5600 2900 50  0001 C CNN
	1    5600 2900
	-1   0    0    1   
$EndComp
Wire Wire Line
	5600 2750 5600 2900
Wire Wire Line
	6000 2900 6000 2750
$EndSCHEMATC
