%TF.GenerationSoftware,KiCad,Pcbnew,5.1.10*%
%TF.CreationDate,2021-11-30T21:56:30-06:00*%
%TF.ProjectId,dadoInclusivo_panelizado,6461646f-496e-4636-9c75-7369766f5f70,rev?*%
%TF.SameCoordinates,Original*%
%TF.FileFunction,Soldermask,Top*%
%TF.FilePolarity,Negative*%
%FSLAX46Y46*%
G04 Gerber Fmt 4.6, Leading zero omitted, Abs format (unit mm)*
G04 Created by KiCad (PCBNEW 5.1.10) date 2021-11-30 21:56:30*
%MOMM*%
%LPD*%
G01*
G04 APERTURE LIST*
%TA.AperFunction,Profile*%
%ADD10C,0.050000*%
%TD*%
%ADD11C,0.500000*%
%ADD12C,2.100000*%
%ADD13R,1.700000X1.700000*%
%ADD14O,1.700000X1.700000*%
%ADD15C,0.800000*%
G04 APERTURE END LIST*
D10*
X181000000Y-144000000D02*
X181000000Y-148000000D01*
X181000000Y-112000000D02*
X181000000Y-116000000D01*
X181000000Y-80000000D02*
X181000000Y-84000000D01*
X169000000Y-161000000D02*
X173000000Y-161000000D01*
X154000000Y-161000000D02*
X158000000Y-161000000D01*
X132000000Y-161000000D02*
X136000000Y-161000000D01*
X117000000Y-161000000D02*
X121000000Y-161000000D01*
X109000000Y-144000000D02*
X109000000Y-148000000D01*
X109000000Y-112000000D02*
X109000000Y-116000000D01*
X109000000Y-80000000D02*
X109000000Y-84000000D01*
X121000000Y-67000000D02*
X117000000Y-67000000D01*
X136000000Y-67000000D02*
X132000000Y-67000000D01*
X158000000Y-67000000D02*
X154000000Y-67000000D01*
X173000000Y-67000000D02*
X169000000Y-67000000D01*
X154000000Y-161000000D02*
X146000000Y-161000000D01*
X117000000Y-161000000D02*
X109000000Y-161000000D01*
X154000000Y-129000000D02*
X146000000Y-129000000D01*
X117000000Y-129000000D02*
X109000000Y-129000000D01*
X154000000Y-97000000D02*
X146000000Y-97000000D01*
X181000000Y-161000000D02*
X173000000Y-161000000D01*
X144000000Y-161000000D02*
X136000000Y-161000000D01*
X181000000Y-129000000D02*
X173000000Y-129000000D01*
X144000000Y-129000000D02*
X136000000Y-129000000D01*
X181000000Y-97000000D02*
X173000000Y-97000000D01*
X181000000Y-148000000D02*
X181000000Y-161000000D01*
X144000000Y-148000000D02*
X144000000Y-161000000D01*
X181000000Y-116000000D02*
X181000000Y-129000000D01*
X144000000Y-116000000D02*
X144000000Y-129000000D01*
X181000000Y-84000000D02*
X181000000Y-97000000D01*
X169000000Y-161000000D02*
X158000000Y-161000000D01*
X132000000Y-161000000D02*
X121000000Y-161000000D01*
X169000000Y-129000000D02*
X158000000Y-129000000D01*
X132000000Y-129000000D02*
X121000000Y-129000000D01*
X169000000Y-97000000D02*
X158000000Y-97000000D01*
X146000000Y-161000000D02*
X146000000Y-148000000D01*
X109000000Y-161000000D02*
X109000000Y-148000000D01*
X146000000Y-129000000D02*
X146000000Y-116000000D01*
X109000000Y-129000000D02*
X109000000Y-116000000D01*
X146000000Y-97000000D02*
X146000000Y-84000000D01*
X173000000Y-131000000D02*
X181000000Y-131000000D01*
X136000000Y-131000000D02*
X144000000Y-131000000D01*
X173000000Y-99000000D02*
X181000000Y-99000000D01*
X136000000Y-99000000D02*
X144000000Y-99000000D01*
X173000000Y-67000000D02*
X181000000Y-67000000D01*
X146000000Y-144000000D02*
X146000000Y-131000000D01*
X109000000Y-144000000D02*
X109000000Y-131000000D01*
X146000000Y-112000000D02*
X146000000Y-99000000D01*
X109000000Y-112000000D02*
X109000000Y-99000000D01*
X146000000Y-80000000D02*
X146000000Y-67000000D01*
X146000000Y-131000000D02*
X154000000Y-131000000D01*
X109000000Y-131000000D02*
X117000000Y-131000000D01*
X146000000Y-99000000D02*
X154000000Y-99000000D01*
X109000000Y-99000000D02*
X117000000Y-99000000D01*
X146000000Y-67000000D02*
X154000000Y-67000000D01*
X158000000Y-131000000D02*
X169000000Y-131000000D01*
X121000000Y-131000000D02*
X132000000Y-131000000D01*
X158000000Y-99000000D02*
X169000000Y-99000000D01*
X121000000Y-99000000D02*
X132000000Y-99000000D01*
X158000000Y-67000000D02*
X169000000Y-67000000D01*
X181000000Y-131000000D02*
X181000000Y-144000000D01*
X144000000Y-131000000D02*
X144000000Y-144000000D01*
X181000000Y-99000000D02*
X181000000Y-112000000D01*
X144000000Y-99000000D02*
X144000000Y-112000000D01*
X181000000Y-67000000D02*
X181000000Y-80000000D01*
X121000000Y-67000000D02*
X132000000Y-67000000D01*
X109000000Y-67000000D02*
X117000000Y-67000000D01*
X109000000Y-80000000D02*
X109000000Y-67000000D01*
X109000000Y-97000000D02*
X109000000Y-84000000D01*
X117000000Y-97000000D02*
X109000000Y-97000000D01*
X132000000Y-97000000D02*
X121000000Y-97000000D01*
X144000000Y-97000000D02*
X136000000Y-97000000D01*
X144000000Y-84000000D02*
X144000000Y-97000000D01*
X144000000Y-67000000D02*
X144000000Y-80000000D01*
X136000000Y-67000000D02*
X144000000Y-67000000D01*
D11*
%TO.C,mouse-bite-2mm-slot*%
X144250000Y-146000000D03*
X145750000Y-146000000D03*
X144250000Y-145250000D03*
X144250000Y-146750000D03*
X145750000Y-146750000D03*
X145750000Y-145250000D03*
%TD*%
%TO.C,mouse-bite-2mm-slot*%
X144250000Y-114000000D03*
X145750000Y-114000000D03*
X144250000Y-113250000D03*
X144250000Y-114750000D03*
X145750000Y-114750000D03*
X145750000Y-113250000D03*
%TD*%
%TO.C,mouse-bite-2mm-slot*%
X144250000Y-82000000D03*
X145750000Y-82000000D03*
X144250000Y-81250000D03*
X144250000Y-82750000D03*
X145750000Y-82750000D03*
X145750000Y-81250000D03*
%TD*%
%TO.C,D6*%
G36*
G01*
X172050000Y-152250001D02*
X172050000Y-151349999D01*
G75*
G02*
X172299999Y-151100000I249999J0D01*
G01*
X172950001Y-151100000D01*
G75*
G02*
X173200000Y-151349999I0J-249999D01*
G01*
X173200000Y-152250001D01*
G75*
G02*
X172950001Y-152500000I-249999J0D01*
G01*
X172299999Y-152500000D01*
G75*
G02*
X172050000Y-152250001I0J249999D01*
G01*
G37*
G36*
G01*
X174100000Y-152250001D02*
X174100000Y-151349999D01*
G75*
G02*
X174349999Y-151100000I249999J0D01*
G01*
X175000001Y-151100000D01*
G75*
G02*
X175250000Y-151349999I0J-249999D01*
G01*
X175250000Y-152250001D01*
G75*
G02*
X175000001Y-152500000I-249999J0D01*
G01*
X174349999Y-152500000D01*
G75*
G02*
X174100000Y-152250001I0J249999D01*
G01*
G37*
%TD*%
%TO.C,D6*%
G36*
G01*
X135050000Y-152250001D02*
X135050000Y-151349999D01*
G75*
G02*
X135299999Y-151100000I249999J0D01*
G01*
X135950001Y-151100000D01*
G75*
G02*
X136200000Y-151349999I0J-249999D01*
G01*
X136200000Y-152250001D01*
G75*
G02*
X135950001Y-152500000I-249999J0D01*
G01*
X135299999Y-152500000D01*
G75*
G02*
X135050000Y-152250001I0J249999D01*
G01*
G37*
G36*
G01*
X137100000Y-152250001D02*
X137100000Y-151349999D01*
G75*
G02*
X137349999Y-151100000I249999J0D01*
G01*
X138000001Y-151100000D01*
G75*
G02*
X138250000Y-151349999I0J-249999D01*
G01*
X138250000Y-152250001D01*
G75*
G02*
X138000001Y-152500000I-249999J0D01*
G01*
X137349999Y-152500000D01*
G75*
G02*
X137100000Y-152250001I0J249999D01*
G01*
G37*
%TD*%
%TO.C,D6*%
G36*
G01*
X172050000Y-120250001D02*
X172050000Y-119349999D01*
G75*
G02*
X172299999Y-119100000I249999J0D01*
G01*
X172950001Y-119100000D01*
G75*
G02*
X173200000Y-119349999I0J-249999D01*
G01*
X173200000Y-120250001D01*
G75*
G02*
X172950001Y-120500000I-249999J0D01*
G01*
X172299999Y-120500000D01*
G75*
G02*
X172050000Y-120250001I0J249999D01*
G01*
G37*
G36*
G01*
X174100000Y-120250001D02*
X174100000Y-119349999D01*
G75*
G02*
X174349999Y-119100000I249999J0D01*
G01*
X175000001Y-119100000D01*
G75*
G02*
X175250000Y-119349999I0J-249999D01*
G01*
X175250000Y-120250001D01*
G75*
G02*
X175000001Y-120500000I-249999J0D01*
G01*
X174349999Y-120500000D01*
G75*
G02*
X174100000Y-120250001I0J249999D01*
G01*
G37*
%TD*%
%TO.C,D6*%
G36*
G01*
X135050000Y-120250001D02*
X135050000Y-119349999D01*
G75*
G02*
X135299999Y-119100000I249999J0D01*
G01*
X135950001Y-119100000D01*
G75*
G02*
X136200000Y-119349999I0J-249999D01*
G01*
X136200000Y-120250001D01*
G75*
G02*
X135950001Y-120500000I-249999J0D01*
G01*
X135299999Y-120500000D01*
G75*
G02*
X135050000Y-120250001I0J249999D01*
G01*
G37*
G36*
G01*
X137100000Y-120250001D02*
X137100000Y-119349999D01*
G75*
G02*
X137349999Y-119100000I249999J0D01*
G01*
X138000001Y-119100000D01*
G75*
G02*
X138250000Y-119349999I0J-249999D01*
G01*
X138250000Y-120250001D01*
G75*
G02*
X138000001Y-120500000I-249999J0D01*
G01*
X137349999Y-120500000D01*
G75*
G02*
X137100000Y-120250001I0J249999D01*
G01*
G37*
%TD*%
%TO.C,D6*%
G36*
G01*
X172050000Y-88250001D02*
X172050000Y-87349999D01*
G75*
G02*
X172299999Y-87100000I249999J0D01*
G01*
X172950001Y-87100000D01*
G75*
G02*
X173200000Y-87349999I0J-249999D01*
G01*
X173200000Y-88250001D01*
G75*
G02*
X172950001Y-88500000I-249999J0D01*
G01*
X172299999Y-88500000D01*
G75*
G02*
X172050000Y-88250001I0J249999D01*
G01*
G37*
G36*
G01*
X174100000Y-88250001D02*
X174100000Y-87349999D01*
G75*
G02*
X174349999Y-87100000I249999J0D01*
G01*
X175000001Y-87100000D01*
G75*
G02*
X175250000Y-87349999I0J-249999D01*
G01*
X175250000Y-88250001D01*
G75*
G02*
X175000001Y-88500000I-249999J0D01*
G01*
X174349999Y-88500000D01*
G75*
G02*
X174100000Y-88250001I0J249999D01*
G01*
G37*
%TD*%
%TO.C,mouse-bite-2mm-slot*%
X171000000Y-130750000D03*
X171000000Y-129250000D03*
X170250000Y-130750000D03*
X171750000Y-130750000D03*
X171750000Y-129250000D03*
X170250000Y-129250000D03*
%TD*%
%TO.C,mouse-bite-2mm-slot*%
X134000000Y-130750000D03*
X134000000Y-129250000D03*
X133250000Y-130750000D03*
X134750000Y-130750000D03*
X134750000Y-129250000D03*
X133250000Y-129250000D03*
%TD*%
%TO.C,mouse-bite-2mm-slot*%
X171000000Y-98750000D03*
X171000000Y-97250000D03*
X170250000Y-98750000D03*
X171750000Y-98750000D03*
X171750000Y-97250000D03*
X170250000Y-97250000D03*
%TD*%
%TO.C,mouse-bite-2mm-slot*%
X134000000Y-98750000D03*
X134000000Y-97250000D03*
X133250000Y-98750000D03*
X134750000Y-98750000D03*
X134750000Y-97250000D03*
X133250000Y-97250000D03*
%TD*%
%TO.C,D3*%
G36*
G01*
X154950000Y-151349999D02*
X154950000Y-152250001D01*
G75*
G02*
X154700001Y-152500000I-249999J0D01*
G01*
X154049999Y-152500000D01*
G75*
G02*
X153800000Y-152250001I0J249999D01*
G01*
X153800000Y-151349999D01*
G75*
G02*
X154049999Y-151100000I249999J0D01*
G01*
X154700001Y-151100000D01*
G75*
G02*
X154950000Y-151349999I0J-249999D01*
G01*
G37*
G36*
G01*
X152900000Y-151349999D02*
X152900000Y-152250001D01*
G75*
G02*
X152650001Y-152500000I-249999J0D01*
G01*
X151999999Y-152500000D01*
G75*
G02*
X151750000Y-152250001I0J249999D01*
G01*
X151750000Y-151349999D01*
G75*
G02*
X151999999Y-151100000I249999J0D01*
G01*
X152650001Y-151100000D01*
G75*
G02*
X152900000Y-151349999I0J-249999D01*
G01*
G37*
%TD*%
%TO.C,D3*%
G36*
G01*
X117950000Y-151349999D02*
X117950000Y-152250001D01*
G75*
G02*
X117700001Y-152500000I-249999J0D01*
G01*
X117049999Y-152500000D01*
G75*
G02*
X116800000Y-152250001I0J249999D01*
G01*
X116800000Y-151349999D01*
G75*
G02*
X117049999Y-151100000I249999J0D01*
G01*
X117700001Y-151100000D01*
G75*
G02*
X117950000Y-151349999I0J-249999D01*
G01*
G37*
G36*
G01*
X115900000Y-151349999D02*
X115900000Y-152250001D01*
G75*
G02*
X115650001Y-152500000I-249999J0D01*
G01*
X114999999Y-152500000D01*
G75*
G02*
X114750000Y-152250001I0J249999D01*
G01*
X114750000Y-151349999D01*
G75*
G02*
X114999999Y-151100000I249999J0D01*
G01*
X115650001Y-151100000D01*
G75*
G02*
X115900000Y-151349999I0J-249999D01*
G01*
G37*
%TD*%
%TO.C,D3*%
G36*
G01*
X154950000Y-119349999D02*
X154950000Y-120250001D01*
G75*
G02*
X154700001Y-120500000I-249999J0D01*
G01*
X154049999Y-120500000D01*
G75*
G02*
X153800000Y-120250001I0J249999D01*
G01*
X153800000Y-119349999D01*
G75*
G02*
X154049999Y-119100000I249999J0D01*
G01*
X154700001Y-119100000D01*
G75*
G02*
X154950000Y-119349999I0J-249999D01*
G01*
G37*
G36*
G01*
X152900000Y-119349999D02*
X152900000Y-120250001D01*
G75*
G02*
X152650001Y-120500000I-249999J0D01*
G01*
X151999999Y-120500000D01*
G75*
G02*
X151750000Y-120250001I0J249999D01*
G01*
X151750000Y-119349999D01*
G75*
G02*
X151999999Y-119100000I249999J0D01*
G01*
X152650001Y-119100000D01*
G75*
G02*
X152900000Y-119349999I0J-249999D01*
G01*
G37*
%TD*%
%TO.C,D3*%
G36*
G01*
X117950000Y-119349999D02*
X117950000Y-120250001D01*
G75*
G02*
X117700001Y-120500000I-249999J0D01*
G01*
X117049999Y-120500000D01*
G75*
G02*
X116800000Y-120250001I0J249999D01*
G01*
X116800000Y-119349999D01*
G75*
G02*
X117049999Y-119100000I249999J0D01*
G01*
X117700001Y-119100000D01*
G75*
G02*
X117950000Y-119349999I0J-249999D01*
G01*
G37*
G36*
G01*
X115900000Y-119349999D02*
X115900000Y-120250001D01*
G75*
G02*
X115650001Y-120500000I-249999J0D01*
G01*
X114999999Y-120500000D01*
G75*
G02*
X114750000Y-120250001I0J249999D01*
G01*
X114750000Y-119349999D01*
G75*
G02*
X114999999Y-119100000I249999J0D01*
G01*
X115650001Y-119100000D01*
G75*
G02*
X115900000Y-119349999I0J-249999D01*
G01*
G37*
%TD*%
%TO.C,D3*%
G36*
G01*
X154950000Y-87349999D02*
X154950000Y-88250001D01*
G75*
G02*
X154700001Y-88500000I-249999J0D01*
G01*
X154049999Y-88500000D01*
G75*
G02*
X153800000Y-88250001I0J249999D01*
G01*
X153800000Y-87349999D01*
G75*
G02*
X154049999Y-87100000I249999J0D01*
G01*
X154700001Y-87100000D01*
G75*
G02*
X154950000Y-87349999I0J-249999D01*
G01*
G37*
G36*
G01*
X152900000Y-87349999D02*
X152900000Y-88250001D01*
G75*
G02*
X152650001Y-88500000I-249999J0D01*
G01*
X151999999Y-88500000D01*
G75*
G02*
X151750000Y-88250001I0J249999D01*
G01*
X151750000Y-87349999D01*
G75*
G02*
X151999999Y-87100000I249999J0D01*
G01*
X152650001Y-87100000D01*
G75*
G02*
X152900000Y-87349999I0J-249999D01*
G01*
G37*
%TD*%
%TO.C,D4*%
G36*
G01*
X172050000Y-138825001D02*
X172050000Y-137924999D01*
G75*
G02*
X172299999Y-137675000I249999J0D01*
G01*
X172950001Y-137675000D01*
G75*
G02*
X173200000Y-137924999I0J-249999D01*
G01*
X173200000Y-138825001D01*
G75*
G02*
X172950001Y-139075000I-249999J0D01*
G01*
X172299999Y-139075000D01*
G75*
G02*
X172050000Y-138825001I0J249999D01*
G01*
G37*
G36*
G01*
X174100000Y-138825001D02*
X174100000Y-137924999D01*
G75*
G02*
X174349999Y-137675000I249999J0D01*
G01*
X175000001Y-137675000D01*
G75*
G02*
X175250000Y-137924999I0J-249999D01*
G01*
X175250000Y-138825001D01*
G75*
G02*
X175000001Y-139075000I-249999J0D01*
G01*
X174349999Y-139075000D01*
G75*
G02*
X174100000Y-138825001I0J249999D01*
G01*
G37*
%TD*%
%TO.C,D4*%
G36*
G01*
X135050000Y-138825001D02*
X135050000Y-137924999D01*
G75*
G02*
X135299999Y-137675000I249999J0D01*
G01*
X135950001Y-137675000D01*
G75*
G02*
X136200000Y-137924999I0J-249999D01*
G01*
X136200000Y-138825001D01*
G75*
G02*
X135950001Y-139075000I-249999J0D01*
G01*
X135299999Y-139075000D01*
G75*
G02*
X135050000Y-138825001I0J249999D01*
G01*
G37*
G36*
G01*
X137100000Y-138825001D02*
X137100000Y-137924999D01*
G75*
G02*
X137349999Y-137675000I249999J0D01*
G01*
X138000001Y-137675000D01*
G75*
G02*
X138250000Y-137924999I0J-249999D01*
G01*
X138250000Y-138825001D01*
G75*
G02*
X138000001Y-139075000I-249999J0D01*
G01*
X137349999Y-139075000D01*
G75*
G02*
X137100000Y-138825001I0J249999D01*
G01*
G37*
%TD*%
%TO.C,D4*%
G36*
G01*
X172050000Y-106825001D02*
X172050000Y-105924999D01*
G75*
G02*
X172299999Y-105675000I249999J0D01*
G01*
X172950001Y-105675000D01*
G75*
G02*
X173200000Y-105924999I0J-249999D01*
G01*
X173200000Y-106825001D01*
G75*
G02*
X172950001Y-107075000I-249999J0D01*
G01*
X172299999Y-107075000D01*
G75*
G02*
X172050000Y-106825001I0J249999D01*
G01*
G37*
G36*
G01*
X174100000Y-106825001D02*
X174100000Y-105924999D01*
G75*
G02*
X174349999Y-105675000I249999J0D01*
G01*
X175000001Y-105675000D01*
G75*
G02*
X175250000Y-105924999I0J-249999D01*
G01*
X175250000Y-106825001D01*
G75*
G02*
X175000001Y-107075000I-249999J0D01*
G01*
X174349999Y-107075000D01*
G75*
G02*
X174100000Y-106825001I0J249999D01*
G01*
G37*
%TD*%
%TO.C,D4*%
G36*
G01*
X135050000Y-106825001D02*
X135050000Y-105924999D01*
G75*
G02*
X135299999Y-105675000I249999J0D01*
G01*
X135950001Y-105675000D01*
G75*
G02*
X136200000Y-105924999I0J-249999D01*
G01*
X136200000Y-106825001D01*
G75*
G02*
X135950001Y-107075000I-249999J0D01*
G01*
X135299999Y-107075000D01*
G75*
G02*
X135050000Y-106825001I0J249999D01*
G01*
G37*
G36*
G01*
X137100000Y-106825001D02*
X137100000Y-105924999D01*
G75*
G02*
X137349999Y-105675000I249999J0D01*
G01*
X138000001Y-105675000D01*
G75*
G02*
X138250000Y-105924999I0J-249999D01*
G01*
X138250000Y-106825001D01*
G75*
G02*
X138000001Y-107075000I-249999J0D01*
G01*
X137349999Y-107075000D01*
G75*
G02*
X137100000Y-106825001I0J249999D01*
G01*
G37*
%TD*%
%TO.C,D4*%
G36*
G01*
X172050000Y-74825001D02*
X172050000Y-73924999D01*
G75*
G02*
X172299999Y-73675000I249999J0D01*
G01*
X172950001Y-73675000D01*
G75*
G02*
X173200000Y-73924999I0J-249999D01*
G01*
X173200000Y-74825001D01*
G75*
G02*
X172950001Y-75075000I-249999J0D01*
G01*
X172299999Y-75075000D01*
G75*
G02*
X172050000Y-74825001I0J249999D01*
G01*
G37*
G36*
G01*
X174100000Y-74825001D02*
X174100000Y-73924999D01*
G75*
G02*
X174349999Y-73675000I249999J0D01*
G01*
X175000001Y-73675000D01*
G75*
G02*
X175250000Y-73924999I0J-249999D01*
G01*
X175250000Y-74825001D01*
G75*
G02*
X175000001Y-75075000I-249999J0D01*
G01*
X174349999Y-75075000D01*
G75*
G02*
X174100000Y-74825001I0J249999D01*
G01*
G37*
%TD*%
%TO.C,R1*%
G36*
G01*
X151750000Y-142150001D02*
X151750000Y-141249999D01*
G75*
G02*
X151999999Y-141000000I249999J0D01*
G01*
X152700001Y-141000000D01*
G75*
G02*
X152950000Y-141249999I0J-249999D01*
G01*
X152950000Y-142150001D01*
G75*
G02*
X152700001Y-142400000I-249999J0D01*
G01*
X151999999Y-142400000D01*
G75*
G02*
X151750000Y-142150001I0J249999D01*
G01*
G37*
G36*
G01*
X153750000Y-142150001D02*
X153750000Y-141249999D01*
G75*
G02*
X153999999Y-141000000I249999J0D01*
G01*
X154700001Y-141000000D01*
G75*
G02*
X154950000Y-141249999I0J-249999D01*
G01*
X154950000Y-142150001D01*
G75*
G02*
X154700001Y-142400000I-249999J0D01*
G01*
X153999999Y-142400000D01*
G75*
G02*
X153750000Y-142150001I0J249999D01*
G01*
G37*
%TD*%
%TO.C,R1*%
G36*
G01*
X114750000Y-142150001D02*
X114750000Y-141249999D01*
G75*
G02*
X114999999Y-141000000I249999J0D01*
G01*
X115700001Y-141000000D01*
G75*
G02*
X115950000Y-141249999I0J-249999D01*
G01*
X115950000Y-142150001D01*
G75*
G02*
X115700001Y-142400000I-249999J0D01*
G01*
X114999999Y-142400000D01*
G75*
G02*
X114750000Y-142150001I0J249999D01*
G01*
G37*
G36*
G01*
X116750000Y-142150001D02*
X116750000Y-141249999D01*
G75*
G02*
X116999999Y-141000000I249999J0D01*
G01*
X117700001Y-141000000D01*
G75*
G02*
X117950000Y-141249999I0J-249999D01*
G01*
X117950000Y-142150001D01*
G75*
G02*
X117700001Y-142400000I-249999J0D01*
G01*
X116999999Y-142400000D01*
G75*
G02*
X116750000Y-142150001I0J249999D01*
G01*
G37*
%TD*%
%TO.C,R1*%
G36*
G01*
X151750000Y-110150001D02*
X151750000Y-109249999D01*
G75*
G02*
X151999999Y-109000000I249999J0D01*
G01*
X152700001Y-109000000D01*
G75*
G02*
X152950000Y-109249999I0J-249999D01*
G01*
X152950000Y-110150001D01*
G75*
G02*
X152700001Y-110400000I-249999J0D01*
G01*
X151999999Y-110400000D01*
G75*
G02*
X151750000Y-110150001I0J249999D01*
G01*
G37*
G36*
G01*
X153750000Y-110150001D02*
X153750000Y-109249999D01*
G75*
G02*
X153999999Y-109000000I249999J0D01*
G01*
X154700001Y-109000000D01*
G75*
G02*
X154950000Y-109249999I0J-249999D01*
G01*
X154950000Y-110150001D01*
G75*
G02*
X154700001Y-110400000I-249999J0D01*
G01*
X153999999Y-110400000D01*
G75*
G02*
X153750000Y-110150001I0J249999D01*
G01*
G37*
%TD*%
%TO.C,R1*%
G36*
G01*
X114750000Y-110150001D02*
X114750000Y-109249999D01*
G75*
G02*
X114999999Y-109000000I249999J0D01*
G01*
X115700001Y-109000000D01*
G75*
G02*
X115950000Y-109249999I0J-249999D01*
G01*
X115950000Y-110150001D01*
G75*
G02*
X115700001Y-110400000I-249999J0D01*
G01*
X114999999Y-110400000D01*
G75*
G02*
X114750000Y-110150001I0J249999D01*
G01*
G37*
G36*
G01*
X116750000Y-110150001D02*
X116750000Y-109249999D01*
G75*
G02*
X116999999Y-109000000I249999J0D01*
G01*
X117700001Y-109000000D01*
G75*
G02*
X117950000Y-109249999I0J-249999D01*
G01*
X117950000Y-110150001D01*
G75*
G02*
X117700001Y-110400000I-249999J0D01*
G01*
X116999999Y-110400000D01*
G75*
G02*
X116750000Y-110150001I0J249999D01*
G01*
G37*
%TD*%
%TO.C,R1*%
G36*
G01*
X151750000Y-78150001D02*
X151750000Y-77249999D01*
G75*
G02*
X151999999Y-77000000I249999J0D01*
G01*
X152700001Y-77000000D01*
G75*
G02*
X152950000Y-77249999I0J-249999D01*
G01*
X152950000Y-78150001D01*
G75*
G02*
X152700001Y-78400000I-249999J0D01*
G01*
X151999999Y-78400000D01*
G75*
G02*
X151750000Y-78150001I0J249999D01*
G01*
G37*
G36*
G01*
X153750000Y-78150001D02*
X153750000Y-77249999D01*
G75*
G02*
X153999999Y-77000000I249999J0D01*
G01*
X154700001Y-77000000D01*
G75*
G02*
X154950000Y-77249999I0J-249999D01*
G01*
X154950000Y-78150001D01*
G75*
G02*
X154700001Y-78400000I-249999J0D01*
G01*
X153999999Y-78400000D01*
G75*
G02*
X153750000Y-78150001I0J249999D01*
G01*
G37*
%TD*%
%TO.C,D1*%
G36*
G01*
X154950000Y-137949999D02*
X154950000Y-138850001D01*
G75*
G02*
X154700001Y-139100000I-249999J0D01*
G01*
X154049999Y-139100000D01*
G75*
G02*
X153800000Y-138850001I0J249999D01*
G01*
X153800000Y-137949999D01*
G75*
G02*
X154049999Y-137700000I249999J0D01*
G01*
X154700001Y-137700000D01*
G75*
G02*
X154950000Y-137949999I0J-249999D01*
G01*
G37*
G36*
G01*
X152900000Y-137949999D02*
X152900000Y-138850001D01*
G75*
G02*
X152650001Y-139100000I-249999J0D01*
G01*
X151999999Y-139100000D01*
G75*
G02*
X151750000Y-138850001I0J249999D01*
G01*
X151750000Y-137949999D01*
G75*
G02*
X151999999Y-137700000I249999J0D01*
G01*
X152650001Y-137700000D01*
G75*
G02*
X152900000Y-137949999I0J-249999D01*
G01*
G37*
%TD*%
%TO.C,D1*%
G36*
G01*
X117950000Y-137949999D02*
X117950000Y-138850001D01*
G75*
G02*
X117700001Y-139100000I-249999J0D01*
G01*
X117049999Y-139100000D01*
G75*
G02*
X116800000Y-138850001I0J249999D01*
G01*
X116800000Y-137949999D01*
G75*
G02*
X117049999Y-137700000I249999J0D01*
G01*
X117700001Y-137700000D01*
G75*
G02*
X117950000Y-137949999I0J-249999D01*
G01*
G37*
G36*
G01*
X115900000Y-137949999D02*
X115900000Y-138850001D01*
G75*
G02*
X115650001Y-139100000I-249999J0D01*
G01*
X114999999Y-139100000D01*
G75*
G02*
X114750000Y-138850001I0J249999D01*
G01*
X114750000Y-137949999D01*
G75*
G02*
X114999999Y-137700000I249999J0D01*
G01*
X115650001Y-137700000D01*
G75*
G02*
X115900000Y-137949999I0J-249999D01*
G01*
G37*
%TD*%
%TO.C,D1*%
G36*
G01*
X154950000Y-105949999D02*
X154950000Y-106850001D01*
G75*
G02*
X154700001Y-107100000I-249999J0D01*
G01*
X154049999Y-107100000D01*
G75*
G02*
X153800000Y-106850001I0J249999D01*
G01*
X153800000Y-105949999D01*
G75*
G02*
X154049999Y-105700000I249999J0D01*
G01*
X154700001Y-105700000D01*
G75*
G02*
X154950000Y-105949999I0J-249999D01*
G01*
G37*
G36*
G01*
X152900000Y-105949999D02*
X152900000Y-106850001D01*
G75*
G02*
X152650001Y-107100000I-249999J0D01*
G01*
X151999999Y-107100000D01*
G75*
G02*
X151750000Y-106850001I0J249999D01*
G01*
X151750000Y-105949999D01*
G75*
G02*
X151999999Y-105700000I249999J0D01*
G01*
X152650001Y-105700000D01*
G75*
G02*
X152900000Y-105949999I0J-249999D01*
G01*
G37*
%TD*%
%TO.C,D1*%
G36*
G01*
X117950000Y-105949999D02*
X117950000Y-106850001D01*
G75*
G02*
X117700001Y-107100000I-249999J0D01*
G01*
X117049999Y-107100000D01*
G75*
G02*
X116800000Y-106850001I0J249999D01*
G01*
X116800000Y-105949999D01*
G75*
G02*
X117049999Y-105700000I249999J0D01*
G01*
X117700001Y-105700000D01*
G75*
G02*
X117950000Y-105949999I0J-249999D01*
G01*
G37*
G36*
G01*
X115900000Y-105949999D02*
X115900000Y-106850001D01*
G75*
G02*
X115650001Y-107100000I-249999J0D01*
G01*
X114999999Y-107100000D01*
G75*
G02*
X114750000Y-106850001I0J249999D01*
G01*
X114750000Y-105949999D01*
G75*
G02*
X114999999Y-105700000I249999J0D01*
G01*
X115650001Y-105700000D01*
G75*
G02*
X115900000Y-105949999I0J-249999D01*
G01*
G37*
%TD*%
%TO.C,D1*%
G36*
G01*
X154950000Y-73949999D02*
X154950000Y-74850001D01*
G75*
G02*
X154700001Y-75100000I-249999J0D01*
G01*
X154049999Y-75100000D01*
G75*
G02*
X153800000Y-74850001I0J249999D01*
G01*
X153800000Y-73949999D01*
G75*
G02*
X154049999Y-73700000I249999J0D01*
G01*
X154700001Y-73700000D01*
G75*
G02*
X154950000Y-73949999I0J-249999D01*
G01*
G37*
G36*
G01*
X152900000Y-73949999D02*
X152900000Y-74850001D01*
G75*
G02*
X152650001Y-75100000I-249999J0D01*
G01*
X151999999Y-75100000D01*
G75*
G02*
X151750000Y-74850001I0J249999D01*
G01*
X151750000Y-73949999D01*
G75*
G02*
X151999999Y-73700000I249999J0D01*
G01*
X152650001Y-73700000D01*
G75*
G02*
X152900000Y-73949999I0J-249999D01*
G01*
G37*
%TD*%
%TO.C,D2*%
G36*
G01*
X154950000Y-144649999D02*
X154950000Y-145550001D01*
G75*
G02*
X154700001Y-145800000I-249999J0D01*
G01*
X154049999Y-145800000D01*
G75*
G02*
X153800000Y-145550001I0J249999D01*
G01*
X153800000Y-144649999D01*
G75*
G02*
X154049999Y-144400000I249999J0D01*
G01*
X154700001Y-144400000D01*
G75*
G02*
X154950000Y-144649999I0J-249999D01*
G01*
G37*
G36*
G01*
X152900000Y-144649999D02*
X152900000Y-145550001D01*
G75*
G02*
X152650001Y-145800000I-249999J0D01*
G01*
X151999999Y-145800000D01*
G75*
G02*
X151750000Y-145550001I0J249999D01*
G01*
X151750000Y-144649999D01*
G75*
G02*
X151999999Y-144400000I249999J0D01*
G01*
X152650001Y-144400000D01*
G75*
G02*
X152900000Y-144649999I0J-249999D01*
G01*
G37*
%TD*%
%TO.C,D2*%
G36*
G01*
X117950000Y-144649999D02*
X117950000Y-145550001D01*
G75*
G02*
X117700001Y-145800000I-249999J0D01*
G01*
X117049999Y-145800000D01*
G75*
G02*
X116800000Y-145550001I0J249999D01*
G01*
X116800000Y-144649999D01*
G75*
G02*
X117049999Y-144400000I249999J0D01*
G01*
X117700001Y-144400000D01*
G75*
G02*
X117950000Y-144649999I0J-249999D01*
G01*
G37*
G36*
G01*
X115900000Y-144649999D02*
X115900000Y-145550001D01*
G75*
G02*
X115650001Y-145800000I-249999J0D01*
G01*
X114999999Y-145800000D01*
G75*
G02*
X114750000Y-145550001I0J249999D01*
G01*
X114750000Y-144649999D01*
G75*
G02*
X114999999Y-144400000I249999J0D01*
G01*
X115650001Y-144400000D01*
G75*
G02*
X115900000Y-144649999I0J-249999D01*
G01*
G37*
%TD*%
%TO.C,D2*%
G36*
G01*
X154950000Y-112649999D02*
X154950000Y-113550001D01*
G75*
G02*
X154700001Y-113800000I-249999J0D01*
G01*
X154049999Y-113800000D01*
G75*
G02*
X153800000Y-113550001I0J249999D01*
G01*
X153800000Y-112649999D01*
G75*
G02*
X154049999Y-112400000I249999J0D01*
G01*
X154700001Y-112400000D01*
G75*
G02*
X154950000Y-112649999I0J-249999D01*
G01*
G37*
G36*
G01*
X152900000Y-112649999D02*
X152900000Y-113550001D01*
G75*
G02*
X152650001Y-113800000I-249999J0D01*
G01*
X151999999Y-113800000D01*
G75*
G02*
X151750000Y-113550001I0J249999D01*
G01*
X151750000Y-112649999D01*
G75*
G02*
X151999999Y-112400000I249999J0D01*
G01*
X152650001Y-112400000D01*
G75*
G02*
X152900000Y-112649999I0J-249999D01*
G01*
G37*
%TD*%
%TO.C,D2*%
G36*
G01*
X117950000Y-112649999D02*
X117950000Y-113550001D01*
G75*
G02*
X117700001Y-113800000I-249999J0D01*
G01*
X117049999Y-113800000D01*
G75*
G02*
X116800000Y-113550001I0J249999D01*
G01*
X116800000Y-112649999D01*
G75*
G02*
X117049999Y-112400000I249999J0D01*
G01*
X117700001Y-112400000D01*
G75*
G02*
X117950000Y-112649999I0J-249999D01*
G01*
G37*
G36*
G01*
X115900000Y-112649999D02*
X115900000Y-113550001D01*
G75*
G02*
X115650001Y-113800000I-249999J0D01*
G01*
X114999999Y-113800000D01*
G75*
G02*
X114750000Y-113550001I0J249999D01*
G01*
X114750000Y-112649999D01*
G75*
G02*
X114999999Y-112400000I249999J0D01*
G01*
X115650001Y-112400000D01*
G75*
G02*
X115900000Y-112649999I0J-249999D01*
G01*
G37*
%TD*%
%TO.C,D2*%
G36*
G01*
X154950000Y-80649999D02*
X154950000Y-81550001D01*
G75*
G02*
X154700001Y-81800000I-249999J0D01*
G01*
X154049999Y-81800000D01*
G75*
G02*
X153800000Y-81550001I0J249999D01*
G01*
X153800000Y-80649999D01*
G75*
G02*
X154049999Y-80400000I249999J0D01*
G01*
X154700001Y-80400000D01*
G75*
G02*
X154950000Y-80649999I0J-249999D01*
G01*
G37*
G36*
G01*
X152900000Y-80649999D02*
X152900000Y-81550001D01*
G75*
G02*
X152650001Y-81800000I-249999J0D01*
G01*
X151999999Y-81800000D01*
G75*
G02*
X151750000Y-81550001I0J249999D01*
G01*
X151750000Y-80649999D01*
G75*
G02*
X151999999Y-80400000I249999J0D01*
G01*
X152650001Y-80400000D01*
G75*
G02*
X152900000Y-80649999I0J-249999D01*
G01*
G37*
%TD*%
%TO.C,R5*%
G36*
G01*
X175250000Y-147949999D02*
X175250000Y-148850001D01*
G75*
G02*
X175000001Y-149100000I-249999J0D01*
G01*
X174299999Y-149100000D01*
G75*
G02*
X174050000Y-148850001I0J249999D01*
G01*
X174050000Y-147949999D01*
G75*
G02*
X174299999Y-147700000I249999J0D01*
G01*
X175000001Y-147700000D01*
G75*
G02*
X175250000Y-147949999I0J-249999D01*
G01*
G37*
G36*
G01*
X173250000Y-147949999D02*
X173250000Y-148850001D01*
G75*
G02*
X173000001Y-149100000I-249999J0D01*
G01*
X172299999Y-149100000D01*
G75*
G02*
X172050000Y-148850001I0J249999D01*
G01*
X172050000Y-147949999D01*
G75*
G02*
X172299999Y-147700000I249999J0D01*
G01*
X173000001Y-147700000D01*
G75*
G02*
X173250000Y-147949999I0J-249999D01*
G01*
G37*
%TD*%
%TO.C,R5*%
G36*
G01*
X138250000Y-147949999D02*
X138250000Y-148850001D01*
G75*
G02*
X138000001Y-149100000I-249999J0D01*
G01*
X137299999Y-149100000D01*
G75*
G02*
X137050000Y-148850001I0J249999D01*
G01*
X137050000Y-147949999D01*
G75*
G02*
X137299999Y-147700000I249999J0D01*
G01*
X138000001Y-147700000D01*
G75*
G02*
X138250000Y-147949999I0J-249999D01*
G01*
G37*
G36*
G01*
X136250000Y-147949999D02*
X136250000Y-148850001D01*
G75*
G02*
X136000001Y-149100000I-249999J0D01*
G01*
X135299999Y-149100000D01*
G75*
G02*
X135050000Y-148850001I0J249999D01*
G01*
X135050000Y-147949999D01*
G75*
G02*
X135299999Y-147700000I249999J0D01*
G01*
X136000001Y-147700000D01*
G75*
G02*
X136250000Y-147949999I0J-249999D01*
G01*
G37*
%TD*%
%TO.C,R5*%
G36*
G01*
X175250000Y-115949999D02*
X175250000Y-116850001D01*
G75*
G02*
X175000001Y-117100000I-249999J0D01*
G01*
X174299999Y-117100000D01*
G75*
G02*
X174050000Y-116850001I0J249999D01*
G01*
X174050000Y-115949999D01*
G75*
G02*
X174299999Y-115700000I249999J0D01*
G01*
X175000001Y-115700000D01*
G75*
G02*
X175250000Y-115949999I0J-249999D01*
G01*
G37*
G36*
G01*
X173250000Y-115949999D02*
X173250000Y-116850001D01*
G75*
G02*
X173000001Y-117100000I-249999J0D01*
G01*
X172299999Y-117100000D01*
G75*
G02*
X172050000Y-116850001I0J249999D01*
G01*
X172050000Y-115949999D01*
G75*
G02*
X172299999Y-115700000I249999J0D01*
G01*
X173000001Y-115700000D01*
G75*
G02*
X173250000Y-115949999I0J-249999D01*
G01*
G37*
%TD*%
%TO.C,R5*%
G36*
G01*
X138250000Y-115949999D02*
X138250000Y-116850001D01*
G75*
G02*
X138000001Y-117100000I-249999J0D01*
G01*
X137299999Y-117100000D01*
G75*
G02*
X137050000Y-116850001I0J249999D01*
G01*
X137050000Y-115949999D01*
G75*
G02*
X137299999Y-115700000I249999J0D01*
G01*
X138000001Y-115700000D01*
G75*
G02*
X138250000Y-115949999I0J-249999D01*
G01*
G37*
G36*
G01*
X136250000Y-115949999D02*
X136250000Y-116850001D01*
G75*
G02*
X136000001Y-117100000I-249999J0D01*
G01*
X135299999Y-117100000D01*
G75*
G02*
X135050000Y-116850001I0J249999D01*
G01*
X135050000Y-115949999D01*
G75*
G02*
X135299999Y-115700000I249999J0D01*
G01*
X136000001Y-115700000D01*
G75*
G02*
X136250000Y-115949999I0J-249999D01*
G01*
G37*
%TD*%
%TO.C,R5*%
G36*
G01*
X175250000Y-83949999D02*
X175250000Y-84850001D01*
G75*
G02*
X175000001Y-85100000I-249999J0D01*
G01*
X174299999Y-85100000D01*
G75*
G02*
X174050000Y-84850001I0J249999D01*
G01*
X174050000Y-83949999D01*
G75*
G02*
X174299999Y-83700000I249999J0D01*
G01*
X175000001Y-83700000D01*
G75*
G02*
X175250000Y-83949999I0J-249999D01*
G01*
G37*
G36*
G01*
X173250000Y-83949999D02*
X173250000Y-84850001D01*
G75*
G02*
X173000001Y-85100000I-249999J0D01*
G01*
X172299999Y-85100000D01*
G75*
G02*
X172050000Y-84850001I0J249999D01*
G01*
X172050000Y-83949999D01*
G75*
G02*
X172299999Y-83700000I249999J0D01*
G01*
X173000001Y-83700000D01*
G75*
G02*
X173250000Y-83949999I0J-249999D01*
G01*
G37*
%TD*%
%TO.C,R3*%
G36*
G01*
X151750000Y-155550001D02*
X151750000Y-154649999D01*
G75*
G02*
X151999999Y-154400000I249999J0D01*
G01*
X152700001Y-154400000D01*
G75*
G02*
X152950000Y-154649999I0J-249999D01*
G01*
X152950000Y-155550001D01*
G75*
G02*
X152700001Y-155800000I-249999J0D01*
G01*
X151999999Y-155800000D01*
G75*
G02*
X151750000Y-155550001I0J249999D01*
G01*
G37*
G36*
G01*
X153750000Y-155550001D02*
X153750000Y-154649999D01*
G75*
G02*
X153999999Y-154400000I249999J0D01*
G01*
X154700001Y-154400000D01*
G75*
G02*
X154950000Y-154649999I0J-249999D01*
G01*
X154950000Y-155550001D01*
G75*
G02*
X154700001Y-155800000I-249999J0D01*
G01*
X153999999Y-155800000D01*
G75*
G02*
X153750000Y-155550001I0J249999D01*
G01*
G37*
%TD*%
%TO.C,R3*%
G36*
G01*
X114750000Y-155550001D02*
X114750000Y-154649999D01*
G75*
G02*
X114999999Y-154400000I249999J0D01*
G01*
X115700001Y-154400000D01*
G75*
G02*
X115950000Y-154649999I0J-249999D01*
G01*
X115950000Y-155550001D01*
G75*
G02*
X115700001Y-155800000I-249999J0D01*
G01*
X114999999Y-155800000D01*
G75*
G02*
X114750000Y-155550001I0J249999D01*
G01*
G37*
G36*
G01*
X116750000Y-155550001D02*
X116750000Y-154649999D01*
G75*
G02*
X116999999Y-154400000I249999J0D01*
G01*
X117700001Y-154400000D01*
G75*
G02*
X117950000Y-154649999I0J-249999D01*
G01*
X117950000Y-155550001D01*
G75*
G02*
X117700001Y-155800000I-249999J0D01*
G01*
X116999999Y-155800000D01*
G75*
G02*
X116750000Y-155550001I0J249999D01*
G01*
G37*
%TD*%
%TO.C,R3*%
G36*
G01*
X151750000Y-123550001D02*
X151750000Y-122649999D01*
G75*
G02*
X151999999Y-122400000I249999J0D01*
G01*
X152700001Y-122400000D01*
G75*
G02*
X152950000Y-122649999I0J-249999D01*
G01*
X152950000Y-123550001D01*
G75*
G02*
X152700001Y-123800000I-249999J0D01*
G01*
X151999999Y-123800000D01*
G75*
G02*
X151750000Y-123550001I0J249999D01*
G01*
G37*
G36*
G01*
X153750000Y-123550001D02*
X153750000Y-122649999D01*
G75*
G02*
X153999999Y-122400000I249999J0D01*
G01*
X154700001Y-122400000D01*
G75*
G02*
X154950000Y-122649999I0J-249999D01*
G01*
X154950000Y-123550001D01*
G75*
G02*
X154700001Y-123800000I-249999J0D01*
G01*
X153999999Y-123800000D01*
G75*
G02*
X153750000Y-123550001I0J249999D01*
G01*
G37*
%TD*%
%TO.C,R3*%
G36*
G01*
X114750000Y-123550001D02*
X114750000Y-122649999D01*
G75*
G02*
X114999999Y-122400000I249999J0D01*
G01*
X115700001Y-122400000D01*
G75*
G02*
X115950000Y-122649999I0J-249999D01*
G01*
X115950000Y-123550001D01*
G75*
G02*
X115700001Y-123800000I-249999J0D01*
G01*
X114999999Y-123800000D01*
G75*
G02*
X114750000Y-123550001I0J249999D01*
G01*
G37*
G36*
G01*
X116750000Y-123550001D02*
X116750000Y-122649999D01*
G75*
G02*
X116999999Y-122400000I249999J0D01*
G01*
X117700001Y-122400000D01*
G75*
G02*
X117950000Y-122649999I0J-249999D01*
G01*
X117950000Y-123550001D01*
G75*
G02*
X117700001Y-123800000I-249999J0D01*
G01*
X116999999Y-123800000D01*
G75*
G02*
X116750000Y-123550001I0J249999D01*
G01*
G37*
%TD*%
%TO.C,R3*%
G36*
G01*
X151750000Y-91550001D02*
X151750000Y-90649999D01*
G75*
G02*
X151999999Y-90400000I249999J0D01*
G01*
X152700001Y-90400000D01*
G75*
G02*
X152950000Y-90649999I0J-249999D01*
G01*
X152950000Y-91550001D01*
G75*
G02*
X152700001Y-91800000I-249999J0D01*
G01*
X151999999Y-91800000D01*
G75*
G02*
X151750000Y-91550001I0J249999D01*
G01*
G37*
G36*
G01*
X153750000Y-91550001D02*
X153750000Y-90649999D01*
G75*
G02*
X153999999Y-90400000I249999J0D01*
G01*
X154700001Y-90400000D01*
G75*
G02*
X154950000Y-90649999I0J-249999D01*
G01*
X154950000Y-91550001D01*
G75*
G02*
X154700001Y-91800000I-249999J0D01*
G01*
X153999999Y-91800000D01*
G75*
G02*
X153750000Y-91550001I0J249999D01*
G01*
G37*
%TD*%
D12*
%TO.C,REF\u002A\u002A*%
X178500000Y-158500000D03*
%TD*%
%TO.C,REF\u002A\u002A*%
X141500000Y-158500000D03*
%TD*%
%TO.C,REF\u002A\u002A*%
X178500000Y-126500000D03*
%TD*%
%TO.C,REF\u002A\u002A*%
X141500000Y-126500000D03*
%TD*%
%TO.C,REF\u002A\u002A*%
X178500000Y-94500000D03*
%TD*%
%TO.C,REF\u002A\u002A*%
X178500000Y-133500000D03*
%TD*%
%TO.C,REF\u002A\u002A*%
X141500000Y-133500000D03*
%TD*%
%TO.C,REF\u002A\u002A*%
X178500000Y-101500000D03*
%TD*%
%TO.C,REF\u002A\u002A*%
X141500000Y-101500000D03*
%TD*%
%TO.C,REF\u002A\u002A*%
X178500000Y-69500000D03*
%TD*%
D11*
%TO.C,mouse-bite-2mm-slot*%
X156000000Y-130750000D03*
X156000000Y-129250000D03*
X155250000Y-130750000D03*
X156750000Y-130750000D03*
X156750000Y-129250000D03*
X155250000Y-129250000D03*
%TD*%
%TO.C,mouse-bite-2mm-slot*%
X119000000Y-130750000D03*
X119000000Y-129250000D03*
X118250000Y-130750000D03*
X119750000Y-130750000D03*
X119750000Y-129250000D03*
X118250000Y-129250000D03*
%TD*%
%TO.C,mouse-bite-2mm-slot*%
X156000000Y-98750000D03*
X156000000Y-97250000D03*
X155250000Y-98750000D03*
X156750000Y-98750000D03*
X156750000Y-97250000D03*
X155250000Y-97250000D03*
%TD*%
%TO.C,mouse-bite-2mm-slot*%
X119000000Y-98750000D03*
X119000000Y-97250000D03*
X118250000Y-98750000D03*
X119750000Y-98750000D03*
X119750000Y-97250000D03*
X118250000Y-97250000D03*
%TD*%
%TO.C,mouse-bite-2mm-slot*%
X170250000Y-129250000D03*
X171750000Y-129250000D03*
X171750000Y-130750000D03*
X170250000Y-130750000D03*
X171000000Y-129250000D03*
X171000000Y-130750000D03*
%TD*%
%TO.C,mouse-bite-2mm-slot*%
X133250000Y-129250000D03*
X134750000Y-129250000D03*
X134750000Y-130750000D03*
X133250000Y-130750000D03*
X134000000Y-129250000D03*
X134000000Y-130750000D03*
%TD*%
%TO.C,mouse-bite-2mm-slot*%
X170250000Y-97250000D03*
X171750000Y-97250000D03*
X171750000Y-98750000D03*
X170250000Y-98750000D03*
X171000000Y-97250000D03*
X171000000Y-98750000D03*
%TD*%
%TO.C,mouse-bite-2mm-slot*%
X145750000Y-145250000D03*
X145750000Y-146750000D03*
X144250000Y-146750000D03*
X144250000Y-145250000D03*
X145750000Y-146000000D03*
X144250000Y-146000000D03*
%TD*%
%TO.C,mouse-bite-2mm-slot*%
X145750000Y-113250000D03*
X145750000Y-114750000D03*
X144250000Y-114750000D03*
X144250000Y-113250000D03*
X145750000Y-114000000D03*
X144250000Y-114000000D03*
%TD*%
%TO.C,mouse-bite-2mm-slot*%
X155250000Y-129250000D03*
X156750000Y-129250000D03*
X156750000Y-130750000D03*
X155250000Y-130750000D03*
X156000000Y-129250000D03*
X156000000Y-130750000D03*
%TD*%
%TO.C,mouse-bite-2mm-slot*%
X118250000Y-129250000D03*
X119750000Y-129250000D03*
X119750000Y-130750000D03*
X118250000Y-130750000D03*
X119000000Y-129250000D03*
X119000000Y-130750000D03*
%TD*%
%TO.C,mouse-bite-2mm-slot*%
X155250000Y-97250000D03*
X156750000Y-97250000D03*
X156750000Y-98750000D03*
X155250000Y-98750000D03*
X156000000Y-97250000D03*
X156000000Y-98750000D03*
%TD*%
D13*
%TO.C,J1*%
X157855000Y-135200000D03*
D14*
X160395000Y-135200000D03*
X162935000Y-135200000D03*
X165475000Y-135200000D03*
X168015000Y-135200000D03*
X170555000Y-135200000D03*
%TD*%
D13*
%TO.C,J1*%
X120855000Y-135200000D03*
D14*
X123395000Y-135200000D03*
X125935000Y-135200000D03*
X128475000Y-135200000D03*
X131015000Y-135200000D03*
X133555000Y-135200000D03*
%TD*%
D13*
%TO.C,J1*%
X157855000Y-103200000D03*
D14*
X160395000Y-103200000D03*
X162935000Y-103200000D03*
X165475000Y-103200000D03*
X168015000Y-103200000D03*
X170555000Y-103200000D03*
%TD*%
D13*
%TO.C,J1*%
X120855000Y-103200000D03*
D14*
X123395000Y-103200000D03*
X125935000Y-103200000D03*
X128475000Y-103200000D03*
X131015000Y-103200000D03*
X133555000Y-103200000D03*
%TD*%
D13*
%TO.C,J1*%
X157855000Y-71200000D03*
D14*
X160395000Y-71200000D03*
X162935000Y-71200000D03*
X165475000Y-71200000D03*
X168015000Y-71200000D03*
X170555000Y-71200000D03*
%TD*%
%TO.C,D5*%
G36*
G01*
X172050000Y-145550001D02*
X172050000Y-144649999D01*
G75*
G02*
X172299999Y-144400000I249999J0D01*
G01*
X172950001Y-144400000D01*
G75*
G02*
X173200000Y-144649999I0J-249999D01*
G01*
X173200000Y-145550001D01*
G75*
G02*
X172950001Y-145800000I-249999J0D01*
G01*
X172299999Y-145800000D01*
G75*
G02*
X172050000Y-145550001I0J249999D01*
G01*
G37*
G36*
G01*
X174100000Y-145550001D02*
X174100000Y-144649999D01*
G75*
G02*
X174349999Y-144400000I249999J0D01*
G01*
X175000001Y-144400000D01*
G75*
G02*
X175250000Y-144649999I0J-249999D01*
G01*
X175250000Y-145550001D01*
G75*
G02*
X175000001Y-145800000I-249999J0D01*
G01*
X174349999Y-145800000D01*
G75*
G02*
X174100000Y-145550001I0J249999D01*
G01*
G37*
%TD*%
%TO.C,D5*%
G36*
G01*
X135050000Y-145550001D02*
X135050000Y-144649999D01*
G75*
G02*
X135299999Y-144400000I249999J0D01*
G01*
X135950001Y-144400000D01*
G75*
G02*
X136200000Y-144649999I0J-249999D01*
G01*
X136200000Y-145550001D01*
G75*
G02*
X135950001Y-145800000I-249999J0D01*
G01*
X135299999Y-145800000D01*
G75*
G02*
X135050000Y-145550001I0J249999D01*
G01*
G37*
G36*
G01*
X137100000Y-145550001D02*
X137100000Y-144649999D01*
G75*
G02*
X137349999Y-144400000I249999J0D01*
G01*
X138000001Y-144400000D01*
G75*
G02*
X138250000Y-144649999I0J-249999D01*
G01*
X138250000Y-145550001D01*
G75*
G02*
X138000001Y-145800000I-249999J0D01*
G01*
X137349999Y-145800000D01*
G75*
G02*
X137100000Y-145550001I0J249999D01*
G01*
G37*
%TD*%
%TO.C,D5*%
G36*
G01*
X172050000Y-113550001D02*
X172050000Y-112649999D01*
G75*
G02*
X172299999Y-112400000I249999J0D01*
G01*
X172950001Y-112400000D01*
G75*
G02*
X173200000Y-112649999I0J-249999D01*
G01*
X173200000Y-113550001D01*
G75*
G02*
X172950001Y-113800000I-249999J0D01*
G01*
X172299999Y-113800000D01*
G75*
G02*
X172050000Y-113550001I0J249999D01*
G01*
G37*
G36*
G01*
X174100000Y-113550001D02*
X174100000Y-112649999D01*
G75*
G02*
X174349999Y-112400000I249999J0D01*
G01*
X175000001Y-112400000D01*
G75*
G02*
X175250000Y-112649999I0J-249999D01*
G01*
X175250000Y-113550001D01*
G75*
G02*
X175000001Y-113800000I-249999J0D01*
G01*
X174349999Y-113800000D01*
G75*
G02*
X174100000Y-113550001I0J249999D01*
G01*
G37*
%TD*%
%TO.C,D5*%
G36*
G01*
X135050000Y-113550001D02*
X135050000Y-112649999D01*
G75*
G02*
X135299999Y-112400000I249999J0D01*
G01*
X135950001Y-112400000D01*
G75*
G02*
X136200000Y-112649999I0J-249999D01*
G01*
X136200000Y-113550001D01*
G75*
G02*
X135950001Y-113800000I-249999J0D01*
G01*
X135299999Y-113800000D01*
G75*
G02*
X135050000Y-113550001I0J249999D01*
G01*
G37*
G36*
G01*
X137100000Y-113550001D02*
X137100000Y-112649999D01*
G75*
G02*
X137349999Y-112400000I249999J0D01*
G01*
X138000001Y-112400000D01*
G75*
G02*
X138250000Y-112649999I0J-249999D01*
G01*
X138250000Y-113550001D01*
G75*
G02*
X138000001Y-113800000I-249999J0D01*
G01*
X137349999Y-113800000D01*
G75*
G02*
X137100000Y-113550001I0J249999D01*
G01*
G37*
%TD*%
%TO.C,D5*%
G36*
G01*
X172050000Y-81550001D02*
X172050000Y-80649999D01*
G75*
G02*
X172299999Y-80400000I249999J0D01*
G01*
X172950001Y-80400000D01*
G75*
G02*
X173200000Y-80649999I0J-249999D01*
G01*
X173200000Y-81550001D01*
G75*
G02*
X172950001Y-81800000I-249999J0D01*
G01*
X172299999Y-81800000D01*
G75*
G02*
X172050000Y-81550001I0J249999D01*
G01*
G37*
G36*
G01*
X174100000Y-81550001D02*
X174100000Y-80649999D01*
G75*
G02*
X174349999Y-80400000I249999J0D01*
G01*
X175000001Y-80400000D01*
G75*
G02*
X175250000Y-80649999I0J-249999D01*
G01*
X175250000Y-81550001D01*
G75*
G02*
X175000001Y-81800000I-249999J0D01*
G01*
X174349999Y-81800000D01*
G75*
G02*
X174100000Y-81550001I0J249999D01*
G01*
G37*
%TD*%
D12*
%TO.C,REF\u002A\u002A*%
X148500000Y-133500000D03*
%TD*%
%TO.C,REF\u002A\u002A*%
X111500000Y-133500000D03*
%TD*%
%TO.C,REF\u002A\u002A*%
X148500000Y-101500000D03*
%TD*%
%TO.C,REF\u002A\u002A*%
X111500000Y-101500000D03*
%TD*%
%TO.C,REF\u002A\u002A*%
X148500000Y-69500000D03*
%TD*%
%TO.C,R7*%
G36*
G01*
X164950000Y-147949999D02*
X164950000Y-148850001D01*
G75*
G02*
X164700001Y-149100000I-249999J0D01*
G01*
X163999999Y-149100000D01*
G75*
G02*
X163750000Y-148850001I0J249999D01*
G01*
X163750000Y-147949999D01*
G75*
G02*
X163999999Y-147700000I249999J0D01*
G01*
X164700001Y-147700000D01*
G75*
G02*
X164950000Y-147949999I0J-249999D01*
G01*
G37*
G36*
G01*
X162950000Y-147949999D02*
X162950000Y-148850001D01*
G75*
G02*
X162700001Y-149100000I-249999J0D01*
G01*
X161999999Y-149100000D01*
G75*
G02*
X161750000Y-148850001I0J249999D01*
G01*
X161750000Y-147949999D01*
G75*
G02*
X161999999Y-147700000I249999J0D01*
G01*
X162700001Y-147700000D01*
G75*
G02*
X162950000Y-147949999I0J-249999D01*
G01*
G37*
%TD*%
%TO.C,R7*%
G36*
G01*
X127950000Y-147949999D02*
X127950000Y-148850001D01*
G75*
G02*
X127700001Y-149100000I-249999J0D01*
G01*
X126999999Y-149100000D01*
G75*
G02*
X126750000Y-148850001I0J249999D01*
G01*
X126750000Y-147949999D01*
G75*
G02*
X126999999Y-147700000I249999J0D01*
G01*
X127700001Y-147700000D01*
G75*
G02*
X127950000Y-147949999I0J-249999D01*
G01*
G37*
G36*
G01*
X125950000Y-147949999D02*
X125950000Y-148850001D01*
G75*
G02*
X125700001Y-149100000I-249999J0D01*
G01*
X124999999Y-149100000D01*
G75*
G02*
X124750000Y-148850001I0J249999D01*
G01*
X124750000Y-147949999D01*
G75*
G02*
X124999999Y-147700000I249999J0D01*
G01*
X125700001Y-147700000D01*
G75*
G02*
X125950000Y-147949999I0J-249999D01*
G01*
G37*
%TD*%
%TO.C,R7*%
G36*
G01*
X164950000Y-115949999D02*
X164950000Y-116850001D01*
G75*
G02*
X164700001Y-117100000I-249999J0D01*
G01*
X163999999Y-117100000D01*
G75*
G02*
X163750000Y-116850001I0J249999D01*
G01*
X163750000Y-115949999D01*
G75*
G02*
X163999999Y-115700000I249999J0D01*
G01*
X164700001Y-115700000D01*
G75*
G02*
X164950000Y-115949999I0J-249999D01*
G01*
G37*
G36*
G01*
X162950000Y-115949999D02*
X162950000Y-116850001D01*
G75*
G02*
X162700001Y-117100000I-249999J0D01*
G01*
X161999999Y-117100000D01*
G75*
G02*
X161750000Y-116850001I0J249999D01*
G01*
X161750000Y-115949999D01*
G75*
G02*
X161999999Y-115700000I249999J0D01*
G01*
X162700001Y-115700000D01*
G75*
G02*
X162950000Y-115949999I0J-249999D01*
G01*
G37*
%TD*%
%TO.C,R7*%
G36*
G01*
X127950000Y-115949999D02*
X127950000Y-116850001D01*
G75*
G02*
X127700001Y-117100000I-249999J0D01*
G01*
X126999999Y-117100000D01*
G75*
G02*
X126750000Y-116850001I0J249999D01*
G01*
X126750000Y-115949999D01*
G75*
G02*
X126999999Y-115700000I249999J0D01*
G01*
X127700001Y-115700000D01*
G75*
G02*
X127950000Y-115949999I0J-249999D01*
G01*
G37*
G36*
G01*
X125950000Y-115949999D02*
X125950000Y-116850001D01*
G75*
G02*
X125700001Y-117100000I-249999J0D01*
G01*
X124999999Y-117100000D01*
G75*
G02*
X124750000Y-116850001I0J249999D01*
G01*
X124750000Y-115949999D01*
G75*
G02*
X124999999Y-115700000I249999J0D01*
G01*
X125700001Y-115700000D01*
G75*
G02*
X125950000Y-115949999I0J-249999D01*
G01*
G37*
%TD*%
%TO.C,R7*%
G36*
G01*
X164950000Y-83949999D02*
X164950000Y-84850001D01*
G75*
G02*
X164700001Y-85100000I-249999J0D01*
G01*
X163999999Y-85100000D01*
G75*
G02*
X163750000Y-84850001I0J249999D01*
G01*
X163750000Y-83949999D01*
G75*
G02*
X163999999Y-83700000I249999J0D01*
G01*
X164700001Y-83700000D01*
G75*
G02*
X164950000Y-83949999I0J-249999D01*
G01*
G37*
G36*
G01*
X162950000Y-83949999D02*
X162950000Y-84850001D01*
G75*
G02*
X162700001Y-85100000I-249999J0D01*
G01*
X161999999Y-85100000D01*
G75*
G02*
X161750000Y-84850001I0J249999D01*
G01*
X161750000Y-83949999D01*
G75*
G02*
X161999999Y-83700000I249999J0D01*
G01*
X162700001Y-83700000D01*
G75*
G02*
X162950000Y-83949999I0J-249999D01*
G01*
G37*
%TD*%
%TO.C,R2*%
G36*
G01*
X151750000Y-148825001D02*
X151750000Y-147924999D01*
G75*
G02*
X151999999Y-147675000I249999J0D01*
G01*
X152700001Y-147675000D01*
G75*
G02*
X152950000Y-147924999I0J-249999D01*
G01*
X152950000Y-148825001D01*
G75*
G02*
X152700001Y-149075000I-249999J0D01*
G01*
X151999999Y-149075000D01*
G75*
G02*
X151750000Y-148825001I0J249999D01*
G01*
G37*
G36*
G01*
X153750000Y-148825001D02*
X153750000Y-147924999D01*
G75*
G02*
X153999999Y-147675000I249999J0D01*
G01*
X154700001Y-147675000D01*
G75*
G02*
X154950000Y-147924999I0J-249999D01*
G01*
X154950000Y-148825001D01*
G75*
G02*
X154700001Y-149075000I-249999J0D01*
G01*
X153999999Y-149075000D01*
G75*
G02*
X153750000Y-148825001I0J249999D01*
G01*
G37*
%TD*%
%TO.C,R2*%
G36*
G01*
X114750000Y-148825001D02*
X114750000Y-147924999D01*
G75*
G02*
X114999999Y-147675000I249999J0D01*
G01*
X115700001Y-147675000D01*
G75*
G02*
X115950000Y-147924999I0J-249999D01*
G01*
X115950000Y-148825001D01*
G75*
G02*
X115700001Y-149075000I-249999J0D01*
G01*
X114999999Y-149075000D01*
G75*
G02*
X114750000Y-148825001I0J249999D01*
G01*
G37*
G36*
G01*
X116750000Y-148825001D02*
X116750000Y-147924999D01*
G75*
G02*
X116999999Y-147675000I249999J0D01*
G01*
X117700001Y-147675000D01*
G75*
G02*
X117950000Y-147924999I0J-249999D01*
G01*
X117950000Y-148825001D01*
G75*
G02*
X117700001Y-149075000I-249999J0D01*
G01*
X116999999Y-149075000D01*
G75*
G02*
X116750000Y-148825001I0J249999D01*
G01*
G37*
%TD*%
%TO.C,R2*%
G36*
G01*
X151750000Y-116825001D02*
X151750000Y-115924999D01*
G75*
G02*
X151999999Y-115675000I249999J0D01*
G01*
X152700001Y-115675000D01*
G75*
G02*
X152950000Y-115924999I0J-249999D01*
G01*
X152950000Y-116825001D01*
G75*
G02*
X152700001Y-117075000I-249999J0D01*
G01*
X151999999Y-117075000D01*
G75*
G02*
X151750000Y-116825001I0J249999D01*
G01*
G37*
G36*
G01*
X153750000Y-116825001D02*
X153750000Y-115924999D01*
G75*
G02*
X153999999Y-115675000I249999J0D01*
G01*
X154700001Y-115675000D01*
G75*
G02*
X154950000Y-115924999I0J-249999D01*
G01*
X154950000Y-116825001D01*
G75*
G02*
X154700001Y-117075000I-249999J0D01*
G01*
X153999999Y-117075000D01*
G75*
G02*
X153750000Y-116825001I0J249999D01*
G01*
G37*
%TD*%
%TO.C,R2*%
G36*
G01*
X114750000Y-116825001D02*
X114750000Y-115924999D01*
G75*
G02*
X114999999Y-115675000I249999J0D01*
G01*
X115700001Y-115675000D01*
G75*
G02*
X115950000Y-115924999I0J-249999D01*
G01*
X115950000Y-116825001D01*
G75*
G02*
X115700001Y-117075000I-249999J0D01*
G01*
X114999999Y-117075000D01*
G75*
G02*
X114750000Y-116825001I0J249999D01*
G01*
G37*
G36*
G01*
X116750000Y-116825001D02*
X116750000Y-115924999D01*
G75*
G02*
X116999999Y-115675000I249999J0D01*
G01*
X117700001Y-115675000D01*
G75*
G02*
X117950000Y-115924999I0J-249999D01*
G01*
X117950000Y-116825001D01*
G75*
G02*
X117700001Y-117075000I-249999J0D01*
G01*
X116999999Y-117075000D01*
G75*
G02*
X116750000Y-116825001I0J249999D01*
G01*
G37*
%TD*%
%TO.C,R2*%
G36*
G01*
X151750000Y-84825001D02*
X151750000Y-83924999D01*
G75*
G02*
X151999999Y-83675000I249999J0D01*
G01*
X152700001Y-83675000D01*
G75*
G02*
X152950000Y-83924999I0J-249999D01*
G01*
X152950000Y-84825001D01*
G75*
G02*
X152700001Y-85075000I-249999J0D01*
G01*
X151999999Y-85075000D01*
G75*
G02*
X151750000Y-84825001I0J249999D01*
G01*
G37*
G36*
G01*
X153750000Y-84825001D02*
X153750000Y-83924999D01*
G75*
G02*
X153999999Y-83675000I249999J0D01*
G01*
X154700001Y-83675000D01*
G75*
G02*
X154950000Y-83924999I0J-249999D01*
G01*
X154950000Y-84825001D01*
G75*
G02*
X154700001Y-85075000I-249999J0D01*
G01*
X153999999Y-85075000D01*
G75*
G02*
X153750000Y-84825001I0J249999D01*
G01*
G37*
%TD*%
%TO.C,REF\u002A\u002A*%
X148500000Y-158500000D03*
%TD*%
%TO.C,REF\u002A\u002A*%
X111500000Y-158500000D03*
%TD*%
%TO.C,REF\u002A\u002A*%
X148500000Y-126500000D03*
%TD*%
%TO.C,REF\u002A\u002A*%
X111500000Y-126500000D03*
%TD*%
%TO.C,REF\u002A\u002A*%
X148500000Y-94500000D03*
%TD*%
%TO.C,D7*%
G36*
G01*
X161750000Y-145550001D02*
X161750000Y-144649999D01*
G75*
G02*
X161999999Y-144400000I249999J0D01*
G01*
X162650001Y-144400000D01*
G75*
G02*
X162900000Y-144649999I0J-249999D01*
G01*
X162900000Y-145550001D01*
G75*
G02*
X162650001Y-145800000I-249999J0D01*
G01*
X161999999Y-145800000D01*
G75*
G02*
X161750000Y-145550001I0J249999D01*
G01*
G37*
G36*
G01*
X163800000Y-145550001D02*
X163800000Y-144649999D01*
G75*
G02*
X164049999Y-144400000I249999J0D01*
G01*
X164700001Y-144400000D01*
G75*
G02*
X164950000Y-144649999I0J-249999D01*
G01*
X164950000Y-145550001D01*
G75*
G02*
X164700001Y-145800000I-249999J0D01*
G01*
X164049999Y-145800000D01*
G75*
G02*
X163800000Y-145550001I0J249999D01*
G01*
G37*
%TD*%
%TO.C,D7*%
G36*
G01*
X124750000Y-145550001D02*
X124750000Y-144649999D01*
G75*
G02*
X124999999Y-144400000I249999J0D01*
G01*
X125650001Y-144400000D01*
G75*
G02*
X125900000Y-144649999I0J-249999D01*
G01*
X125900000Y-145550001D01*
G75*
G02*
X125650001Y-145800000I-249999J0D01*
G01*
X124999999Y-145800000D01*
G75*
G02*
X124750000Y-145550001I0J249999D01*
G01*
G37*
G36*
G01*
X126800000Y-145550001D02*
X126800000Y-144649999D01*
G75*
G02*
X127049999Y-144400000I249999J0D01*
G01*
X127700001Y-144400000D01*
G75*
G02*
X127950000Y-144649999I0J-249999D01*
G01*
X127950000Y-145550001D01*
G75*
G02*
X127700001Y-145800000I-249999J0D01*
G01*
X127049999Y-145800000D01*
G75*
G02*
X126800000Y-145550001I0J249999D01*
G01*
G37*
%TD*%
%TO.C,D7*%
G36*
G01*
X161750000Y-113550001D02*
X161750000Y-112649999D01*
G75*
G02*
X161999999Y-112400000I249999J0D01*
G01*
X162650001Y-112400000D01*
G75*
G02*
X162900000Y-112649999I0J-249999D01*
G01*
X162900000Y-113550001D01*
G75*
G02*
X162650001Y-113800000I-249999J0D01*
G01*
X161999999Y-113800000D01*
G75*
G02*
X161750000Y-113550001I0J249999D01*
G01*
G37*
G36*
G01*
X163800000Y-113550001D02*
X163800000Y-112649999D01*
G75*
G02*
X164049999Y-112400000I249999J0D01*
G01*
X164700001Y-112400000D01*
G75*
G02*
X164950000Y-112649999I0J-249999D01*
G01*
X164950000Y-113550001D01*
G75*
G02*
X164700001Y-113800000I-249999J0D01*
G01*
X164049999Y-113800000D01*
G75*
G02*
X163800000Y-113550001I0J249999D01*
G01*
G37*
%TD*%
%TO.C,D7*%
G36*
G01*
X124750000Y-113550001D02*
X124750000Y-112649999D01*
G75*
G02*
X124999999Y-112400000I249999J0D01*
G01*
X125650001Y-112400000D01*
G75*
G02*
X125900000Y-112649999I0J-249999D01*
G01*
X125900000Y-113550001D01*
G75*
G02*
X125650001Y-113800000I-249999J0D01*
G01*
X124999999Y-113800000D01*
G75*
G02*
X124750000Y-113550001I0J249999D01*
G01*
G37*
G36*
G01*
X126800000Y-113550001D02*
X126800000Y-112649999D01*
G75*
G02*
X127049999Y-112400000I249999J0D01*
G01*
X127700001Y-112400000D01*
G75*
G02*
X127950000Y-112649999I0J-249999D01*
G01*
X127950000Y-113550001D01*
G75*
G02*
X127700001Y-113800000I-249999J0D01*
G01*
X127049999Y-113800000D01*
G75*
G02*
X126800000Y-113550001I0J249999D01*
G01*
G37*
%TD*%
%TO.C,D7*%
G36*
G01*
X161750000Y-81550001D02*
X161750000Y-80649999D01*
G75*
G02*
X161999999Y-80400000I249999J0D01*
G01*
X162650001Y-80400000D01*
G75*
G02*
X162900000Y-80649999I0J-249999D01*
G01*
X162900000Y-81550001D01*
G75*
G02*
X162650001Y-81800000I-249999J0D01*
G01*
X161999999Y-81800000D01*
G75*
G02*
X161750000Y-81550001I0J249999D01*
G01*
G37*
G36*
G01*
X163800000Y-81550001D02*
X163800000Y-80649999D01*
G75*
G02*
X164049999Y-80400000I249999J0D01*
G01*
X164700001Y-80400000D01*
G75*
G02*
X164950000Y-80649999I0J-249999D01*
G01*
X164950000Y-81550001D01*
G75*
G02*
X164700001Y-81800000I-249999J0D01*
G01*
X164049999Y-81800000D01*
G75*
G02*
X163800000Y-81550001I0J249999D01*
G01*
G37*
%TD*%
%TO.C,R4*%
G36*
G01*
X175250000Y-141249999D02*
X175250000Y-142150001D01*
G75*
G02*
X175000001Y-142400000I-249999J0D01*
G01*
X174299999Y-142400000D01*
G75*
G02*
X174050000Y-142150001I0J249999D01*
G01*
X174050000Y-141249999D01*
G75*
G02*
X174299999Y-141000000I249999J0D01*
G01*
X175000001Y-141000000D01*
G75*
G02*
X175250000Y-141249999I0J-249999D01*
G01*
G37*
G36*
G01*
X173250000Y-141249999D02*
X173250000Y-142150001D01*
G75*
G02*
X173000001Y-142400000I-249999J0D01*
G01*
X172299999Y-142400000D01*
G75*
G02*
X172050000Y-142150001I0J249999D01*
G01*
X172050000Y-141249999D01*
G75*
G02*
X172299999Y-141000000I249999J0D01*
G01*
X173000001Y-141000000D01*
G75*
G02*
X173250000Y-141249999I0J-249999D01*
G01*
G37*
%TD*%
%TO.C,R4*%
G36*
G01*
X138250000Y-141249999D02*
X138250000Y-142150001D01*
G75*
G02*
X138000001Y-142400000I-249999J0D01*
G01*
X137299999Y-142400000D01*
G75*
G02*
X137050000Y-142150001I0J249999D01*
G01*
X137050000Y-141249999D01*
G75*
G02*
X137299999Y-141000000I249999J0D01*
G01*
X138000001Y-141000000D01*
G75*
G02*
X138250000Y-141249999I0J-249999D01*
G01*
G37*
G36*
G01*
X136250000Y-141249999D02*
X136250000Y-142150001D01*
G75*
G02*
X136000001Y-142400000I-249999J0D01*
G01*
X135299999Y-142400000D01*
G75*
G02*
X135050000Y-142150001I0J249999D01*
G01*
X135050000Y-141249999D01*
G75*
G02*
X135299999Y-141000000I249999J0D01*
G01*
X136000001Y-141000000D01*
G75*
G02*
X136250000Y-141249999I0J-249999D01*
G01*
G37*
%TD*%
%TO.C,R4*%
G36*
G01*
X175250000Y-109249999D02*
X175250000Y-110150001D01*
G75*
G02*
X175000001Y-110400000I-249999J0D01*
G01*
X174299999Y-110400000D01*
G75*
G02*
X174050000Y-110150001I0J249999D01*
G01*
X174050000Y-109249999D01*
G75*
G02*
X174299999Y-109000000I249999J0D01*
G01*
X175000001Y-109000000D01*
G75*
G02*
X175250000Y-109249999I0J-249999D01*
G01*
G37*
G36*
G01*
X173250000Y-109249999D02*
X173250000Y-110150001D01*
G75*
G02*
X173000001Y-110400000I-249999J0D01*
G01*
X172299999Y-110400000D01*
G75*
G02*
X172050000Y-110150001I0J249999D01*
G01*
X172050000Y-109249999D01*
G75*
G02*
X172299999Y-109000000I249999J0D01*
G01*
X173000001Y-109000000D01*
G75*
G02*
X173250000Y-109249999I0J-249999D01*
G01*
G37*
%TD*%
%TO.C,R4*%
G36*
G01*
X138250000Y-109249999D02*
X138250000Y-110150001D01*
G75*
G02*
X138000001Y-110400000I-249999J0D01*
G01*
X137299999Y-110400000D01*
G75*
G02*
X137050000Y-110150001I0J249999D01*
G01*
X137050000Y-109249999D01*
G75*
G02*
X137299999Y-109000000I249999J0D01*
G01*
X138000001Y-109000000D01*
G75*
G02*
X138250000Y-109249999I0J-249999D01*
G01*
G37*
G36*
G01*
X136250000Y-109249999D02*
X136250000Y-110150001D01*
G75*
G02*
X136000001Y-110400000I-249999J0D01*
G01*
X135299999Y-110400000D01*
G75*
G02*
X135050000Y-110150001I0J249999D01*
G01*
X135050000Y-109249999D01*
G75*
G02*
X135299999Y-109000000I249999J0D01*
G01*
X136000001Y-109000000D01*
G75*
G02*
X136250000Y-109249999I0J-249999D01*
G01*
G37*
%TD*%
%TO.C,R4*%
G36*
G01*
X175250000Y-77249999D02*
X175250000Y-78150001D01*
G75*
G02*
X175000001Y-78400000I-249999J0D01*
G01*
X174299999Y-78400000D01*
G75*
G02*
X174050000Y-78150001I0J249999D01*
G01*
X174050000Y-77249999D01*
G75*
G02*
X174299999Y-77000000I249999J0D01*
G01*
X175000001Y-77000000D01*
G75*
G02*
X175250000Y-77249999I0J-249999D01*
G01*
G37*
G36*
G01*
X173250000Y-77249999D02*
X173250000Y-78150001D01*
G75*
G02*
X173000001Y-78400000I-249999J0D01*
G01*
X172299999Y-78400000D01*
G75*
G02*
X172050000Y-78150001I0J249999D01*
G01*
X172050000Y-77249999D01*
G75*
G02*
X172299999Y-77000000I249999J0D01*
G01*
X173000001Y-77000000D01*
G75*
G02*
X173250000Y-77249999I0J-249999D01*
G01*
G37*
%TD*%
%TO.C,R6*%
G36*
G01*
X175250000Y-154749999D02*
X175250000Y-155650001D01*
G75*
G02*
X175000001Y-155900000I-249999J0D01*
G01*
X174299999Y-155900000D01*
G75*
G02*
X174050000Y-155650001I0J249999D01*
G01*
X174050000Y-154749999D01*
G75*
G02*
X174299999Y-154500000I249999J0D01*
G01*
X175000001Y-154500000D01*
G75*
G02*
X175250000Y-154749999I0J-249999D01*
G01*
G37*
G36*
G01*
X173250000Y-154749999D02*
X173250000Y-155650001D01*
G75*
G02*
X173000001Y-155900000I-249999J0D01*
G01*
X172299999Y-155900000D01*
G75*
G02*
X172050000Y-155650001I0J249999D01*
G01*
X172050000Y-154749999D01*
G75*
G02*
X172299999Y-154500000I249999J0D01*
G01*
X173000001Y-154500000D01*
G75*
G02*
X173250000Y-154749999I0J-249999D01*
G01*
G37*
%TD*%
%TO.C,R6*%
G36*
G01*
X138250000Y-154749999D02*
X138250000Y-155650001D01*
G75*
G02*
X138000001Y-155900000I-249999J0D01*
G01*
X137299999Y-155900000D01*
G75*
G02*
X137050000Y-155650001I0J249999D01*
G01*
X137050000Y-154749999D01*
G75*
G02*
X137299999Y-154500000I249999J0D01*
G01*
X138000001Y-154500000D01*
G75*
G02*
X138250000Y-154749999I0J-249999D01*
G01*
G37*
G36*
G01*
X136250000Y-154749999D02*
X136250000Y-155650001D01*
G75*
G02*
X136000001Y-155900000I-249999J0D01*
G01*
X135299999Y-155900000D01*
G75*
G02*
X135050000Y-155650001I0J249999D01*
G01*
X135050000Y-154749999D01*
G75*
G02*
X135299999Y-154500000I249999J0D01*
G01*
X136000001Y-154500000D01*
G75*
G02*
X136250000Y-154749999I0J-249999D01*
G01*
G37*
%TD*%
%TO.C,R6*%
G36*
G01*
X175250000Y-122749999D02*
X175250000Y-123650001D01*
G75*
G02*
X175000001Y-123900000I-249999J0D01*
G01*
X174299999Y-123900000D01*
G75*
G02*
X174050000Y-123650001I0J249999D01*
G01*
X174050000Y-122749999D01*
G75*
G02*
X174299999Y-122500000I249999J0D01*
G01*
X175000001Y-122500000D01*
G75*
G02*
X175250000Y-122749999I0J-249999D01*
G01*
G37*
G36*
G01*
X173250000Y-122749999D02*
X173250000Y-123650001D01*
G75*
G02*
X173000001Y-123900000I-249999J0D01*
G01*
X172299999Y-123900000D01*
G75*
G02*
X172050000Y-123650001I0J249999D01*
G01*
X172050000Y-122749999D01*
G75*
G02*
X172299999Y-122500000I249999J0D01*
G01*
X173000001Y-122500000D01*
G75*
G02*
X173250000Y-122749999I0J-249999D01*
G01*
G37*
%TD*%
%TO.C,R6*%
G36*
G01*
X138250000Y-122749999D02*
X138250000Y-123650001D01*
G75*
G02*
X138000001Y-123900000I-249999J0D01*
G01*
X137299999Y-123900000D01*
G75*
G02*
X137050000Y-123650001I0J249999D01*
G01*
X137050000Y-122749999D01*
G75*
G02*
X137299999Y-122500000I249999J0D01*
G01*
X138000001Y-122500000D01*
G75*
G02*
X138250000Y-122749999I0J-249999D01*
G01*
G37*
G36*
G01*
X136250000Y-122749999D02*
X136250000Y-123650001D01*
G75*
G02*
X136000001Y-123900000I-249999J0D01*
G01*
X135299999Y-123900000D01*
G75*
G02*
X135050000Y-123650001I0J249999D01*
G01*
X135050000Y-122749999D01*
G75*
G02*
X135299999Y-122500000I249999J0D01*
G01*
X136000001Y-122500000D01*
G75*
G02*
X136250000Y-122749999I0J-249999D01*
G01*
G37*
%TD*%
%TO.C,R6*%
G36*
G01*
X175250000Y-90749999D02*
X175250000Y-91650001D01*
G75*
G02*
X175000001Y-91900000I-249999J0D01*
G01*
X174299999Y-91900000D01*
G75*
G02*
X174050000Y-91650001I0J249999D01*
G01*
X174050000Y-90749999D01*
G75*
G02*
X174299999Y-90500000I249999J0D01*
G01*
X175000001Y-90500000D01*
G75*
G02*
X175250000Y-90749999I0J-249999D01*
G01*
G37*
G36*
G01*
X173250000Y-90749999D02*
X173250000Y-91650001D01*
G75*
G02*
X173000001Y-91900000I-249999J0D01*
G01*
X172299999Y-91900000D01*
G75*
G02*
X172050000Y-91650001I0J249999D01*
G01*
X172050000Y-90749999D01*
G75*
G02*
X172299999Y-90500000I249999J0D01*
G01*
X173000001Y-90500000D01*
G75*
G02*
X173250000Y-90749999I0J-249999D01*
G01*
G37*
%TD*%
D11*
%TO.C,mouse-bite-2mm-slot*%
X119000000Y-98750000D03*
X119000000Y-97250000D03*
X118250000Y-98750000D03*
X119750000Y-98750000D03*
X119750000Y-97250000D03*
X118250000Y-97250000D03*
%TD*%
%TO.C,mouse-bite-2mm-slot*%
X134000000Y-98750000D03*
X134000000Y-97250000D03*
X133250000Y-98750000D03*
X134750000Y-98750000D03*
X134750000Y-97250000D03*
X133250000Y-97250000D03*
%TD*%
%TO.C,mouse-bite-2mm-slot*%
X144250000Y-82000000D03*
X145750000Y-82000000D03*
X144250000Y-81250000D03*
X144250000Y-82750000D03*
X145750000Y-82750000D03*
X145750000Y-81250000D03*
%TD*%
D12*
%TO.C,REF\u002A\u002A*%
X141500000Y-94500000D03*
%TD*%
%TO.C,REF\u002A\u002A*%
X111500000Y-94500000D03*
%TD*%
%TO.C,REF\u002A\u002A*%
X111500000Y-69500000D03*
%TD*%
%TO.C,REF\u002A\u002A*%
X141500000Y-69500000D03*
%TD*%
D14*
%TO.C,J1*%
X133555000Y-71200000D03*
X131015000Y-71200000D03*
X128475000Y-71200000D03*
X125935000Y-71200000D03*
X123395000Y-71200000D03*
D13*
X120855000Y-71200000D03*
%TD*%
%TO.C,D7*%
G36*
G01*
X126800000Y-81550001D02*
X126800000Y-80649999D01*
G75*
G02*
X127049999Y-80400000I249999J0D01*
G01*
X127700001Y-80400000D01*
G75*
G02*
X127950000Y-80649999I0J-249999D01*
G01*
X127950000Y-81550001D01*
G75*
G02*
X127700001Y-81800000I-249999J0D01*
G01*
X127049999Y-81800000D01*
G75*
G02*
X126800000Y-81550001I0J249999D01*
G01*
G37*
G36*
G01*
X124750000Y-81550001D02*
X124750000Y-80649999D01*
G75*
G02*
X124999999Y-80400000I249999J0D01*
G01*
X125650001Y-80400000D01*
G75*
G02*
X125900000Y-80649999I0J-249999D01*
G01*
X125900000Y-81550001D01*
G75*
G02*
X125650001Y-81800000I-249999J0D01*
G01*
X124999999Y-81800000D01*
G75*
G02*
X124750000Y-81550001I0J249999D01*
G01*
G37*
%TD*%
%TO.C,D6*%
G36*
G01*
X137100000Y-88250001D02*
X137100000Y-87349999D01*
G75*
G02*
X137349999Y-87100000I249999J0D01*
G01*
X138000001Y-87100000D01*
G75*
G02*
X138250000Y-87349999I0J-249999D01*
G01*
X138250000Y-88250001D01*
G75*
G02*
X138000001Y-88500000I-249999J0D01*
G01*
X137349999Y-88500000D01*
G75*
G02*
X137100000Y-88250001I0J249999D01*
G01*
G37*
G36*
G01*
X135050000Y-88250001D02*
X135050000Y-87349999D01*
G75*
G02*
X135299999Y-87100000I249999J0D01*
G01*
X135950001Y-87100000D01*
G75*
G02*
X136200000Y-87349999I0J-249999D01*
G01*
X136200000Y-88250001D01*
G75*
G02*
X135950001Y-88500000I-249999J0D01*
G01*
X135299999Y-88500000D01*
G75*
G02*
X135050000Y-88250001I0J249999D01*
G01*
G37*
%TD*%
%TO.C,D5*%
G36*
G01*
X137100000Y-81550001D02*
X137100000Y-80649999D01*
G75*
G02*
X137349999Y-80400000I249999J0D01*
G01*
X138000001Y-80400000D01*
G75*
G02*
X138250000Y-80649999I0J-249999D01*
G01*
X138250000Y-81550001D01*
G75*
G02*
X138000001Y-81800000I-249999J0D01*
G01*
X137349999Y-81800000D01*
G75*
G02*
X137100000Y-81550001I0J249999D01*
G01*
G37*
G36*
G01*
X135050000Y-81550001D02*
X135050000Y-80649999D01*
G75*
G02*
X135299999Y-80400000I249999J0D01*
G01*
X135950001Y-80400000D01*
G75*
G02*
X136200000Y-80649999I0J-249999D01*
G01*
X136200000Y-81550001D01*
G75*
G02*
X135950001Y-81800000I-249999J0D01*
G01*
X135299999Y-81800000D01*
G75*
G02*
X135050000Y-81550001I0J249999D01*
G01*
G37*
%TD*%
%TO.C,D4*%
G36*
G01*
X137100000Y-74825001D02*
X137100000Y-73924999D01*
G75*
G02*
X137349999Y-73675000I249999J0D01*
G01*
X138000001Y-73675000D01*
G75*
G02*
X138250000Y-73924999I0J-249999D01*
G01*
X138250000Y-74825001D01*
G75*
G02*
X138000001Y-75075000I-249999J0D01*
G01*
X137349999Y-75075000D01*
G75*
G02*
X137100000Y-74825001I0J249999D01*
G01*
G37*
G36*
G01*
X135050000Y-74825001D02*
X135050000Y-73924999D01*
G75*
G02*
X135299999Y-73675000I249999J0D01*
G01*
X135950001Y-73675000D01*
G75*
G02*
X136200000Y-73924999I0J-249999D01*
G01*
X136200000Y-74825001D01*
G75*
G02*
X135950001Y-75075000I-249999J0D01*
G01*
X135299999Y-75075000D01*
G75*
G02*
X135050000Y-74825001I0J249999D01*
G01*
G37*
%TD*%
%TO.C,D3*%
G36*
G01*
X115900000Y-87349999D02*
X115900000Y-88250001D01*
G75*
G02*
X115650001Y-88500000I-249999J0D01*
G01*
X114999999Y-88500000D01*
G75*
G02*
X114750000Y-88250001I0J249999D01*
G01*
X114750000Y-87349999D01*
G75*
G02*
X114999999Y-87100000I249999J0D01*
G01*
X115650001Y-87100000D01*
G75*
G02*
X115900000Y-87349999I0J-249999D01*
G01*
G37*
G36*
G01*
X117950000Y-87349999D02*
X117950000Y-88250001D01*
G75*
G02*
X117700001Y-88500000I-249999J0D01*
G01*
X117049999Y-88500000D01*
G75*
G02*
X116800000Y-88250001I0J249999D01*
G01*
X116800000Y-87349999D01*
G75*
G02*
X117049999Y-87100000I249999J0D01*
G01*
X117700001Y-87100000D01*
G75*
G02*
X117950000Y-87349999I0J-249999D01*
G01*
G37*
%TD*%
%TO.C,D2*%
G36*
G01*
X115900000Y-80649999D02*
X115900000Y-81550001D01*
G75*
G02*
X115650001Y-81800000I-249999J0D01*
G01*
X114999999Y-81800000D01*
G75*
G02*
X114750000Y-81550001I0J249999D01*
G01*
X114750000Y-80649999D01*
G75*
G02*
X114999999Y-80400000I249999J0D01*
G01*
X115650001Y-80400000D01*
G75*
G02*
X115900000Y-80649999I0J-249999D01*
G01*
G37*
G36*
G01*
X117950000Y-80649999D02*
X117950000Y-81550001D01*
G75*
G02*
X117700001Y-81800000I-249999J0D01*
G01*
X117049999Y-81800000D01*
G75*
G02*
X116800000Y-81550001I0J249999D01*
G01*
X116800000Y-80649999D01*
G75*
G02*
X117049999Y-80400000I249999J0D01*
G01*
X117700001Y-80400000D01*
G75*
G02*
X117950000Y-80649999I0J-249999D01*
G01*
G37*
%TD*%
%TO.C,D1*%
G36*
G01*
X115900000Y-73949999D02*
X115900000Y-74850001D01*
G75*
G02*
X115650001Y-75100000I-249999J0D01*
G01*
X114999999Y-75100000D01*
G75*
G02*
X114750000Y-74850001I0J249999D01*
G01*
X114750000Y-73949999D01*
G75*
G02*
X114999999Y-73700000I249999J0D01*
G01*
X115650001Y-73700000D01*
G75*
G02*
X115900000Y-73949999I0J-249999D01*
G01*
G37*
G36*
G01*
X117950000Y-73949999D02*
X117950000Y-74850001D01*
G75*
G02*
X117700001Y-75100000I-249999J0D01*
G01*
X117049999Y-75100000D01*
G75*
G02*
X116800000Y-74850001I0J249999D01*
G01*
X116800000Y-73949999D01*
G75*
G02*
X117049999Y-73700000I249999J0D01*
G01*
X117700001Y-73700000D01*
G75*
G02*
X117950000Y-73949999I0J-249999D01*
G01*
G37*
%TD*%
%TO.C,R7*%
G36*
G01*
X125950000Y-83949999D02*
X125950000Y-84850001D01*
G75*
G02*
X125700001Y-85100000I-249999J0D01*
G01*
X124999999Y-85100000D01*
G75*
G02*
X124750000Y-84850001I0J249999D01*
G01*
X124750000Y-83949999D01*
G75*
G02*
X124999999Y-83700000I249999J0D01*
G01*
X125700001Y-83700000D01*
G75*
G02*
X125950000Y-83949999I0J-249999D01*
G01*
G37*
G36*
G01*
X127950000Y-83949999D02*
X127950000Y-84850001D01*
G75*
G02*
X127700001Y-85100000I-249999J0D01*
G01*
X126999999Y-85100000D01*
G75*
G02*
X126750000Y-84850001I0J249999D01*
G01*
X126750000Y-83949999D01*
G75*
G02*
X126999999Y-83700000I249999J0D01*
G01*
X127700001Y-83700000D01*
G75*
G02*
X127950000Y-83949999I0J-249999D01*
G01*
G37*
%TD*%
%TO.C,R6*%
G36*
G01*
X136250000Y-90749999D02*
X136250000Y-91650001D01*
G75*
G02*
X136000001Y-91900000I-249999J0D01*
G01*
X135299999Y-91900000D01*
G75*
G02*
X135050000Y-91650001I0J249999D01*
G01*
X135050000Y-90749999D01*
G75*
G02*
X135299999Y-90500000I249999J0D01*
G01*
X136000001Y-90500000D01*
G75*
G02*
X136250000Y-90749999I0J-249999D01*
G01*
G37*
G36*
G01*
X138250000Y-90749999D02*
X138250000Y-91650001D01*
G75*
G02*
X138000001Y-91900000I-249999J0D01*
G01*
X137299999Y-91900000D01*
G75*
G02*
X137050000Y-91650001I0J249999D01*
G01*
X137050000Y-90749999D01*
G75*
G02*
X137299999Y-90500000I249999J0D01*
G01*
X138000001Y-90500000D01*
G75*
G02*
X138250000Y-90749999I0J-249999D01*
G01*
G37*
%TD*%
%TO.C,R5*%
G36*
G01*
X136250000Y-83949999D02*
X136250000Y-84850001D01*
G75*
G02*
X136000001Y-85100000I-249999J0D01*
G01*
X135299999Y-85100000D01*
G75*
G02*
X135050000Y-84850001I0J249999D01*
G01*
X135050000Y-83949999D01*
G75*
G02*
X135299999Y-83700000I249999J0D01*
G01*
X136000001Y-83700000D01*
G75*
G02*
X136250000Y-83949999I0J-249999D01*
G01*
G37*
G36*
G01*
X138250000Y-83949999D02*
X138250000Y-84850001D01*
G75*
G02*
X138000001Y-85100000I-249999J0D01*
G01*
X137299999Y-85100000D01*
G75*
G02*
X137050000Y-84850001I0J249999D01*
G01*
X137050000Y-83949999D01*
G75*
G02*
X137299999Y-83700000I249999J0D01*
G01*
X138000001Y-83700000D01*
G75*
G02*
X138250000Y-83949999I0J-249999D01*
G01*
G37*
%TD*%
%TO.C,R4*%
G36*
G01*
X136250000Y-77249999D02*
X136250000Y-78150001D01*
G75*
G02*
X136000001Y-78400000I-249999J0D01*
G01*
X135299999Y-78400000D01*
G75*
G02*
X135050000Y-78150001I0J249999D01*
G01*
X135050000Y-77249999D01*
G75*
G02*
X135299999Y-77000000I249999J0D01*
G01*
X136000001Y-77000000D01*
G75*
G02*
X136250000Y-77249999I0J-249999D01*
G01*
G37*
G36*
G01*
X138250000Y-77249999D02*
X138250000Y-78150001D01*
G75*
G02*
X138000001Y-78400000I-249999J0D01*
G01*
X137299999Y-78400000D01*
G75*
G02*
X137050000Y-78150001I0J249999D01*
G01*
X137050000Y-77249999D01*
G75*
G02*
X137299999Y-77000000I249999J0D01*
G01*
X138000001Y-77000000D01*
G75*
G02*
X138250000Y-77249999I0J-249999D01*
G01*
G37*
%TD*%
%TO.C,R3*%
G36*
G01*
X116750000Y-91550001D02*
X116750000Y-90649999D01*
G75*
G02*
X116999999Y-90400000I249999J0D01*
G01*
X117700001Y-90400000D01*
G75*
G02*
X117950000Y-90649999I0J-249999D01*
G01*
X117950000Y-91550001D01*
G75*
G02*
X117700001Y-91800000I-249999J0D01*
G01*
X116999999Y-91800000D01*
G75*
G02*
X116750000Y-91550001I0J249999D01*
G01*
G37*
G36*
G01*
X114750000Y-91550001D02*
X114750000Y-90649999D01*
G75*
G02*
X114999999Y-90400000I249999J0D01*
G01*
X115700001Y-90400000D01*
G75*
G02*
X115950000Y-90649999I0J-249999D01*
G01*
X115950000Y-91550001D01*
G75*
G02*
X115700001Y-91800000I-249999J0D01*
G01*
X114999999Y-91800000D01*
G75*
G02*
X114750000Y-91550001I0J249999D01*
G01*
G37*
%TD*%
%TO.C,R2*%
G36*
G01*
X116750000Y-84825001D02*
X116750000Y-83924999D01*
G75*
G02*
X116999999Y-83675000I249999J0D01*
G01*
X117700001Y-83675000D01*
G75*
G02*
X117950000Y-83924999I0J-249999D01*
G01*
X117950000Y-84825001D01*
G75*
G02*
X117700001Y-85075000I-249999J0D01*
G01*
X116999999Y-85075000D01*
G75*
G02*
X116750000Y-84825001I0J249999D01*
G01*
G37*
G36*
G01*
X114750000Y-84825001D02*
X114750000Y-83924999D01*
G75*
G02*
X114999999Y-83675000I249999J0D01*
G01*
X115700001Y-83675000D01*
G75*
G02*
X115950000Y-83924999I0J-249999D01*
G01*
X115950000Y-84825001D01*
G75*
G02*
X115700001Y-85075000I-249999J0D01*
G01*
X114999999Y-85075000D01*
G75*
G02*
X114750000Y-84825001I0J249999D01*
G01*
G37*
%TD*%
%TO.C,R1*%
G36*
G01*
X116750000Y-78150001D02*
X116750000Y-77249999D01*
G75*
G02*
X116999999Y-77000000I249999J0D01*
G01*
X117700001Y-77000000D01*
G75*
G02*
X117950000Y-77249999I0J-249999D01*
G01*
X117950000Y-78150001D01*
G75*
G02*
X117700001Y-78400000I-249999J0D01*
G01*
X116999999Y-78400000D01*
G75*
G02*
X116750000Y-78150001I0J249999D01*
G01*
G37*
G36*
G01*
X114750000Y-78150001D02*
X114750000Y-77249999D01*
G75*
G02*
X114999999Y-77000000I249999J0D01*
G01*
X115700001Y-77000000D01*
G75*
G02*
X115950000Y-77249999I0J-249999D01*
G01*
X115950000Y-78150001D01*
G75*
G02*
X115700001Y-78400000I-249999J0D01*
G01*
X114999999Y-78400000D01*
G75*
G02*
X114750000Y-78150001I0J249999D01*
G01*
G37*
%TD*%
D15*
X118925000Y-78800000D03*
X132325000Y-77075000D03*
X124100000Y-89300000D03*
X126125000Y-82750000D03*
X123825000Y-78500000D03*
X119900000Y-86400000D03*
X161100000Y-89300000D03*
X124100000Y-121300000D03*
X161100000Y-121300000D03*
X124100000Y-153300000D03*
X161100000Y-153300000D03*
X163125000Y-82750000D03*
X126125000Y-114750000D03*
X163125000Y-114750000D03*
X126125000Y-146750000D03*
X163125000Y-146750000D03*
X156900000Y-86400000D03*
X119900000Y-118400000D03*
X156900000Y-118400000D03*
X119900000Y-150400000D03*
X156900000Y-150400000D03*
X155925000Y-78800000D03*
X118925000Y-110800000D03*
X155925000Y-110800000D03*
X118925000Y-142800000D03*
X155925000Y-142800000D03*
X169325000Y-77075000D03*
X132325000Y-109075000D03*
X169325000Y-109075000D03*
X132325000Y-141075000D03*
X169325000Y-141075000D03*
X160825000Y-78500000D03*
X123825000Y-110500000D03*
X160825000Y-110500000D03*
X123825000Y-142500000D03*
X160825000Y-142500000D03*
X122500000Y-75400000D03*
X159500000Y-75400000D03*
X122500000Y-107400000D03*
X159500000Y-107400000D03*
X122500000Y-139400000D03*
X159500000Y-139400000D03*
X122500000Y-76950000D03*
X159500000Y-76950000D03*
X122500000Y-108950000D03*
X159500000Y-108950000D03*
X122500000Y-140950000D03*
X159500000Y-140950000D03*
X120800000Y-83200000D03*
X157800000Y-83200000D03*
X120800000Y-115200000D03*
X157800000Y-115200000D03*
X120800000Y-147200000D03*
X157800000Y-147200000D03*
X127533630Y-75466370D03*
X164533630Y-75466370D03*
X127533630Y-107466370D03*
X164533630Y-107466370D03*
X127533630Y-139466370D03*
X164533630Y-139466370D03*
X127850000Y-78650000D03*
X164850000Y-78650000D03*
X127850000Y-110650000D03*
X164850000Y-110650000D03*
X127850000Y-142650000D03*
X164850000Y-142650000D03*
X126375000Y-79050000D03*
X163375000Y-79050000D03*
X126375000Y-111050000D03*
X163375000Y-111050000D03*
X126375000Y-143050000D03*
X163375000Y-143050000D03*
X125300000Y-79075000D03*
X162300000Y-79075000D03*
X125300000Y-111075000D03*
X162300000Y-111075000D03*
X125300000Y-143075000D03*
X162300000Y-143075000D03*
M02*
