%FSLAX45Y45*%
G04 Gerber Fmt 4.5, Leading zero omitted, Abs format (unit mm)*
G04 Created by KiCad (PCBNEW 5.1.10) date 2021-11-25 11:34:45*
%MOMM*%
%LPD*%
G01*
G04 APERTURE LIST*
%TA.AperFunction,Profile*%
%ADD10C,0.050000*%
%TD*%
%ADD11C,0.200000*%
%ADD12C,0.300000*%
G04 APERTURE END LIST*
D10*
X16900000Y-16100000D02*
X17300000Y-16100000D01*
X15400000Y-16100000D02*
X15800000Y-16100000D01*
X13200000Y-16100000D02*
X13600000Y-16100000D01*
X11700000Y-16100000D02*
X12100000Y-16100000D01*
X10900000Y-14400000D02*
X10900000Y-14800000D01*
X10900000Y-11200000D02*
X10900000Y-11600000D01*
X10900000Y-8000000D02*
X10900000Y-8400000D01*
X12100000Y-6700000D02*
X11700000Y-6700000D01*
X13600000Y-6700000D02*
X13200000Y-6700000D01*
X15800000Y-6700000D02*
X15400000Y-6700000D01*
X17300000Y-6700000D02*
X16900000Y-6700000D01*
X15400000Y-16100000D02*
X14600000Y-16100000D01*
X11700000Y-16100000D02*
X10900000Y-16100000D01*
X15400000Y-12900000D02*
X14600000Y-12900000D01*
X11700000Y-12900000D02*
X10900000Y-12900000D01*
X15400000Y-9700000D02*
X14600000Y-9700000D01*
X18100000Y-16100000D02*
X17300000Y-16100000D01*
X14400000Y-16100000D02*
X13600000Y-16100000D01*
X18100000Y-12900000D02*
X17300000Y-12900000D01*
X14400000Y-12900000D02*
X13600000Y-12900000D01*
X18100000Y-9700000D02*
X17300000Y-9700000D01*
X18100000Y-14800000D02*
X18100000Y-16100000D01*
X14400000Y-14800000D02*
X14400000Y-16100000D01*
X18100000Y-11600000D02*
X18100000Y-12900000D01*
X14400000Y-11600000D02*
X14400000Y-12900000D01*
X18100000Y-8400000D02*
X18100000Y-9700000D01*
X16900000Y-16100000D02*
X15800000Y-16100000D01*
X13200000Y-16100000D02*
X12100000Y-16100000D01*
X16900000Y-12900000D02*
X15800000Y-12900000D01*
X13200000Y-12900000D02*
X12100000Y-12900000D01*
X16900000Y-9700000D02*
X15800000Y-9700000D01*
X14600000Y-16100000D02*
X14600000Y-14800000D01*
X10900000Y-16100000D02*
X10900000Y-14800000D01*
X14600000Y-12900000D02*
X14600000Y-11600000D01*
X10900000Y-12900000D02*
X10900000Y-11600000D01*
X14600000Y-9700000D02*
X14600000Y-8400000D01*
X17300000Y-13100000D02*
X18100000Y-13100000D01*
X13600000Y-13100000D02*
X14400000Y-13100000D01*
X17300000Y-9900000D02*
X18100000Y-9900000D01*
X13600000Y-9900000D02*
X14400000Y-9900000D01*
X17300000Y-6700000D02*
X18100000Y-6700000D01*
X14600000Y-14400000D02*
X14600000Y-13100000D01*
X10900000Y-14400000D02*
X10900000Y-13100000D01*
X14600000Y-11200000D02*
X14600000Y-9900000D01*
X10900000Y-11200000D02*
X10900000Y-9900000D01*
X14600000Y-8000000D02*
X14600000Y-6700000D01*
X14600000Y-13100000D02*
X15400000Y-13100000D01*
X10900000Y-13100000D02*
X11700000Y-13100000D01*
X14600000Y-9900000D02*
X15400000Y-9900000D01*
X10900000Y-9900000D02*
X11700000Y-9900000D01*
X14600000Y-6700000D02*
X15400000Y-6700000D01*
X15800000Y-13100000D02*
X16900000Y-13100000D01*
X12100000Y-13100000D02*
X13200000Y-13100000D01*
X15800000Y-9900000D02*
X16900000Y-9900000D01*
X12100000Y-9900000D02*
X13200000Y-9900000D01*
X15800000Y-6700000D02*
X16900000Y-6700000D01*
X18100000Y-13100000D02*
X18100000Y-14400000D01*
X14400000Y-13100000D02*
X14400000Y-14400000D01*
X18100000Y-9900000D02*
X18100000Y-11200000D01*
X14400000Y-9900000D02*
X14400000Y-11200000D01*
X18100000Y-6700000D02*
X18100000Y-8000000D01*
X12100000Y-6700000D02*
X13200000Y-6700000D01*
X10900000Y-6700000D02*
X11700000Y-6700000D01*
X10900000Y-8000000D02*
X10900000Y-6700000D01*
X10900000Y-9700000D02*
X10900000Y-8400000D01*
X11700000Y-9700000D02*
X10900000Y-9700000D01*
X13200000Y-9700000D02*
X12100000Y-9700000D01*
X14400000Y-9700000D02*
X13600000Y-9700000D01*
X14400000Y-8400000D02*
X14400000Y-9700000D01*
X14400000Y-6700000D02*
X14400000Y-8000000D01*
X13600000Y-6700000D02*
X14400000Y-6700000D01*
D11*
X11872500Y-7860000D02*
X11912500Y-7900000D01*
X11912500Y-7860000D02*
X11872500Y-7900000D01*
X11872500Y-11060000D02*
X11912500Y-11100000D01*
X11912500Y-11060000D02*
X11872500Y-11100000D01*
X11872500Y-14260000D02*
X11912500Y-14300000D01*
X11912500Y-14260000D02*
X11872500Y-14300000D01*
X11970000Y-8620000D02*
X12010000Y-8660000D01*
X12010000Y-8620000D02*
X11970000Y-8660000D01*
X11970000Y-11820000D02*
X12010000Y-11860000D01*
X12010000Y-11820000D02*
X11970000Y-11860000D01*
X11970000Y-15020000D02*
X12010000Y-15060000D01*
X12010000Y-15020000D02*
X11970000Y-15060000D01*
X12060000Y-8300000D02*
X12100000Y-8340000D01*
X12100000Y-8300000D02*
X12060000Y-8340000D01*
X12060000Y-11500000D02*
X12100000Y-11540000D01*
X12100000Y-11500000D02*
X12060000Y-11540000D01*
X12060000Y-14700000D02*
X12100000Y-14740000D01*
X12100000Y-14700000D02*
X12060000Y-14740000D01*
X12230000Y-7520000D02*
X12270000Y-7560000D01*
X12270000Y-7520000D02*
X12230000Y-7560000D01*
X12230000Y-7675000D02*
X12270000Y-7715000D01*
X12270000Y-7675000D02*
X12230000Y-7715000D01*
X12230000Y-10720000D02*
X12270000Y-10760000D01*
X12270000Y-10720000D02*
X12230000Y-10760000D01*
X12230000Y-10875000D02*
X12270000Y-10915000D01*
X12270000Y-10875000D02*
X12230000Y-10915000D01*
X12230000Y-13920000D02*
X12270000Y-13960000D01*
X12270000Y-13920000D02*
X12230000Y-13960000D01*
X12230000Y-14075000D02*
X12270000Y-14115000D01*
X12270000Y-14075000D02*
X12230000Y-14115000D01*
X12362500Y-7830000D02*
X12402500Y-7870000D01*
X12402500Y-7830000D02*
X12362500Y-7870000D01*
X12362500Y-11030000D02*
X12402500Y-11070000D01*
X12402500Y-11030000D02*
X12362500Y-11070000D01*
X12362500Y-14230000D02*
X12402500Y-14270000D01*
X12402500Y-14230000D02*
X12362500Y-14270000D01*
X12390000Y-8910000D02*
X12430000Y-8950000D01*
X12430000Y-8910000D02*
X12390000Y-8950000D01*
X12390000Y-12110000D02*
X12430000Y-12150000D01*
X12430000Y-12110000D02*
X12390000Y-12150000D01*
X12390000Y-15310000D02*
X12430000Y-15350000D01*
X12430000Y-15310000D02*
X12390000Y-15350000D01*
X12510000Y-7887500D02*
X12550000Y-7927500D01*
X12550000Y-7887500D02*
X12510000Y-7927500D01*
X12510000Y-11087500D02*
X12550000Y-11127500D01*
X12550000Y-11087500D02*
X12510000Y-11127500D01*
X12510000Y-14287500D02*
X12550000Y-14327500D01*
X12550000Y-14287500D02*
X12510000Y-14327500D01*
X12592500Y-8255000D02*
X12632500Y-8295000D01*
X12632500Y-8255000D02*
X12592500Y-8295000D01*
X12592500Y-11455000D02*
X12632500Y-11495000D01*
X12632500Y-11455000D02*
X12592500Y-11495000D01*
X12592500Y-14655000D02*
X12632500Y-14695000D01*
X12632500Y-14655000D02*
X12592500Y-14695000D01*
X12617500Y-7885000D02*
X12657500Y-7925000D01*
X12657500Y-7885000D02*
X12617500Y-7925000D01*
X12617500Y-11085000D02*
X12657500Y-11125000D01*
X12657500Y-11085000D02*
X12617500Y-11125000D01*
X12617500Y-14285000D02*
X12657500Y-14325000D01*
X12657500Y-14285000D02*
X12617500Y-14325000D01*
X12733363Y-7526637D02*
X12773363Y-7566637D01*
X12773363Y-7526637D02*
X12733363Y-7566637D01*
X12733363Y-10726637D02*
X12773363Y-10766637D01*
X12773363Y-10726637D02*
X12733363Y-10766637D01*
X12733363Y-13926637D02*
X12773363Y-13966637D01*
X12773363Y-13926637D02*
X12733363Y-13966637D01*
X12765000Y-7845000D02*
X12805000Y-7885000D01*
X12805000Y-7845000D02*
X12765000Y-7885000D01*
X12765000Y-11045000D02*
X12805000Y-11085000D01*
X12805000Y-11045000D02*
X12765000Y-11085000D01*
X12765000Y-14245000D02*
X12805000Y-14285000D01*
X12805000Y-14245000D02*
X12765000Y-14285000D01*
X13212500Y-7687500D02*
X13252500Y-7727500D01*
X13252500Y-7687500D02*
X13212500Y-7727500D01*
X13212500Y-10887500D02*
X13252500Y-10927500D01*
X13252500Y-10887500D02*
X13212500Y-10927500D01*
X13212500Y-14087500D02*
X13252500Y-14127500D01*
X13252500Y-14087500D02*
X13212500Y-14127500D01*
X15572500Y-7860000D02*
X15612500Y-7900000D01*
X15612500Y-7860000D02*
X15572500Y-7900000D01*
X15572500Y-11060000D02*
X15612500Y-11100000D01*
X15612500Y-11060000D02*
X15572500Y-11100000D01*
X15572500Y-14260000D02*
X15612500Y-14300000D01*
X15612500Y-14260000D02*
X15572500Y-14300000D01*
X15670000Y-8620000D02*
X15710000Y-8660000D01*
X15710000Y-8620000D02*
X15670000Y-8660000D01*
X15670000Y-11820000D02*
X15710000Y-11860000D01*
X15710000Y-11820000D02*
X15670000Y-11860000D01*
X15670000Y-15020000D02*
X15710000Y-15060000D01*
X15710000Y-15020000D02*
X15670000Y-15060000D01*
X15760000Y-8300000D02*
X15800000Y-8340000D01*
X15800000Y-8300000D02*
X15760000Y-8340000D01*
X15760000Y-11500000D02*
X15800000Y-11540000D01*
X15800000Y-11500000D02*
X15760000Y-11540000D01*
X15760000Y-14700000D02*
X15800000Y-14740000D01*
X15800000Y-14700000D02*
X15760000Y-14740000D01*
X15930000Y-7520000D02*
X15970000Y-7560000D01*
X15970000Y-7520000D02*
X15930000Y-7560000D01*
X15930000Y-7675000D02*
X15970000Y-7715000D01*
X15970000Y-7675000D02*
X15930000Y-7715000D01*
X15930000Y-10720000D02*
X15970000Y-10760000D01*
X15970000Y-10720000D02*
X15930000Y-10760000D01*
X15930000Y-10875000D02*
X15970000Y-10915000D01*
X15970000Y-10875000D02*
X15930000Y-10915000D01*
X15930000Y-13920000D02*
X15970000Y-13960000D01*
X15970000Y-13920000D02*
X15930000Y-13960000D01*
X15930000Y-14075000D02*
X15970000Y-14115000D01*
X15970000Y-14075000D02*
X15930000Y-14115000D01*
X16062500Y-7830000D02*
X16102500Y-7870000D01*
X16102500Y-7830000D02*
X16062500Y-7870000D01*
X16062500Y-11030000D02*
X16102500Y-11070000D01*
X16102500Y-11030000D02*
X16062500Y-11070000D01*
X16062500Y-14230000D02*
X16102500Y-14270000D01*
X16102500Y-14230000D02*
X16062500Y-14270000D01*
X16090000Y-8910000D02*
X16130000Y-8950000D01*
X16130000Y-8910000D02*
X16090000Y-8950000D01*
X16090000Y-12110000D02*
X16130000Y-12150000D01*
X16130000Y-12110000D02*
X16090000Y-12150000D01*
X16090000Y-15310000D02*
X16130000Y-15350000D01*
X16130000Y-15310000D02*
X16090000Y-15350000D01*
X16210000Y-7887500D02*
X16250000Y-7927500D01*
X16250000Y-7887500D02*
X16210000Y-7927500D01*
X16210000Y-11087500D02*
X16250000Y-11127500D01*
X16250000Y-11087500D02*
X16210000Y-11127500D01*
X16210000Y-14287500D02*
X16250000Y-14327500D01*
X16250000Y-14287500D02*
X16210000Y-14327500D01*
X16292500Y-8255000D02*
X16332500Y-8295000D01*
X16332500Y-8255000D02*
X16292500Y-8295000D01*
X16292500Y-11455000D02*
X16332500Y-11495000D01*
X16332500Y-11455000D02*
X16292500Y-11495000D01*
X16292500Y-14655000D02*
X16332500Y-14695000D01*
X16332500Y-14655000D02*
X16292500Y-14695000D01*
X16317500Y-7885000D02*
X16357500Y-7925000D01*
X16357500Y-7885000D02*
X16317500Y-7925000D01*
X16317500Y-11085000D02*
X16357500Y-11125000D01*
X16357500Y-11085000D02*
X16317500Y-11125000D01*
X16317500Y-14285000D02*
X16357500Y-14325000D01*
X16357500Y-14285000D02*
X16317500Y-14325000D01*
X16433363Y-7526637D02*
X16473363Y-7566637D01*
X16473363Y-7526637D02*
X16433363Y-7566637D01*
X16433363Y-10726637D02*
X16473363Y-10766637D01*
X16473363Y-10726637D02*
X16433363Y-10766637D01*
X16433363Y-13926637D02*
X16473363Y-13966637D01*
X16473363Y-13926637D02*
X16433363Y-13966637D01*
X16465000Y-7845000D02*
X16505000Y-7885000D01*
X16505000Y-7845000D02*
X16465000Y-7885000D01*
X16465000Y-11045000D02*
X16505000Y-11085000D01*
X16505000Y-11045000D02*
X16465000Y-11085000D01*
X16465000Y-14245000D02*
X16505000Y-14285000D01*
X16505000Y-14245000D02*
X16465000Y-14285000D01*
X16912500Y-7687500D02*
X16952500Y-7727500D01*
X16952500Y-7687500D02*
X16912500Y-7727500D01*
X16912500Y-10887500D02*
X16952500Y-10927500D01*
X16952500Y-10887500D02*
X16912500Y-10927500D01*
X16912500Y-14087500D02*
X16952500Y-14127500D01*
X16952500Y-14087500D02*
X16912500Y-14127500D01*
X12135500Y-7120000D02*
G75*
G03*
X12135500Y-7120000I-50000J0D01*
G01*
X12135500Y-10320000D02*
G75*
G03*
X12135500Y-10320000I-50000J0D01*
G01*
X12135500Y-13520000D02*
G75*
G03*
X12135500Y-13520000I-50000J0D01*
G01*
X12389500Y-7120000D02*
G75*
G03*
X12389500Y-7120000I-50000J0D01*
G01*
X12389500Y-10320000D02*
G75*
G03*
X12389500Y-10320000I-50000J0D01*
G01*
X12389500Y-13520000D02*
G75*
G03*
X12389500Y-13520000I-50000J0D01*
G01*
X12643500Y-7120000D02*
G75*
G03*
X12643500Y-7120000I-50000J0D01*
G01*
X12643500Y-10320000D02*
G75*
G03*
X12643500Y-10320000I-50000J0D01*
G01*
X12643500Y-13520000D02*
G75*
G03*
X12643500Y-13520000I-50000J0D01*
G01*
X12897500Y-7120000D02*
G75*
G03*
X12897500Y-7120000I-50000J0D01*
G01*
X12897500Y-10320000D02*
G75*
G03*
X12897500Y-10320000I-50000J0D01*
G01*
X12897500Y-13520000D02*
G75*
G03*
X12897500Y-13520000I-50000J0D01*
G01*
X13151500Y-7120000D02*
G75*
G03*
X13151500Y-7120000I-50000J0D01*
G01*
X13151500Y-10320000D02*
G75*
G03*
X13151500Y-10320000I-50000J0D01*
G01*
X13151500Y-13520000D02*
G75*
G03*
X13151500Y-13520000I-50000J0D01*
G01*
X13405500Y-7120000D02*
G75*
G03*
X13405500Y-7120000I-50000J0D01*
G01*
X13405500Y-10320000D02*
G75*
G03*
X13405500Y-10320000I-50000J0D01*
G01*
X13405500Y-13520000D02*
G75*
G03*
X13405500Y-13520000I-50000J0D01*
G01*
X15835500Y-7120000D02*
G75*
G03*
X15835500Y-7120000I-50000J0D01*
G01*
X15835500Y-10320000D02*
G75*
G03*
X15835500Y-10320000I-50000J0D01*
G01*
X15835500Y-13520000D02*
G75*
G03*
X15835500Y-13520000I-50000J0D01*
G01*
X16089500Y-7120000D02*
G75*
G03*
X16089500Y-7120000I-50000J0D01*
G01*
X16089500Y-10320000D02*
G75*
G03*
X16089500Y-10320000I-50000J0D01*
G01*
X16089500Y-13520000D02*
G75*
G03*
X16089500Y-13520000I-50000J0D01*
G01*
X16343500Y-7120000D02*
G75*
G03*
X16343500Y-7120000I-50000J0D01*
G01*
X16343500Y-10320000D02*
G75*
G03*
X16343500Y-10320000I-50000J0D01*
G01*
X16343500Y-13520000D02*
G75*
G03*
X16343500Y-13520000I-50000J0D01*
G01*
X16597500Y-7120000D02*
G75*
G03*
X16597500Y-7120000I-50000J0D01*
G01*
X16597500Y-10320000D02*
G75*
G03*
X16597500Y-10320000I-50000J0D01*
G01*
X16597500Y-13520000D02*
G75*
G03*
X16597500Y-13520000I-50000J0D01*
G01*
X16851500Y-7120000D02*
G75*
G03*
X16851500Y-7120000I-50000J0D01*
G01*
X16851500Y-10320000D02*
G75*
G03*
X16851500Y-10320000I-50000J0D01*
G01*
X16851500Y-13520000D02*
G75*
G03*
X16851500Y-13520000I-50000J0D01*
G01*
X17105500Y-7120000D02*
G75*
G03*
X17105500Y-7120000I-50000J0D01*
G01*
X17105500Y-10320000D02*
G75*
G03*
X17105500Y-10320000I-50000J0D01*
G01*
X17105500Y-13520000D02*
G75*
G03*
X17105500Y-13520000I-50000J0D01*
G01*
D12*
X11183928Y-16568214D02*
X11183928Y-16268214D01*
X11255357Y-16268214D01*
X11298214Y-16282500D01*
X11326786Y-16311071D01*
X11341071Y-16339643D01*
X11355357Y-16396786D01*
X11355357Y-16439643D01*
X11341071Y-16496786D01*
X11326786Y-16525357D01*
X11298214Y-16553929D01*
X11255357Y-16568214D01*
X11183928Y-16568214D01*
X11483928Y-16568214D02*
X11483928Y-16368214D01*
X11483928Y-16425357D02*
X11498214Y-16396786D01*
X11512500Y-16382500D01*
X11541071Y-16368214D01*
X11569643Y-16368214D01*
X11669643Y-16568214D02*
X11669643Y-16368214D01*
X11669643Y-16268214D02*
X11655357Y-16282500D01*
X11669643Y-16296786D01*
X11683928Y-16282500D01*
X11669643Y-16268214D01*
X11669643Y-16296786D01*
X11855357Y-16568214D02*
X11826786Y-16553929D01*
X11812500Y-16525357D01*
X11812500Y-16268214D01*
X12012500Y-16568214D02*
X11983928Y-16553929D01*
X11969643Y-16525357D01*
X11969643Y-16268214D01*
X12355357Y-16568214D02*
X12355357Y-16268214D01*
X12455357Y-16482500D01*
X12555357Y-16268214D01*
X12555357Y-16568214D01*
X12826786Y-16568214D02*
X12826786Y-16411071D01*
X12812500Y-16382500D01*
X12783928Y-16368214D01*
X12726786Y-16368214D01*
X12698214Y-16382500D01*
X12826786Y-16553929D02*
X12798214Y-16568214D01*
X12726786Y-16568214D01*
X12698214Y-16553929D01*
X12683928Y-16525357D01*
X12683928Y-16496786D01*
X12698214Y-16468214D01*
X12726786Y-16453929D01*
X12798214Y-16453929D01*
X12826786Y-16439643D01*
X12969643Y-16368214D02*
X12969643Y-16668214D01*
X12969643Y-16382500D02*
X12998214Y-16368214D01*
X13055357Y-16368214D01*
X13083928Y-16382500D01*
X13098214Y-16396786D01*
X13112500Y-16425357D01*
X13112500Y-16511071D01*
X13098214Y-16539643D01*
X13083928Y-16553929D01*
X13055357Y-16568214D01*
X12998214Y-16568214D01*
X12969643Y-16553929D01*
X13241071Y-16539643D02*
X13255357Y-16553929D01*
X13241071Y-16568214D01*
X13226786Y-16553929D01*
X13241071Y-16539643D01*
X13241071Y-16568214D01*
X13241071Y-16382500D02*
X13255357Y-16396786D01*
X13241071Y-16411071D01*
X13226786Y-16396786D01*
X13241071Y-16382500D01*
X13241071Y-16411071D01*
X10857500Y-17042500D02*
X10897500Y-17082500D01*
X10897500Y-17042500D02*
X10857500Y-17082500D01*
X11241071Y-16898214D02*
X11269643Y-16898214D01*
X11298214Y-16912500D01*
X11312500Y-16926786D01*
X11326786Y-16955357D01*
X11341071Y-17012500D01*
X11341071Y-17083929D01*
X11326786Y-17141072D01*
X11312500Y-17169643D01*
X11298214Y-17183929D01*
X11269643Y-17198214D01*
X11241071Y-17198214D01*
X11212500Y-17183929D01*
X11198214Y-17169643D01*
X11183928Y-17141072D01*
X11169643Y-17083929D01*
X11169643Y-17012500D01*
X11183928Y-16955357D01*
X11198214Y-16926786D01*
X11212500Y-16912500D01*
X11241071Y-16898214D01*
X11469643Y-17169643D02*
X11483928Y-17183929D01*
X11469643Y-17198214D01*
X11455357Y-17183929D01*
X11469643Y-17169643D01*
X11469643Y-17198214D01*
X11741071Y-16998214D02*
X11741071Y-17198214D01*
X11669643Y-16883929D02*
X11598214Y-17098214D01*
X11783928Y-17098214D01*
X11955357Y-16898214D02*
X11983928Y-16898214D01*
X12012500Y-16912500D01*
X12026786Y-16926786D01*
X12041071Y-16955357D01*
X12055357Y-17012500D01*
X12055357Y-17083929D01*
X12041071Y-17141072D01*
X12026786Y-17169643D01*
X12012500Y-17183929D01*
X11983928Y-17198214D01*
X11955357Y-17198214D01*
X11926786Y-17183929D01*
X11912500Y-17169643D01*
X11898214Y-17141072D01*
X11883928Y-17083929D01*
X11883928Y-17012500D01*
X11898214Y-16955357D01*
X11912500Y-16926786D01*
X11926786Y-16912500D01*
X11955357Y-16898214D01*
X12241071Y-16898214D02*
X12269643Y-16898214D01*
X12298214Y-16912500D01*
X12312500Y-16926786D01*
X12326786Y-16955357D01*
X12341071Y-17012500D01*
X12341071Y-17083929D01*
X12326786Y-17141072D01*
X12312500Y-17169643D01*
X12298214Y-17183929D01*
X12269643Y-17198214D01*
X12241071Y-17198214D01*
X12212500Y-17183929D01*
X12198214Y-17169643D01*
X12183928Y-17141072D01*
X12169643Y-17083929D01*
X12169643Y-17012500D01*
X12183928Y-16955357D01*
X12198214Y-16926786D01*
X12212500Y-16912500D01*
X12241071Y-16898214D01*
X12469643Y-17198214D02*
X12469643Y-16998214D01*
X12469643Y-17026786D02*
X12483928Y-17012500D01*
X12512500Y-16998214D01*
X12555357Y-16998214D01*
X12583928Y-17012500D01*
X12598214Y-17041072D01*
X12598214Y-17198214D01*
X12598214Y-17041072D02*
X12612500Y-17012500D01*
X12641071Y-16998214D01*
X12683928Y-16998214D01*
X12712500Y-17012500D01*
X12726786Y-17041072D01*
X12726786Y-17198214D01*
X12869643Y-17198214D02*
X12869643Y-16998214D01*
X12869643Y-17026786D02*
X12883928Y-17012500D01*
X12912500Y-16998214D01*
X12955357Y-16998214D01*
X12983928Y-17012500D01*
X12998214Y-17041072D01*
X12998214Y-17198214D01*
X12998214Y-17041072D02*
X13012500Y-17012500D01*
X13041071Y-16998214D01*
X13083928Y-16998214D01*
X13112500Y-17012500D01*
X13126786Y-17041072D01*
X13126786Y-17198214D01*
X13712500Y-16883929D02*
X13455357Y-17269643D01*
X14098214Y-16898214D02*
X14126786Y-16898214D01*
X14155357Y-16912500D01*
X14169643Y-16926786D01*
X14183928Y-16955357D01*
X14198214Y-17012500D01*
X14198214Y-17083929D01*
X14183928Y-17141072D01*
X14169643Y-17169643D01*
X14155357Y-17183929D01*
X14126786Y-17198214D01*
X14098214Y-17198214D01*
X14069643Y-17183929D01*
X14055357Y-17169643D01*
X14041071Y-17141072D01*
X14026786Y-17083929D01*
X14026786Y-17012500D01*
X14041071Y-16955357D01*
X14055357Y-16926786D01*
X14069643Y-16912500D01*
X14098214Y-16898214D01*
X14326786Y-17169643D02*
X14341071Y-17183929D01*
X14326786Y-17198214D01*
X14312500Y-17183929D01*
X14326786Y-17169643D01*
X14326786Y-17198214D01*
X14526786Y-16898214D02*
X14555357Y-16898214D01*
X14583928Y-16912500D01*
X14598214Y-16926786D01*
X14612500Y-16955357D01*
X14626786Y-17012500D01*
X14626786Y-17083929D01*
X14612500Y-17141072D01*
X14598214Y-17169643D01*
X14583928Y-17183929D01*
X14555357Y-17198214D01*
X14526786Y-17198214D01*
X14498214Y-17183929D01*
X14483928Y-17169643D01*
X14469643Y-17141072D01*
X14455357Y-17083929D01*
X14455357Y-17012500D01*
X14469643Y-16955357D01*
X14483928Y-16926786D01*
X14498214Y-16912500D01*
X14526786Y-16898214D01*
X14912500Y-17198214D02*
X14741071Y-17198214D01*
X14826786Y-17198214D02*
X14826786Y-16898214D01*
X14798214Y-16941072D01*
X14769643Y-16969643D01*
X14741071Y-16983929D01*
X15183928Y-16898214D02*
X15041071Y-16898214D01*
X15026786Y-17041072D01*
X15041071Y-17026786D01*
X15069643Y-17012500D01*
X15141071Y-17012500D01*
X15169643Y-17026786D01*
X15183928Y-17041072D01*
X15198214Y-17069643D01*
X15198214Y-17141072D01*
X15183928Y-17169643D01*
X15169643Y-17183929D01*
X15141071Y-17198214D01*
X15069643Y-17198214D01*
X15041071Y-17183929D01*
X15026786Y-17169643D01*
X15298214Y-16898214D02*
X15498214Y-16898214D01*
X15369643Y-17198214D01*
X15598214Y-16898214D02*
X15598214Y-16955357D01*
X15712500Y-16898214D02*
X15712500Y-16955357D01*
X16155357Y-17312500D02*
X16141071Y-17298214D01*
X16112500Y-17255357D01*
X16098214Y-17226786D01*
X16083928Y-17183929D01*
X16069643Y-17112500D01*
X16069643Y-17055357D01*
X16083928Y-16983929D01*
X16098214Y-16941072D01*
X16112500Y-16912500D01*
X16141071Y-16869643D01*
X16155357Y-16855357D01*
X16241071Y-16898214D02*
X16441071Y-16898214D01*
X16312500Y-17198214D01*
X16598214Y-17026786D02*
X16569643Y-17012500D01*
X16555357Y-16998214D01*
X16541071Y-16969643D01*
X16541071Y-16955357D01*
X16555357Y-16926786D01*
X16569643Y-16912500D01*
X16598214Y-16898214D01*
X16655357Y-16898214D01*
X16683928Y-16912500D01*
X16698214Y-16926786D01*
X16712500Y-16955357D01*
X16712500Y-16969643D01*
X16698214Y-16998214D01*
X16683928Y-17012500D01*
X16655357Y-17026786D01*
X16598214Y-17026786D01*
X16569643Y-17041072D01*
X16555357Y-17055357D01*
X16541071Y-17083929D01*
X16541071Y-17141072D01*
X16555357Y-17169643D01*
X16569643Y-17183929D01*
X16598214Y-17198214D01*
X16655357Y-17198214D01*
X16683928Y-17183929D01*
X16698214Y-17169643D01*
X16712500Y-17141072D01*
X16712500Y-17083929D01*
X16698214Y-17055357D01*
X16683928Y-17041072D01*
X16655357Y-17026786D01*
X17069643Y-17198214D02*
X17069643Y-16898214D01*
X17198214Y-17198214D02*
X17198214Y-17041072D01*
X17183928Y-17012500D01*
X17155357Y-16998214D01*
X17112500Y-16998214D01*
X17083928Y-17012500D01*
X17069643Y-17026786D01*
X17383928Y-17198214D02*
X17355357Y-17183929D01*
X17341071Y-17169643D01*
X17326786Y-17141072D01*
X17326786Y-17055357D01*
X17341071Y-17026786D01*
X17355357Y-17012500D01*
X17383928Y-16998214D01*
X17426786Y-16998214D01*
X17455357Y-17012500D01*
X17469643Y-17026786D01*
X17483928Y-17055357D01*
X17483928Y-17141072D01*
X17469643Y-17169643D01*
X17455357Y-17183929D01*
X17426786Y-17198214D01*
X17383928Y-17198214D01*
X17655357Y-17198214D02*
X17626786Y-17183929D01*
X17612500Y-17155357D01*
X17612500Y-16898214D01*
X17883928Y-17183929D02*
X17855357Y-17198214D01*
X17798214Y-17198214D01*
X17769643Y-17183929D01*
X17755357Y-17155357D01*
X17755357Y-17041072D01*
X17769643Y-17012500D01*
X17798214Y-16998214D01*
X17855357Y-16998214D01*
X17883928Y-17012500D01*
X17898214Y-17041072D01*
X17898214Y-17069643D01*
X17755357Y-17098214D01*
X18012500Y-17183929D02*
X18041071Y-17198214D01*
X18098214Y-17198214D01*
X18126786Y-17183929D01*
X18141071Y-17155357D01*
X18141071Y-17141072D01*
X18126786Y-17112500D01*
X18098214Y-17098214D01*
X18055357Y-17098214D01*
X18026786Y-17083929D01*
X18012500Y-17055357D01*
X18012500Y-17041072D01*
X18026786Y-17012500D01*
X18055357Y-16998214D01*
X18098214Y-16998214D01*
X18126786Y-17012500D01*
X18241071Y-17312500D02*
X18255357Y-17298214D01*
X18283928Y-17255357D01*
X18298214Y-17226786D01*
X18312500Y-17183929D01*
X18326786Y-17112500D01*
X18326786Y-17055357D01*
X18312500Y-16983929D01*
X18298214Y-16941072D01*
X18283928Y-16912500D01*
X18255357Y-16869643D01*
X18241071Y-16855357D01*
X10897500Y-17458500D02*
G75*
G03*
X10897500Y-17458500I-50000J0D01*
G01*
X11341071Y-17594214D02*
X11169643Y-17594214D01*
X11255357Y-17594214D02*
X11255357Y-17294214D01*
X11226786Y-17337072D01*
X11198214Y-17365643D01*
X11169643Y-17379929D01*
X11469643Y-17565643D02*
X11483928Y-17579929D01*
X11469643Y-17594214D01*
X11455357Y-17579929D01*
X11469643Y-17565643D01*
X11469643Y-17594214D01*
X11669643Y-17294214D02*
X11698214Y-17294214D01*
X11726786Y-17308500D01*
X11741071Y-17322786D01*
X11755357Y-17351357D01*
X11769643Y-17408500D01*
X11769643Y-17479929D01*
X11755357Y-17537072D01*
X11741071Y-17565643D01*
X11726786Y-17579929D01*
X11698214Y-17594214D01*
X11669643Y-17594214D01*
X11641071Y-17579929D01*
X11626786Y-17565643D01*
X11612500Y-17537072D01*
X11598214Y-17479929D01*
X11598214Y-17408500D01*
X11612500Y-17351357D01*
X11626786Y-17322786D01*
X11641071Y-17308500D01*
X11669643Y-17294214D01*
X11955357Y-17294214D02*
X11983928Y-17294214D01*
X12012500Y-17308500D01*
X12026786Y-17322786D01*
X12041071Y-17351357D01*
X12055357Y-17408500D01*
X12055357Y-17479929D01*
X12041071Y-17537072D01*
X12026786Y-17565643D01*
X12012500Y-17579929D01*
X11983928Y-17594214D01*
X11955357Y-17594214D01*
X11926786Y-17579929D01*
X11912500Y-17565643D01*
X11898214Y-17537072D01*
X11883928Y-17479929D01*
X11883928Y-17408500D01*
X11898214Y-17351357D01*
X11912500Y-17322786D01*
X11926786Y-17308500D01*
X11955357Y-17294214D01*
X12241071Y-17294214D02*
X12269643Y-17294214D01*
X12298214Y-17308500D01*
X12312500Y-17322786D01*
X12326786Y-17351357D01*
X12341071Y-17408500D01*
X12341071Y-17479929D01*
X12326786Y-17537072D01*
X12312500Y-17565643D01*
X12298214Y-17579929D01*
X12269643Y-17594214D01*
X12241071Y-17594214D01*
X12212500Y-17579929D01*
X12198214Y-17565643D01*
X12183928Y-17537072D01*
X12169643Y-17479929D01*
X12169643Y-17408500D01*
X12183928Y-17351357D01*
X12198214Y-17322786D01*
X12212500Y-17308500D01*
X12241071Y-17294214D01*
X12469643Y-17594214D02*
X12469643Y-17394214D01*
X12469643Y-17422786D02*
X12483928Y-17408500D01*
X12512500Y-17394214D01*
X12555357Y-17394214D01*
X12583928Y-17408500D01*
X12598214Y-17437072D01*
X12598214Y-17594214D01*
X12598214Y-17437072D02*
X12612500Y-17408500D01*
X12641071Y-17394214D01*
X12683928Y-17394214D01*
X12712500Y-17408500D01*
X12726786Y-17437072D01*
X12726786Y-17594214D01*
X12869643Y-17594214D02*
X12869643Y-17394214D01*
X12869643Y-17422786D02*
X12883928Y-17408500D01*
X12912500Y-17394214D01*
X12955357Y-17394214D01*
X12983928Y-17408500D01*
X12998214Y-17437072D01*
X12998214Y-17594214D01*
X12998214Y-17437072D02*
X13012500Y-17408500D01*
X13041071Y-17394214D01*
X13083928Y-17394214D01*
X13112500Y-17408500D01*
X13126786Y-17437072D01*
X13126786Y-17594214D01*
X13712500Y-17279929D02*
X13455357Y-17665643D01*
X14098214Y-17294214D02*
X14126786Y-17294214D01*
X14155357Y-17308500D01*
X14169643Y-17322786D01*
X14183928Y-17351357D01*
X14198214Y-17408500D01*
X14198214Y-17479929D01*
X14183928Y-17537072D01*
X14169643Y-17565643D01*
X14155357Y-17579929D01*
X14126786Y-17594214D01*
X14098214Y-17594214D01*
X14069643Y-17579929D01*
X14055357Y-17565643D01*
X14041071Y-17537072D01*
X14026786Y-17479929D01*
X14026786Y-17408500D01*
X14041071Y-17351357D01*
X14055357Y-17322786D01*
X14069643Y-17308500D01*
X14098214Y-17294214D01*
X14326786Y-17565643D02*
X14341071Y-17579929D01*
X14326786Y-17594214D01*
X14312500Y-17579929D01*
X14326786Y-17565643D01*
X14326786Y-17594214D01*
X14526786Y-17294214D02*
X14555357Y-17294214D01*
X14583928Y-17308500D01*
X14598214Y-17322786D01*
X14612500Y-17351357D01*
X14626786Y-17408500D01*
X14626786Y-17479929D01*
X14612500Y-17537072D01*
X14598214Y-17565643D01*
X14583928Y-17579929D01*
X14555357Y-17594214D01*
X14526786Y-17594214D01*
X14498214Y-17579929D01*
X14483928Y-17565643D01*
X14469643Y-17537072D01*
X14455357Y-17479929D01*
X14455357Y-17408500D01*
X14469643Y-17351357D01*
X14483928Y-17322786D01*
X14498214Y-17308500D01*
X14526786Y-17294214D01*
X14726786Y-17294214D02*
X14912500Y-17294214D01*
X14812500Y-17408500D01*
X14855357Y-17408500D01*
X14883928Y-17422786D01*
X14898214Y-17437072D01*
X14912500Y-17465643D01*
X14912500Y-17537072D01*
X14898214Y-17565643D01*
X14883928Y-17579929D01*
X14855357Y-17594214D01*
X14769643Y-17594214D01*
X14741071Y-17579929D01*
X14726786Y-17565643D01*
X15055357Y-17594214D02*
X15112500Y-17594214D01*
X15141071Y-17579929D01*
X15155357Y-17565643D01*
X15183928Y-17522786D01*
X15198214Y-17465643D01*
X15198214Y-17351357D01*
X15183928Y-17322786D01*
X15169643Y-17308500D01*
X15141071Y-17294214D01*
X15083928Y-17294214D01*
X15055357Y-17308500D01*
X15041071Y-17322786D01*
X15026786Y-17351357D01*
X15026786Y-17422786D01*
X15041071Y-17451357D01*
X15055357Y-17465643D01*
X15083928Y-17479929D01*
X15141071Y-17479929D01*
X15169643Y-17465643D01*
X15183928Y-17451357D01*
X15198214Y-17422786D01*
X15455357Y-17394214D02*
X15455357Y-17594214D01*
X15383928Y-17279929D02*
X15312500Y-17494214D01*
X15498214Y-17494214D01*
X15598214Y-17294214D02*
X15598214Y-17351357D01*
X15712500Y-17294214D02*
X15712500Y-17351357D01*
X16155357Y-17708500D02*
X16141071Y-17694214D01*
X16112500Y-17651357D01*
X16098214Y-17622786D01*
X16083928Y-17579929D01*
X16069643Y-17508500D01*
X16069643Y-17451357D01*
X16083928Y-17379929D01*
X16098214Y-17337072D01*
X16112500Y-17308500D01*
X16141071Y-17265643D01*
X16155357Y-17251357D01*
X16241071Y-17294214D02*
X16426786Y-17294214D01*
X16326786Y-17408500D01*
X16369643Y-17408500D01*
X16398214Y-17422786D01*
X16412500Y-17437072D01*
X16426786Y-17465643D01*
X16426786Y-17537072D01*
X16412500Y-17565643D01*
X16398214Y-17579929D01*
X16369643Y-17594214D01*
X16283928Y-17594214D01*
X16255357Y-17579929D01*
X16241071Y-17565643D01*
X16683928Y-17294214D02*
X16626786Y-17294214D01*
X16598214Y-17308500D01*
X16583928Y-17322786D01*
X16555357Y-17365643D01*
X16541071Y-17422786D01*
X16541071Y-17537072D01*
X16555357Y-17565643D01*
X16569643Y-17579929D01*
X16598214Y-17594214D01*
X16655357Y-17594214D01*
X16683928Y-17579929D01*
X16698214Y-17565643D01*
X16712500Y-17537072D01*
X16712500Y-17465643D01*
X16698214Y-17437072D01*
X16683928Y-17422786D01*
X16655357Y-17408500D01*
X16598214Y-17408500D01*
X16569643Y-17422786D01*
X16555357Y-17437072D01*
X16541071Y-17465643D01*
X17069643Y-17594214D02*
X17069643Y-17294214D01*
X17198214Y-17594214D02*
X17198214Y-17437072D01*
X17183928Y-17408500D01*
X17155357Y-17394214D01*
X17112500Y-17394214D01*
X17083928Y-17408500D01*
X17069643Y-17422786D01*
X17383928Y-17594214D02*
X17355357Y-17579929D01*
X17341071Y-17565643D01*
X17326786Y-17537072D01*
X17326786Y-17451357D01*
X17341071Y-17422786D01*
X17355357Y-17408500D01*
X17383928Y-17394214D01*
X17426786Y-17394214D01*
X17455357Y-17408500D01*
X17469643Y-17422786D01*
X17483928Y-17451357D01*
X17483928Y-17537072D01*
X17469643Y-17565643D01*
X17455357Y-17579929D01*
X17426786Y-17594214D01*
X17383928Y-17594214D01*
X17655357Y-17594214D02*
X17626786Y-17579929D01*
X17612500Y-17551357D01*
X17612500Y-17294214D01*
X17883928Y-17579929D02*
X17855357Y-17594214D01*
X17798214Y-17594214D01*
X17769643Y-17579929D01*
X17755357Y-17551357D01*
X17755357Y-17437072D01*
X17769643Y-17408500D01*
X17798214Y-17394214D01*
X17855357Y-17394214D01*
X17883928Y-17408500D01*
X17898214Y-17437072D01*
X17898214Y-17465643D01*
X17755357Y-17494214D01*
X18012500Y-17579929D02*
X18041071Y-17594214D01*
X18098214Y-17594214D01*
X18126786Y-17579929D01*
X18141071Y-17551357D01*
X18141071Y-17537072D01*
X18126786Y-17508500D01*
X18098214Y-17494214D01*
X18055357Y-17494214D01*
X18026786Y-17479929D01*
X18012500Y-17451357D01*
X18012500Y-17437072D01*
X18026786Y-17408500D01*
X18055357Y-17394214D01*
X18098214Y-17394214D01*
X18126786Y-17408500D01*
X18241071Y-17708500D02*
X18255357Y-17694214D01*
X18283928Y-17651357D01*
X18298214Y-17622786D01*
X18312500Y-17579929D01*
X18326786Y-17508500D01*
X18326786Y-17451357D01*
X18312500Y-17379929D01*
X18298214Y-17337072D01*
X18283928Y-17308500D01*
X18255357Y-17265643D01*
X18241071Y-17251357D01*
M02*
