%TF.GenerationSoftware,KiCad,Pcbnew,5.1.10*%
%TF.CreationDate,2021-11-25T11:36:36-06:00*%
%TF.ProjectId,dadoInclusivo_panelizado,6461646f-496e-4636-9c75-7369766f5f70,rev?*%
%TF.SameCoordinates,Original*%
%TF.FileFunction,Soldermask,Bot*%
%TF.FilePolarity,Negative*%
%FSLAX46Y46*%
G04 Gerber Fmt 4.6, Leading zero omitted, Abs format (unit mm)*
G04 Created by KiCad (PCBNEW 5.1.10) date 2021-11-25 11:36:36*
%MOMM*%
%LPD*%
G01*
G04 APERTURE LIST*
%TA.AperFunction,Profile*%
%ADD10C,0.050000*%
%TD*%
%ADD11C,0.500000*%
%ADD12R,3.150000X1.000000*%
%ADD13R,0.550000X1.000000*%
%ADD14C,0.100000*%
%ADD15R,1.600000X0.550000*%
%ADD16R,0.550000X1.600000*%
%ADD17R,1.000000X0.550000*%
%ADD18R,1.500000X1.500000*%
%ADD19C,2.100000*%
%ADD20R,1.700000X1.700000*%
%ADD21O,1.700000X1.700000*%
%ADD22C,0.800000*%
G04 APERTURE END LIST*
D10*
X181000000Y-144000000D02*
X181000000Y-148000000D01*
X181000000Y-112000000D02*
X181000000Y-116000000D01*
X181000000Y-80000000D02*
X181000000Y-84000000D01*
X169000000Y-161000000D02*
X173000000Y-161000000D01*
X154000000Y-161000000D02*
X158000000Y-161000000D01*
X132000000Y-161000000D02*
X136000000Y-161000000D01*
X117000000Y-161000000D02*
X121000000Y-161000000D01*
X109000000Y-144000000D02*
X109000000Y-148000000D01*
X109000000Y-112000000D02*
X109000000Y-116000000D01*
X109000000Y-80000000D02*
X109000000Y-84000000D01*
X121000000Y-67000000D02*
X117000000Y-67000000D01*
X136000000Y-67000000D02*
X132000000Y-67000000D01*
X158000000Y-67000000D02*
X154000000Y-67000000D01*
X173000000Y-67000000D02*
X169000000Y-67000000D01*
X154000000Y-161000000D02*
X146000000Y-161000000D01*
X117000000Y-161000000D02*
X109000000Y-161000000D01*
X154000000Y-129000000D02*
X146000000Y-129000000D01*
X117000000Y-129000000D02*
X109000000Y-129000000D01*
X154000000Y-97000000D02*
X146000000Y-97000000D01*
X181000000Y-161000000D02*
X173000000Y-161000000D01*
X144000000Y-161000000D02*
X136000000Y-161000000D01*
X181000000Y-129000000D02*
X173000000Y-129000000D01*
X144000000Y-129000000D02*
X136000000Y-129000000D01*
X181000000Y-97000000D02*
X173000000Y-97000000D01*
X181000000Y-148000000D02*
X181000000Y-161000000D01*
X144000000Y-148000000D02*
X144000000Y-161000000D01*
X181000000Y-116000000D02*
X181000000Y-129000000D01*
X144000000Y-116000000D02*
X144000000Y-129000000D01*
X181000000Y-84000000D02*
X181000000Y-97000000D01*
X169000000Y-161000000D02*
X158000000Y-161000000D01*
X132000000Y-161000000D02*
X121000000Y-161000000D01*
X169000000Y-129000000D02*
X158000000Y-129000000D01*
X132000000Y-129000000D02*
X121000000Y-129000000D01*
X169000000Y-97000000D02*
X158000000Y-97000000D01*
X146000000Y-161000000D02*
X146000000Y-148000000D01*
X109000000Y-161000000D02*
X109000000Y-148000000D01*
X146000000Y-129000000D02*
X146000000Y-116000000D01*
X109000000Y-129000000D02*
X109000000Y-116000000D01*
X146000000Y-97000000D02*
X146000000Y-84000000D01*
X173000000Y-131000000D02*
X181000000Y-131000000D01*
X136000000Y-131000000D02*
X144000000Y-131000000D01*
X173000000Y-99000000D02*
X181000000Y-99000000D01*
X136000000Y-99000000D02*
X144000000Y-99000000D01*
X173000000Y-67000000D02*
X181000000Y-67000000D01*
X146000000Y-144000000D02*
X146000000Y-131000000D01*
X109000000Y-144000000D02*
X109000000Y-131000000D01*
X146000000Y-112000000D02*
X146000000Y-99000000D01*
X109000000Y-112000000D02*
X109000000Y-99000000D01*
X146000000Y-80000000D02*
X146000000Y-67000000D01*
X146000000Y-131000000D02*
X154000000Y-131000000D01*
X109000000Y-131000000D02*
X117000000Y-131000000D01*
X146000000Y-99000000D02*
X154000000Y-99000000D01*
X109000000Y-99000000D02*
X117000000Y-99000000D01*
X146000000Y-67000000D02*
X154000000Y-67000000D01*
X158000000Y-131000000D02*
X169000000Y-131000000D01*
X121000000Y-131000000D02*
X132000000Y-131000000D01*
X158000000Y-99000000D02*
X169000000Y-99000000D01*
X121000000Y-99000000D02*
X132000000Y-99000000D01*
X158000000Y-67000000D02*
X169000000Y-67000000D01*
X181000000Y-131000000D02*
X181000000Y-144000000D01*
X144000000Y-131000000D02*
X144000000Y-144000000D01*
X181000000Y-99000000D02*
X181000000Y-112000000D01*
X144000000Y-99000000D02*
X144000000Y-112000000D01*
X181000000Y-67000000D02*
X181000000Y-80000000D01*
X121000000Y-67000000D02*
X132000000Y-67000000D01*
X109000000Y-67000000D02*
X117000000Y-67000000D01*
X109000000Y-80000000D02*
X109000000Y-67000000D01*
X109000000Y-97000000D02*
X109000000Y-84000000D01*
X117000000Y-97000000D02*
X109000000Y-97000000D01*
X132000000Y-97000000D02*
X121000000Y-97000000D01*
X144000000Y-97000000D02*
X136000000Y-97000000D01*
X144000000Y-84000000D02*
X144000000Y-97000000D01*
X144000000Y-67000000D02*
X144000000Y-80000000D01*
X136000000Y-67000000D02*
X144000000Y-67000000D01*
D11*
%TO.C,mouse-bite-2mm-slot*%
X144250000Y-146000000D03*
X145750000Y-146000000D03*
X144250000Y-145250000D03*
X144250000Y-146750000D03*
X145750000Y-146750000D03*
X145750000Y-145250000D03*
%TD*%
%TO.C,mouse-bite-2mm-slot*%
X144250000Y-114000000D03*
X145750000Y-114000000D03*
X144250000Y-113250000D03*
X144250000Y-114750000D03*
X145750000Y-114750000D03*
X145750000Y-113250000D03*
%TD*%
%TO.C,mouse-bite-2mm-slot*%
X144250000Y-82000000D03*
X145750000Y-82000000D03*
X144250000Y-81250000D03*
X144250000Y-82750000D03*
X145750000Y-82750000D03*
X145750000Y-81250000D03*
%TD*%
%TO.C,mouse-bite-2mm-slot*%
X171000000Y-130750000D03*
X171000000Y-129250000D03*
X170250000Y-130750000D03*
X171750000Y-130750000D03*
X171750000Y-129250000D03*
X170250000Y-129250000D03*
%TD*%
%TO.C,mouse-bite-2mm-slot*%
X134000000Y-130750000D03*
X134000000Y-129250000D03*
X133250000Y-130750000D03*
X134750000Y-130750000D03*
X134750000Y-129250000D03*
X133250000Y-129250000D03*
%TD*%
%TO.C,mouse-bite-2mm-slot*%
X171000000Y-98750000D03*
X171000000Y-97250000D03*
X170250000Y-98750000D03*
X171750000Y-98750000D03*
X171750000Y-97250000D03*
X170250000Y-97250000D03*
%TD*%
%TO.C,mouse-bite-2mm-slot*%
X134000000Y-98750000D03*
X134000000Y-97250000D03*
X133250000Y-98750000D03*
X134750000Y-98750000D03*
X134750000Y-97250000D03*
X133250000Y-97250000D03*
%TD*%
D12*
%TO.C,J3*%
X177650000Y-154300000D03*
X172600000Y-154300000D03*
%TD*%
%TO.C,J3*%
X140650000Y-154300000D03*
X135600000Y-154300000D03*
%TD*%
%TO.C,J3*%
X177650000Y-122300000D03*
X172600000Y-122300000D03*
%TD*%
%TO.C,J3*%
X140650000Y-122300000D03*
X135600000Y-122300000D03*
%TD*%
%TO.C,J3*%
X177650000Y-90300000D03*
X172600000Y-90300000D03*
%TD*%
D13*
%TO.C,TP9*%
X161500000Y-151350000D03*
%TD*%
%TO.C,TP9*%
X124500000Y-151350000D03*
%TD*%
%TO.C,TP9*%
X161500000Y-119350000D03*
%TD*%
%TO.C,TP9*%
X124500000Y-119350000D03*
%TD*%
%TO.C,TP9*%
X161500000Y-87350000D03*
%TD*%
D14*
%TO.C,Y1*%
G36*
X152615990Y-144744544D02*
G01*
X151343198Y-146017336D01*
X149858274Y-144532412D01*
X151131066Y-143259620D01*
X152615990Y-144744544D01*
G37*
G36*
X150565380Y-142693934D02*
G01*
X149292588Y-143966726D01*
X147807664Y-142481802D01*
X149080456Y-141209010D01*
X150565380Y-142693934D01*
G37*
G36*
X152191726Y-141067588D02*
G01*
X150918934Y-142340380D01*
X149434010Y-140855456D01*
X150706802Y-139582664D01*
X152191726Y-141067588D01*
G37*
G36*
X154242336Y-143118198D02*
G01*
X152969544Y-144390990D01*
X151484620Y-142906066D01*
X152757412Y-141633274D01*
X154242336Y-143118198D01*
G37*
%TD*%
%TO.C,Y1*%
G36*
X115615990Y-144744544D02*
G01*
X114343198Y-146017336D01*
X112858274Y-144532412D01*
X114131066Y-143259620D01*
X115615990Y-144744544D01*
G37*
G36*
X113565380Y-142693934D02*
G01*
X112292588Y-143966726D01*
X110807664Y-142481802D01*
X112080456Y-141209010D01*
X113565380Y-142693934D01*
G37*
G36*
X115191726Y-141067588D02*
G01*
X113918934Y-142340380D01*
X112434010Y-140855456D01*
X113706802Y-139582664D01*
X115191726Y-141067588D01*
G37*
G36*
X117242336Y-143118198D02*
G01*
X115969544Y-144390990D01*
X114484620Y-142906066D01*
X115757412Y-141633274D01*
X117242336Y-143118198D01*
G37*
%TD*%
%TO.C,Y1*%
G36*
X152615990Y-112744544D02*
G01*
X151343198Y-114017336D01*
X149858274Y-112532412D01*
X151131066Y-111259620D01*
X152615990Y-112744544D01*
G37*
G36*
X150565380Y-110693934D02*
G01*
X149292588Y-111966726D01*
X147807664Y-110481802D01*
X149080456Y-109209010D01*
X150565380Y-110693934D01*
G37*
G36*
X152191726Y-109067588D02*
G01*
X150918934Y-110340380D01*
X149434010Y-108855456D01*
X150706802Y-107582664D01*
X152191726Y-109067588D01*
G37*
G36*
X154242336Y-111118198D02*
G01*
X152969544Y-112390990D01*
X151484620Y-110906066D01*
X152757412Y-109633274D01*
X154242336Y-111118198D01*
G37*
%TD*%
%TO.C,Y1*%
G36*
X115615990Y-112744544D02*
G01*
X114343198Y-114017336D01*
X112858274Y-112532412D01*
X114131066Y-111259620D01*
X115615990Y-112744544D01*
G37*
G36*
X113565380Y-110693934D02*
G01*
X112292588Y-111966726D01*
X110807664Y-110481802D01*
X112080456Y-109209010D01*
X113565380Y-110693934D01*
G37*
G36*
X115191726Y-109067588D02*
G01*
X113918934Y-110340380D01*
X112434010Y-108855456D01*
X113706802Y-107582664D01*
X115191726Y-109067588D01*
G37*
G36*
X117242336Y-111118198D02*
G01*
X115969544Y-112390990D01*
X114484620Y-110906066D01*
X115757412Y-109633274D01*
X117242336Y-111118198D01*
G37*
%TD*%
%TO.C,Y1*%
G36*
X152615990Y-80744544D02*
G01*
X151343198Y-82017336D01*
X149858274Y-80532412D01*
X151131066Y-79259620D01*
X152615990Y-80744544D01*
G37*
G36*
X150565380Y-78693934D02*
G01*
X149292588Y-79966726D01*
X147807664Y-78481802D01*
X149080456Y-77209010D01*
X150565380Y-78693934D01*
G37*
G36*
X152191726Y-77067588D02*
G01*
X150918934Y-78340380D01*
X149434010Y-76855456D01*
X150706802Y-75582664D01*
X152191726Y-77067588D01*
G37*
G36*
X154242336Y-79118198D02*
G01*
X152969544Y-80390990D01*
X151484620Y-78906066D01*
X152757412Y-77633274D01*
X154242336Y-79118198D01*
G37*
%TD*%
%TO.C,C2*%
G36*
G01*
X155100000Y-140625000D02*
X154150000Y-140625000D01*
G75*
G02*
X153900000Y-140375000I0J250000D01*
G01*
X153900000Y-139700000D01*
G75*
G02*
X154150000Y-139450000I250000J0D01*
G01*
X155100000Y-139450000D01*
G75*
G02*
X155350000Y-139700000I0J-250000D01*
G01*
X155350000Y-140375000D01*
G75*
G02*
X155100000Y-140625000I-250000J0D01*
G01*
G37*
G36*
G01*
X155100000Y-138550000D02*
X154150000Y-138550000D01*
G75*
G02*
X153900000Y-138300000I0J250000D01*
G01*
X153900000Y-137625000D01*
G75*
G02*
X154150000Y-137375000I250000J0D01*
G01*
X155100000Y-137375000D01*
G75*
G02*
X155350000Y-137625000I0J-250000D01*
G01*
X155350000Y-138300000D01*
G75*
G02*
X155100000Y-138550000I-250000J0D01*
G01*
G37*
%TD*%
%TO.C,C2*%
G36*
G01*
X118100000Y-140625000D02*
X117150000Y-140625000D01*
G75*
G02*
X116900000Y-140375000I0J250000D01*
G01*
X116900000Y-139700000D01*
G75*
G02*
X117150000Y-139450000I250000J0D01*
G01*
X118100000Y-139450000D01*
G75*
G02*
X118350000Y-139700000I0J-250000D01*
G01*
X118350000Y-140375000D01*
G75*
G02*
X118100000Y-140625000I-250000J0D01*
G01*
G37*
G36*
G01*
X118100000Y-138550000D02*
X117150000Y-138550000D01*
G75*
G02*
X116900000Y-138300000I0J250000D01*
G01*
X116900000Y-137625000D01*
G75*
G02*
X117150000Y-137375000I250000J0D01*
G01*
X118100000Y-137375000D01*
G75*
G02*
X118350000Y-137625000I0J-250000D01*
G01*
X118350000Y-138300000D01*
G75*
G02*
X118100000Y-138550000I-250000J0D01*
G01*
G37*
%TD*%
%TO.C,C2*%
G36*
G01*
X155100000Y-108625000D02*
X154150000Y-108625000D01*
G75*
G02*
X153900000Y-108375000I0J250000D01*
G01*
X153900000Y-107700000D01*
G75*
G02*
X154150000Y-107450000I250000J0D01*
G01*
X155100000Y-107450000D01*
G75*
G02*
X155350000Y-107700000I0J-250000D01*
G01*
X155350000Y-108375000D01*
G75*
G02*
X155100000Y-108625000I-250000J0D01*
G01*
G37*
G36*
G01*
X155100000Y-106550000D02*
X154150000Y-106550000D01*
G75*
G02*
X153900000Y-106300000I0J250000D01*
G01*
X153900000Y-105625000D01*
G75*
G02*
X154150000Y-105375000I250000J0D01*
G01*
X155100000Y-105375000D01*
G75*
G02*
X155350000Y-105625000I0J-250000D01*
G01*
X155350000Y-106300000D01*
G75*
G02*
X155100000Y-106550000I-250000J0D01*
G01*
G37*
%TD*%
%TO.C,C2*%
G36*
G01*
X118100000Y-108625000D02*
X117150000Y-108625000D01*
G75*
G02*
X116900000Y-108375000I0J250000D01*
G01*
X116900000Y-107700000D01*
G75*
G02*
X117150000Y-107450000I250000J0D01*
G01*
X118100000Y-107450000D01*
G75*
G02*
X118350000Y-107700000I0J-250000D01*
G01*
X118350000Y-108375000D01*
G75*
G02*
X118100000Y-108625000I-250000J0D01*
G01*
G37*
G36*
G01*
X118100000Y-106550000D02*
X117150000Y-106550000D01*
G75*
G02*
X116900000Y-106300000I0J250000D01*
G01*
X116900000Y-105625000D01*
G75*
G02*
X117150000Y-105375000I250000J0D01*
G01*
X118100000Y-105375000D01*
G75*
G02*
X118350000Y-105625000I0J-250000D01*
G01*
X118350000Y-106300000D01*
G75*
G02*
X118100000Y-106550000I-250000J0D01*
G01*
G37*
%TD*%
%TO.C,C2*%
G36*
G01*
X155100000Y-76625000D02*
X154150000Y-76625000D01*
G75*
G02*
X153900000Y-76375000I0J250000D01*
G01*
X153900000Y-75700000D01*
G75*
G02*
X154150000Y-75450000I250000J0D01*
G01*
X155100000Y-75450000D01*
G75*
G02*
X155350000Y-75700000I0J-250000D01*
G01*
X155350000Y-76375000D01*
G75*
G02*
X155100000Y-76625000I-250000J0D01*
G01*
G37*
G36*
G01*
X155100000Y-74550000D02*
X154150000Y-74550000D01*
G75*
G02*
X153900000Y-74300000I0J250000D01*
G01*
X153900000Y-73625000D01*
G75*
G02*
X154150000Y-73375000I250000J0D01*
G01*
X155100000Y-73375000D01*
G75*
G02*
X155350000Y-73625000I0J-250000D01*
G01*
X155350000Y-74300000D01*
G75*
G02*
X155100000Y-74550000I-250000J0D01*
G01*
G37*
%TD*%
D15*
%TO.C,U1*%
X159250000Y-148000000D03*
X159250000Y-147200000D03*
X159250000Y-146400000D03*
X159250000Y-145600000D03*
X159250000Y-144800000D03*
X159250000Y-144000000D03*
X159250000Y-143200000D03*
X159250000Y-142400000D03*
D16*
X160700000Y-140950000D03*
X161500000Y-140950000D03*
X162300000Y-140950000D03*
X163100000Y-140950000D03*
X163900000Y-140950000D03*
X164700000Y-140950000D03*
X165500000Y-140950000D03*
X166300000Y-140950000D03*
D15*
X167750000Y-142400000D03*
X167750000Y-143200000D03*
X167750000Y-144000000D03*
X167750000Y-144800000D03*
X167750000Y-145600000D03*
X167750000Y-146400000D03*
X167750000Y-147200000D03*
X167750000Y-148000000D03*
D16*
X166300000Y-149450000D03*
X165500000Y-149450000D03*
X164700000Y-149450000D03*
X163900000Y-149450000D03*
X163100000Y-149450000D03*
X162300000Y-149450000D03*
X161500000Y-149450000D03*
X160700000Y-149450000D03*
%TD*%
D15*
%TO.C,U1*%
X122250000Y-148000000D03*
X122250000Y-147200000D03*
X122250000Y-146400000D03*
X122250000Y-145600000D03*
X122250000Y-144800000D03*
X122250000Y-144000000D03*
X122250000Y-143200000D03*
X122250000Y-142400000D03*
D16*
X123700000Y-140950000D03*
X124500000Y-140950000D03*
X125300000Y-140950000D03*
X126100000Y-140950000D03*
X126900000Y-140950000D03*
X127700000Y-140950000D03*
X128500000Y-140950000D03*
X129300000Y-140950000D03*
D15*
X130750000Y-142400000D03*
X130750000Y-143200000D03*
X130750000Y-144000000D03*
X130750000Y-144800000D03*
X130750000Y-145600000D03*
X130750000Y-146400000D03*
X130750000Y-147200000D03*
X130750000Y-148000000D03*
D16*
X129300000Y-149450000D03*
X128500000Y-149450000D03*
X127700000Y-149450000D03*
X126900000Y-149450000D03*
X126100000Y-149450000D03*
X125300000Y-149450000D03*
X124500000Y-149450000D03*
X123700000Y-149450000D03*
%TD*%
D15*
%TO.C,U1*%
X159250000Y-116000000D03*
X159250000Y-115200000D03*
X159250000Y-114400000D03*
X159250000Y-113600000D03*
X159250000Y-112800000D03*
X159250000Y-112000000D03*
X159250000Y-111200000D03*
X159250000Y-110400000D03*
D16*
X160700000Y-108950000D03*
X161500000Y-108950000D03*
X162300000Y-108950000D03*
X163100000Y-108950000D03*
X163900000Y-108950000D03*
X164700000Y-108950000D03*
X165500000Y-108950000D03*
X166300000Y-108950000D03*
D15*
X167750000Y-110400000D03*
X167750000Y-111200000D03*
X167750000Y-112000000D03*
X167750000Y-112800000D03*
X167750000Y-113600000D03*
X167750000Y-114400000D03*
X167750000Y-115200000D03*
X167750000Y-116000000D03*
D16*
X166300000Y-117450000D03*
X165500000Y-117450000D03*
X164700000Y-117450000D03*
X163900000Y-117450000D03*
X163100000Y-117450000D03*
X162300000Y-117450000D03*
X161500000Y-117450000D03*
X160700000Y-117450000D03*
%TD*%
D15*
%TO.C,U1*%
X122250000Y-116000000D03*
X122250000Y-115200000D03*
X122250000Y-114400000D03*
X122250000Y-113600000D03*
X122250000Y-112800000D03*
X122250000Y-112000000D03*
X122250000Y-111200000D03*
X122250000Y-110400000D03*
D16*
X123700000Y-108950000D03*
X124500000Y-108950000D03*
X125300000Y-108950000D03*
X126100000Y-108950000D03*
X126900000Y-108950000D03*
X127700000Y-108950000D03*
X128500000Y-108950000D03*
X129300000Y-108950000D03*
D15*
X130750000Y-110400000D03*
X130750000Y-111200000D03*
X130750000Y-112000000D03*
X130750000Y-112800000D03*
X130750000Y-113600000D03*
X130750000Y-114400000D03*
X130750000Y-115200000D03*
X130750000Y-116000000D03*
D16*
X129300000Y-117450000D03*
X128500000Y-117450000D03*
X127700000Y-117450000D03*
X126900000Y-117450000D03*
X126100000Y-117450000D03*
X125300000Y-117450000D03*
X124500000Y-117450000D03*
X123700000Y-117450000D03*
%TD*%
D15*
%TO.C,U1*%
X159250000Y-84000000D03*
X159250000Y-83200000D03*
X159250000Y-82400000D03*
X159250000Y-81600000D03*
X159250000Y-80800000D03*
X159250000Y-80000000D03*
X159250000Y-79200000D03*
X159250000Y-78400000D03*
D16*
X160700000Y-76950000D03*
X161500000Y-76950000D03*
X162300000Y-76950000D03*
X163100000Y-76950000D03*
X163900000Y-76950000D03*
X164700000Y-76950000D03*
X165500000Y-76950000D03*
X166300000Y-76950000D03*
D15*
X167750000Y-78400000D03*
X167750000Y-79200000D03*
X167750000Y-80000000D03*
X167750000Y-80800000D03*
X167750000Y-81600000D03*
X167750000Y-82400000D03*
X167750000Y-83200000D03*
X167750000Y-84000000D03*
D16*
X166300000Y-85450000D03*
X165500000Y-85450000D03*
X164700000Y-85450000D03*
X163900000Y-85450000D03*
X163100000Y-85450000D03*
X162300000Y-85450000D03*
X161500000Y-85450000D03*
X160700000Y-85450000D03*
%TD*%
D17*
%TO.C,TP1*%
X170100000Y-144800000D03*
%TD*%
%TO.C,TP1*%
X133100000Y-144800000D03*
%TD*%
%TO.C,TP1*%
X170100000Y-112800000D03*
%TD*%
%TO.C,TP1*%
X133100000Y-112800000D03*
%TD*%
%TO.C,TP1*%
X170100000Y-80800000D03*
%TD*%
%TO.C,R8*%
G36*
G01*
X163550001Y-155800000D02*
X162649999Y-155800000D01*
G75*
G02*
X162400000Y-155550001I0J249999D01*
G01*
X162400000Y-154849999D01*
G75*
G02*
X162649999Y-154600000I249999J0D01*
G01*
X163550001Y-154600000D01*
G75*
G02*
X163800000Y-154849999I0J-249999D01*
G01*
X163800000Y-155550001D01*
G75*
G02*
X163550001Y-155800000I-249999J0D01*
G01*
G37*
G36*
G01*
X163550001Y-153800000D02*
X162649999Y-153800000D01*
G75*
G02*
X162400000Y-153550001I0J249999D01*
G01*
X162400000Y-152849999D01*
G75*
G02*
X162649999Y-152600000I249999J0D01*
G01*
X163550001Y-152600000D01*
G75*
G02*
X163800000Y-152849999I0J-249999D01*
G01*
X163800000Y-153550001D01*
G75*
G02*
X163550001Y-153800000I-249999J0D01*
G01*
G37*
%TD*%
%TO.C,R8*%
G36*
G01*
X126550001Y-155800000D02*
X125649999Y-155800000D01*
G75*
G02*
X125400000Y-155550001I0J249999D01*
G01*
X125400000Y-154849999D01*
G75*
G02*
X125649999Y-154600000I249999J0D01*
G01*
X126550001Y-154600000D01*
G75*
G02*
X126800000Y-154849999I0J-249999D01*
G01*
X126800000Y-155550001D01*
G75*
G02*
X126550001Y-155800000I-249999J0D01*
G01*
G37*
G36*
G01*
X126550001Y-153800000D02*
X125649999Y-153800000D01*
G75*
G02*
X125400000Y-153550001I0J249999D01*
G01*
X125400000Y-152849999D01*
G75*
G02*
X125649999Y-152600000I249999J0D01*
G01*
X126550001Y-152600000D01*
G75*
G02*
X126800000Y-152849999I0J-249999D01*
G01*
X126800000Y-153550001D01*
G75*
G02*
X126550001Y-153800000I-249999J0D01*
G01*
G37*
%TD*%
%TO.C,R8*%
G36*
G01*
X163550001Y-123800000D02*
X162649999Y-123800000D01*
G75*
G02*
X162400000Y-123550001I0J249999D01*
G01*
X162400000Y-122849999D01*
G75*
G02*
X162649999Y-122600000I249999J0D01*
G01*
X163550001Y-122600000D01*
G75*
G02*
X163800000Y-122849999I0J-249999D01*
G01*
X163800000Y-123550001D01*
G75*
G02*
X163550001Y-123800000I-249999J0D01*
G01*
G37*
G36*
G01*
X163550001Y-121800000D02*
X162649999Y-121800000D01*
G75*
G02*
X162400000Y-121550001I0J249999D01*
G01*
X162400000Y-120849999D01*
G75*
G02*
X162649999Y-120600000I249999J0D01*
G01*
X163550001Y-120600000D01*
G75*
G02*
X163800000Y-120849999I0J-249999D01*
G01*
X163800000Y-121550001D01*
G75*
G02*
X163550001Y-121800000I-249999J0D01*
G01*
G37*
%TD*%
%TO.C,R8*%
G36*
G01*
X126550001Y-123800000D02*
X125649999Y-123800000D01*
G75*
G02*
X125400000Y-123550001I0J249999D01*
G01*
X125400000Y-122849999D01*
G75*
G02*
X125649999Y-122600000I249999J0D01*
G01*
X126550001Y-122600000D01*
G75*
G02*
X126800000Y-122849999I0J-249999D01*
G01*
X126800000Y-123550001D01*
G75*
G02*
X126550001Y-123800000I-249999J0D01*
G01*
G37*
G36*
G01*
X126550001Y-121800000D02*
X125649999Y-121800000D01*
G75*
G02*
X125400000Y-121550001I0J249999D01*
G01*
X125400000Y-120849999D01*
G75*
G02*
X125649999Y-120600000I249999J0D01*
G01*
X126550001Y-120600000D01*
G75*
G02*
X126800000Y-120849999I0J-249999D01*
G01*
X126800000Y-121550001D01*
G75*
G02*
X126550001Y-121800000I-249999J0D01*
G01*
G37*
%TD*%
%TO.C,R8*%
G36*
G01*
X163550001Y-91800000D02*
X162649999Y-91800000D01*
G75*
G02*
X162400000Y-91550001I0J249999D01*
G01*
X162400000Y-90849999D01*
G75*
G02*
X162649999Y-90600000I249999J0D01*
G01*
X163550001Y-90600000D01*
G75*
G02*
X163800000Y-90849999I0J-249999D01*
G01*
X163800000Y-91550001D01*
G75*
G02*
X163550001Y-91800000I-249999J0D01*
G01*
G37*
G36*
G01*
X163550001Y-89800000D02*
X162649999Y-89800000D01*
G75*
G02*
X162400000Y-89550001I0J249999D01*
G01*
X162400000Y-88849999D01*
G75*
G02*
X162649999Y-88600000I249999J0D01*
G01*
X163550001Y-88600000D01*
G75*
G02*
X163800000Y-88849999I0J-249999D01*
G01*
X163800000Y-89550001D01*
G75*
G02*
X163550001Y-89800000I-249999J0D01*
G01*
G37*
%TD*%
D18*
%TO.C,SW1*%
X175050000Y-138325000D03*
X175050000Y-146125000D03*
%TD*%
%TO.C,SW1*%
X138050000Y-138325000D03*
X138050000Y-146125000D03*
%TD*%
%TO.C,SW1*%
X175050000Y-106325000D03*
X175050000Y-114125000D03*
%TD*%
%TO.C,SW1*%
X138050000Y-106325000D03*
X138050000Y-114125000D03*
%TD*%
%TO.C,SW1*%
X175050000Y-74325000D03*
X175050000Y-82125000D03*
%TD*%
D19*
%TO.C,REF\u002A\u002A*%
X178500000Y-158500000D03*
%TD*%
%TO.C,REF\u002A\u002A*%
X141500000Y-158500000D03*
%TD*%
%TO.C,REF\u002A\u002A*%
X178500000Y-126500000D03*
%TD*%
%TO.C,REF\u002A\u002A*%
X141500000Y-126500000D03*
%TD*%
%TO.C,REF\u002A\u002A*%
X178500000Y-94500000D03*
%TD*%
%TO.C,REF\u002A\u002A*%
X178500000Y-133500000D03*
%TD*%
%TO.C,REF\u002A\u002A*%
X141500000Y-133500000D03*
%TD*%
%TO.C,REF\u002A\u002A*%
X178500000Y-101500000D03*
%TD*%
%TO.C,REF\u002A\u002A*%
X141500000Y-101500000D03*
%TD*%
%TO.C,REF\u002A\u002A*%
X178500000Y-69500000D03*
%TD*%
D13*
%TO.C,TP8*%
X162300000Y-151350000D03*
%TD*%
%TO.C,TP8*%
X125300000Y-151350000D03*
%TD*%
%TO.C,TP8*%
X162300000Y-119350000D03*
%TD*%
%TO.C,TP8*%
X125300000Y-119350000D03*
%TD*%
%TO.C,TP8*%
X162300000Y-87350000D03*
%TD*%
D17*
%TO.C,TP4*%
X170100000Y-147200000D03*
%TD*%
%TO.C,TP4*%
X133100000Y-147200000D03*
%TD*%
%TO.C,TP4*%
X170100000Y-115200000D03*
%TD*%
%TO.C,TP4*%
X133100000Y-115200000D03*
%TD*%
%TO.C,TP4*%
X170100000Y-83200000D03*
%TD*%
D13*
%TO.C,TP11*%
X163900000Y-151350000D03*
%TD*%
%TO.C,TP11*%
X126900000Y-151350000D03*
%TD*%
%TO.C,TP11*%
X163900000Y-119350000D03*
%TD*%
%TO.C,TP11*%
X126900000Y-119350000D03*
%TD*%
%TO.C,TP11*%
X163900000Y-87350000D03*
%TD*%
D17*
%TO.C,TP5*%
X170100000Y-148000000D03*
%TD*%
%TO.C,TP5*%
X133100000Y-148000000D03*
%TD*%
%TO.C,TP5*%
X170100000Y-116000000D03*
%TD*%
%TO.C,TP5*%
X133100000Y-116000000D03*
%TD*%
%TO.C,TP5*%
X170100000Y-84000000D03*
%TD*%
%TO.C,TP2*%
X170100000Y-144000000D03*
%TD*%
%TO.C,TP2*%
X133100000Y-144000000D03*
%TD*%
%TO.C,TP2*%
X170100000Y-112000000D03*
%TD*%
%TO.C,TP2*%
X133100000Y-112000000D03*
%TD*%
%TO.C,TP2*%
X170100000Y-80000000D03*
%TD*%
%TO.C,TP6*%
X169750000Y-149450000D03*
%TD*%
%TO.C,TP6*%
X132750000Y-149450000D03*
%TD*%
%TO.C,TP6*%
X169750000Y-117450000D03*
%TD*%
%TO.C,TP6*%
X132750000Y-117450000D03*
%TD*%
%TO.C,TP6*%
X169750000Y-85450000D03*
%TD*%
%TO.C,TP7*%
X169750000Y-150325000D03*
%TD*%
%TO.C,TP7*%
X132750000Y-150325000D03*
%TD*%
%TO.C,TP7*%
X169750000Y-118325000D03*
%TD*%
%TO.C,TP7*%
X132750000Y-118325000D03*
%TD*%
%TO.C,TP7*%
X169750000Y-86325000D03*
%TD*%
D11*
%TO.C,mouse-bite-2mm-slot*%
X156000000Y-130750000D03*
X156000000Y-129250000D03*
X155250000Y-130750000D03*
X156750000Y-130750000D03*
X156750000Y-129250000D03*
X155250000Y-129250000D03*
%TD*%
%TO.C,mouse-bite-2mm-slot*%
X119000000Y-130750000D03*
X119000000Y-129250000D03*
X118250000Y-130750000D03*
X119750000Y-130750000D03*
X119750000Y-129250000D03*
X118250000Y-129250000D03*
%TD*%
%TO.C,mouse-bite-2mm-slot*%
X156000000Y-98750000D03*
X156000000Y-97250000D03*
X155250000Y-98750000D03*
X156750000Y-98750000D03*
X156750000Y-97250000D03*
X155250000Y-97250000D03*
%TD*%
%TO.C,mouse-bite-2mm-slot*%
X119000000Y-98750000D03*
X119000000Y-97250000D03*
X118250000Y-98750000D03*
X119750000Y-98750000D03*
X119750000Y-97250000D03*
X118250000Y-97250000D03*
%TD*%
%TO.C,mouse-bite-2mm-slot*%
X170250000Y-129250000D03*
X171750000Y-129250000D03*
X171750000Y-130750000D03*
X170250000Y-130750000D03*
X171000000Y-129250000D03*
X171000000Y-130750000D03*
%TD*%
%TO.C,mouse-bite-2mm-slot*%
X133250000Y-129250000D03*
X134750000Y-129250000D03*
X134750000Y-130750000D03*
X133250000Y-130750000D03*
X134000000Y-129250000D03*
X134000000Y-130750000D03*
%TD*%
%TO.C,mouse-bite-2mm-slot*%
X170250000Y-97250000D03*
X171750000Y-97250000D03*
X171750000Y-98750000D03*
X170250000Y-98750000D03*
X171000000Y-97250000D03*
X171000000Y-98750000D03*
%TD*%
%TO.C,mouse-bite-2mm-slot*%
X145750000Y-145250000D03*
X145750000Y-146750000D03*
X144250000Y-146750000D03*
X144250000Y-145250000D03*
X145750000Y-146000000D03*
X144250000Y-146000000D03*
%TD*%
%TO.C,mouse-bite-2mm-slot*%
X145750000Y-113250000D03*
X145750000Y-114750000D03*
X144250000Y-114750000D03*
X144250000Y-113250000D03*
X145750000Y-114000000D03*
X144250000Y-114000000D03*
%TD*%
%TO.C,mouse-bite-2mm-slot*%
X155250000Y-129250000D03*
X156750000Y-129250000D03*
X156750000Y-130750000D03*
X155250000Y-130750000D03*
X156000000Y-129250000D03*
X156000000Y-130750000D03*
%TD*%
%TO.C,mouse-bite-2mm-slot*%
X118250000Y-129250000D03*
X119750000Y-129250000D03*
X119750000Y-130750000D03*
X118250000Y-130750000D03*
X119000000Y-129250000D03*
X119000000Y-130750000D03*
%TD*%
%TO.C,mouse-bite-2mm-slot*%
X155250000Y-97250000D03*
X156750000Y-97250000D03*
X156750000Y-98750000D03*
X155250000Y-98750000D03*
X156000000Y-97250000D03*
X156000000Y-98750000D03*
%TD*%
D20*
%TO.C,J1*%
X157855000Y-135200000D03*
D21*
X160395000Y-135200000D03*
X162935000Y-135200000D03*
X165475000Y-135200000D03*
X168015000Y-135200000D03*
X170555000Y-135200000D03*
%TD*%
D20*
%TO.C,J1*%
X120855000Y-135200000D03*
D21*
X123395000Y-135200000D03*
X125935000Y-135200000D03*
X128475000Y-135200000D03*
X131015000Y-135200000D03*
X133555000Y-135200000D03*
%TD*%
D20*
%TO.C,J1*%
X157855000Y-103200000D03*
D21*
X160395000Y-103200000D03*
X162935000Y-103200000D03*
X165475000Y-103200000D03*
X168015000Y-103200000D03*
X170555000Y-103200000D03*
%TD*%
D20*
%TO.C,J1*%
X120855000Y-103200000D03*
D21*
X123395000Y-103200000D03*
X125935000Y-103200000D03*
X128475000Y-103200000D03*
X131015000Y-103200000D03*
X133555000Y-103200000D03*
%TD*%
D20*
%TO.C,J1*%
X157855000Y-71200000D03*
D21*
X160395000Y-71200000D03*
X162935000Y-71200000D03*
X165475000Y-71200000D03*
X168015000Y-71200000D03*
X170555000Y-71200000D03*
%TD*%
D12*
%TO.C,BZ1*%
X172600000Y-151700000D03*
X177650000Y-151700000D03*
%TD*%
%TO.C,BZ1*%
X135600000Y-151700000D03*
X140650000Y-151700000D03*
%TD*%
%TO.C,BZ1*%
X172600000Y-119700000D03*
X177650000Y-119700000D03*
%TD*%
%TO.C,BZ1*%
X135600000Y-119700000D03*
X140650000Y-119700000D03*
%TD*%
%TO.C,BZ1*%
X172600000Y-87700000D03*
X177650000Y-87700000D03*
%TD*%
D17*
%TO.C,TP3*%
X170100000Y-146400000D03*
%TD*%
%TO.C,TP3*%
X133100000Y-146400000D03*
%TD*%
%TO.C,TP3*%
X170100000Y-114400000D03*
%TD*%
%TO.C,TP3*%
X133100000Y-114400000D03*
%TD*%
%TO.C,TP3*%
X170100000Y-82400000D03*
%TD*%
D19*
%TO.C,REF\u002A\u002A*%
X148500000Y-133500000D03*
%TD*%
%TO.C,REF\u002A\u002A*%
X111500000Y-133500000D03*
%TD*%
%TO.C,REF\u002A\u002A*%
X148500000Y-101500000D03*
%TD*%
%TO.C,REF\u002A\u002A*%
X111500000Y-101500000D03*
%TD*%
%TO.C,REF\u002A\u002A*%
X148500000Y-69500000D03*
%TD*%
%TO.C,R9*%
G36*
G01*
X158799999Y-152600000D02*
X159700001Y-152600000D01*
G75*
G02*
X159950000Y-152849999I0J-249999D01*
G01*
X159950000Y-153550001D01*
G75*
G02*
X159700001Y-153800000I-249999J0D01*
G01*
X158799999Y-153800000D01*
G75*
G02*
X158550000Y-153550001I0J249999D01*
G01*
X158550000Y-152849999D01*
G75*
G02*
X158799999Y-152600000I249999J0D01*
G01*
G37*
G36*
G01*
X158799999Y-154600000D02*
X159700001Y-154600000D01*
G75*
G02*
X159950000Y-154849999I0J-249999D01*
G01*
X159950000Y-155550001D01*
G75*
G02*
X159700001Y-155800000I-249999J0D01*
G01*
X158799999Y-155800000D01*
G75*
G02*
X158550000Y-155550001I0J249999D01*
G01*
X158550000Y-154849999D01*
G75*
G02*
X158799999Y-154600000I249999J0D01*
G01*
G37*
%TD*%
%TO.C,R9*%
G36*
G01*
X121799999Y-152600000D02*
X122700001Y-152600000D01*
G75*
G02*
X122950000Y-152849999I0J-249999D01*
G01*
X122950000Y-153550001D01*
G75*
G02*
X122700001Y-153800000I-249999J0D01*
G01*
X121799999Y-153800000D01*
G75*
G02*
X121550000Y-153550001I0J249999D01*
G01*
X121550000Y-152849999D01*
G75*
G02*
X121799999Y-152600000I249999J0D01*
G01*
G37*
G36*
G01*
X121799999Y-154600000D02*
X122700001Y-154600000D01*
G75*
G02*
X122950000Y-154849999I0J-249999D01*
G01*
X122950000Y-155550001D01*
G75*
G02*
X122700001Y-155800000I-249999J0D01*
G01*
X121799999Y-155800000D01*
G75*
G02*
X121550000Y-155550001I0J249999D01*
G01*
X121550000Y-154849999D01*
G75*
G02*
X121799999Y-154600000I249999J0D01*
G01*
G37*
%TD*%
%TO.C,R9*%
G36*
G01*
X158799999Y-120600000D02*
X159700001Y-120600000D01*
G75*
G02*
X159950000Y-120849999I0J-249999D01*
G01*
X159950000Y-121550001D01*
G75*
G02*
X159700001Y-121800000I-249999J0D01*
G01*
X158799999Y-121800000D01*
G75*
G02*
X158550000Y-121550001I0J249999D01*
G01*
X158550000Y-120849999D01*
G75*
G02*
X158799999Y-120600000I249999J0D01*
G01*
G37*
G36*
G01*
X158799999Y-122600000D02*
X159700001Y-122600000D01*
G75*
G02*
X159950000Y-122849999I0J-249999D01*
G01*
X159950000Y-123550001D01*
G75*
G02*
X159700001Y-123800000I-249999J0D01*
G01*
X158799999Y-123800000D01*
G75*
G02*
X158550000Y-123550001I0J249999D01*
G01*
X158550000Y-122849999D01*
G75*
G02*
X158799999Y-122600000I249999J0D01*
G01*
G37*
%TD*%
%TO.C,R9*%
G36*
G01*
X121799999Y-120600000D02*
X122700001Y-120600000D01*
G75*
G02*
X122950000Y-120849999I0J-249999D01*
G01*
X122950000Y-121550001D01*
G75*
G02*
X122700001Y-121800000I-249999J0D01*
G01*
X121799999Y-121800000D01*
G75*
G02*
X121550000Y-121550001I0J249999D01*
G01*
X121550000Y-120849999D01*
G75*
G02*
X121799999Y-120600000I249999J0D01*
G01*
G37*
G36*
G01*
X121799999Y-122600000D02*
X122700001Y-122600000D01*
G75*
G02*
X122950000Y-122849999I0J-249999D01*
G01*
X122950000Y-123550001D01*
G75*
G02*
X122700001Y-123800000I-249999J0D01*
G01*
X121799999Y-123800000D01*
G75*
G02*
X121550000Y-123550001I0J249999D01*
G01*
X121550000Y-122849999D01*
G75*
G02*
X121799999Y-122600000I249999J0D01*
G01*
G37*
%TD*%
%TO.C,R9*%
G36*
G01*
X158799999Y-88600000D02*
X159700001Y-88600000D01*
G75*
G02*
X159950000Y-88849999I0J-249999D01*
G01*
X159950000Y-89550001D01*
G75*
G02*
X159700001Y-89800000I-249999J0D01*
G01*
X158799999Y-89800000D01*
G75*
G02*
X158550000Y-89550001I0J249999D01*
G01*
X158550000Y-88849999D01*
G75*
G02*
X158799999Y-88600000I249999J0D01*
G01*
G37*
G36*
G01*
X158799999Y-90600000D02*
X159700001Y-90600000D01*
G75*
G02*
X159950000Y-90849999I0J-249999D01*
G01*
X159950000Y-91550001D01*
G75*
G02*
X159700001Y-91800000I-249999J0D01*
G01*
X158799999Y-91800000D01*
G75*
G02*
X158550000Y-91550001I0J249999D01*
G01*
X158550000Y-90849999D01*
G75*
G02*
X158799999Y-90600000I249999J0D01*
G01*
G37*
%TD*%
D12*
%TO.C,J2*%
X154375000Y-151600000D03*
X149325000Y-151600000D03*
X154375000Y-154140000D03*
X149325000Y-154140000D03*
%TD*%
%TO.C,J2*%
X117375000Y-151600000D03*
X112325000Y-151600000D03*
X117375000Y-154140000D03*
X112325000Y-154140000D03*
%TD*%
%TO.C,J2*%
X154375000Y-119600000D03*
X149325000Y-119600000D03*
X154375000Y-122140000D03*
X149325000Y-122140000D03*
%TD*%
%TO.C,J2*%
X117375000Y-119600000D03*
X112325000Y-119600000D03*
X117375000Y-122140000D03*
X112325000Y-122140000D03*
%TD*%
%TO.C,J2*%
X154375000Y-87600000D03*
X149325000Y-87600000D03*
X154375000Y-90140000D03*
X149325000Y-90140000D03*
%TD*%
D13*
%TO.C,TP10*%
X160700000Y-151350000D03*
%TD*%
%TO.C,TP10*%
X123700000Y-151350000D03*
%TD*%
%TO.C,TP10*%
X160700000Y-119350000D03*
%TD*%
%TO.C,TP10*%
X123700000Y-119350000D03*
%TD*%
%TO.C,TP10*%
X160700000Y-87350000D03*
%TD*%
D19*
%TO.C,REF\u002A\u002A*%
X148500000Y-158500000D03*
%TD*%
%TO.C,REF\u002A\u002A*%
X111500000Y-158500000D03*
%TD*%
%TO.C,REF\u002A\u002A*%
X148500000Y-126500000D03*
%TD*%
%TO.C,REF\u002A\u002A*%
X111500000Y-126500000D03*
%TD*%
%TO.C,REF\u002A\u002A*%
X148500000Y-94500000D03*
%TD*%
%TO.C,C1*%
G36*
G01*
X154150000Y-144975000D02*
X155100000Y-144975000D01*
G75*
G02*
X155350000Y-145225000I0J-250000D01*
G01*
X155350000Y-145900000D01*
G75*
G02*
X155100000Y-146150000I-250000J0D01*
G01*
X154150000Y-146150000D01*
G75*
G02*
X153900000Y-145900000I0J250000D01*
G01*
X153900000Y-145225000D01*
G75*
G02*
X154150000Y-144975000I250000J0D01*
G01*
G37*
G36*
G01*
X154150000Y-147050000D02*
X155100000Y-147050000D01*
G75*
G02*
X155350000Y-147300000I0J-250000D01*
G01*
X155350000Y-147975000D01*
G75*
G02*
X155100000Y-148225000I-250000J0D01*
G01*
X154150000Y-148225000D01*
G75*
G02*
X153900000Y-147975000I0J250000D01*
G01*
X153900000Y-147300000D01*
G75*
G02*
X154150000Y-147050000I250000J0D01*
G01*
G37*
%TD*%
%TO.C,C1*%
G36*
G01*
X117150000Y-144975000D02*
X118100000Y-144975000D01*
G75*
G02*
X118350000Y-145225000I0J-250000D01*
G01*
X118350000Y-145900000D01*
G75*
G02*
X118100000Y-146150000I-250000J0D01*
G01*
X117150000Y-146150000D01*
G75*
G02*
X116900000Y-145900000I0J250000D01*
G01*
X116900000Y-145225000D01*
G75*
G02*
X117150000Y-144975000I250000J0D01*
G01*
G37*
G36*
G01*
X117150000Y-147050000D02*
X118100000Y-147050000D01*
G75*
G02*
X118350000Y-147300000I0J-250000D01*
G01*
X118350000Y-147975000D01*
G75*
G02*
X118100000Y-148225000I-250000J0D01*
G01*
X117150000Y-148225000D01*
G75*
G02*
X116900000Y-147975000I0J250000D01*
G01*
X116900000Y-147300000D01*
G75*
G02*
X117150000Y-147050000I250000J0D01*
G01*
G37*
%TD*%
%TO.C,C1*%
G36*
G01*
X154150000Y-112975000D02*
X155100000Y-112975000D01*
G75*
G02*
X155350000Y-113225000I0J-250000D01*
G01*
X155350000Y-113900000D01*
G75*
G02*
X155100000Y-114150000I-250000J0D01*
G01*
X154150000Y-114150000D01*
G75*
G02*
X153900000Y-113900000I0J250000D01*
G01*
X153900000Y-113225000D01*
G75*
G02*
X154150000Y-112975000I250000J0D01*
G01*
G37*
G36*
G01*
X154150000Y-115050000D02*
X155100000Y-115050000D01*
G75*
G02*
X155350000Y-115300000I0J-250000D01*
G01*
X155350000Y-115975000D01*
G75*
G02*
X155100000Y-116225000I-250000J0D01*
G01*
X154150000Y-116225000D01*
G75*
G02*
X153900000Y-115975000I0J250000D01*
G01*
X153900000Y-115300000D01*
G75*
G02*
X154150000Y-115050000I250000J0D01*
G01*
G37*
%TD*%
%TO.C,C1*%
G36*
G01*
X117150000Y-112975000D02*
X118100000Y-112975000D01*
G75*
G02*
X118350000Y-113225000I0J-250000D01*
G01*
X118350000Y-113900000D01*
G75*
G02*
X118100000Y-114150000I-250000J0D01*
G01*
X117150000Y-114150000D01*
G75*
G02*
X116900000Y-113900000I0J250000D01*
G01*
X116900000Y-113225000D01*
G75*
G02*
X117150000Y-112975000I250000J0D01*
G01*
G37*
G36*
G01*
X117150000Y-115050000D02*
X118100000Y-115050000D01*
G75*
G02*
X118350000Y-115300000I0J-250000D01*
G01*
X118350000Y-115975000D01*
G75*
G02*
X118100000Y-116225000I-250000J0D01*
G01*
X117150000Y-116225000D01*
G75*
G02*
X116900000Y-115975000I0J250000D01*
G01*
X116900000Y-115300000D01*
G75*
G02*
X117150000Y-115050000I250000J0D01*
G01*
G37*
%TD*%
%TO.C,C1*%
G36*
G01*
X154150000Y-80975000D02*
X155100000Y-80975000D01*
G75*
G02*
X155350000Y-81225000I0J-250000D01*
G01*
X155350000Y-81900000D01*
G75*
G02*
X155100000Y-82150000I-250000J0D01*
G01*
X154150000Y-82150000D01*
G75*
G02*
X153900000Y-81900000I0J250000D01*
G01*
X153900000Y-81225000D01*
G75*
G02*
X154150000Y-80975000I250000J0D01*
G01*
G37*
G36*
G01*
X154150000Y-83050000D02*
X155100000Y-83050000D01*
G75*
G02*
X155350000Y-83300000I0J-250000D01*
G01*
X155350000Y-83975000D01*
G75*
G02*
X155100000Y-84225000I-250000J0D01*
G01*
X154150000Y-84225000D01*
G75*
G02*
X153900000Y-83975000I0J250000D01*
G01*
X153900000Y-83300000D01*
G75*
G02*
X154150000Y-83050000I250000J0D01*
G01*
G37*
%TD*%
D11*
%TO.C,mouse-bite-2mm-slot*%
X119000000Y-98750000D03*
X119000000Y-97250000D03*
X118250000Y-98750000D03*
X119750000Y-98750000D03*
X119750000Y-97250000D03*
X118250000Y-97250000D03*
%TD*%
%TO.C,mouse-bite-2mm-slot*%
X134000000Y-98750000D03*
X134000000Y-97250000D03*
X133250000Y-98750000D03*
X134750000Y-98750000D03*
X134750000Y-97250000D03*
X133250000Y-97250000D03*
%TD*%
%TO.C,mouse-bite-2mm-slot*%
X144250000Y-82000000D03*
X145750000Y-82000000D03*
X144250000Y-81250000D03*
X144250000Y-82750000D03*
X145750000Y-82750000D03*
X145750000Y-81250000D03*
%TD*%
D19*
%TO.C,REF\u002A\u002A*%
X141500000Y-94500000D03*
%TD*%
%TO.C,REF\u002A\u002A*%
X111500000Y-94500000D03*
%TD*%
%TO.C,REF\u002A\u002A*%
X111500000Y-69500000D03*
%TD*%
%TO.C,REF\u002A\u002A*%
X141500000Y-69500000D03*
%TD*%
D21*
%TO.C,J1*%
X133555000Y-71200000D03*
X131015000Y-71200000D03*
X128475000Y-71200000D03*
X125935000Y-71200000D03*
X123395000Y-71200000D03*
D20*
X120855000Y-71200000D03*
%TD*%
D13*
%TO.C,TP11*%
X126900000Y-87350000D03*
%TD*%
%TO.C,TP10*%
X123700000Y-87350000D03*
%TD*%
%TO.C,TP9*%
X124500000Y-87350000D03*
%TD*%
%TO.C,TP8*%
X125300000Y-87350000D03*
%TD*%
D17*
%TO.C,TP7*%
X132750000Y-86325000D03*
%TD*%
%TO.C,TP6*%
X132750000Y-85450000D03*
%TD*%
%TO.C,TP5*%
X133100000Y-84000000D03*
%TD*%
%TO.C,TP4*%
X133100000Y-83200000D03*
%TD*%
%TO.C,TP3*%
X133100000Y-82400000D03*
%TD*%
%TO.C,TP2*%
X133100000Y-80000000D03*
%TD*%
%TO.C,TP1*%
X133100000Y-80800000D03*
%TD*%
D12*
%TO.C,J2*%
X112325000Y-90140000D03*
X117375000Y-90140000D03*
X112325000Y-87600000D03*
X117375000Y-87600000D03*
%TD*%
D14*
%TO.C,Y1*%
G36*
X117242336Y-79118198D02*
G01*
X115969544Y-80390990D01*
X114484620Y-78906066D01*
X115757412Y-77633274D01*
X117242336Y-79118198D01*
G37*
G36*
X115191726Y-77067588D02*
G01*
X113918934Y-78340380D01*
X112434010Y-76855456D01*
X113706802Y-75582664D01*
X115191726Y-77067588D01*
G37*
G36*
X113565380Y-78693934D02*
G01*
X112292588Y-79966726D01*
X110807664Y-78481802D01*
X112080456Y-77209010D01*
X113565380Y-78693934D01*
G37*
G36*
X115615990Y-80744544D02*
G01*
X114343198Y-82017336D01*
X112858274Y-80532412D01*
X114131066Y-79259620D01*
X115615990Y-80744544D01*
G37*
%TD*%
D18*
%TO.C,SW1*%
X138050000Y-82125000D03*
X138050000Y-74325000D03*
%TD*%
D12*
%TO.C,J3*%
X135600000Y-90300000D03*
X140650000Y-90300000D03*
%TD*%
%TO.C,BZ1*%
X140650000Y-87700000D03*
X135600000Y-87700000D03*
%TD*%
D16*
%TO.C,U1*%
X123700000Y-85450000D03*
X124500000Y-85450000D03*
X125300000Y-85450000D03*
X126100000Y-85450000D03*
X126900000Y-85450000D03*
X127700000Y-85450000D03*
X128500000Y-85450000D03*
X129300000Y-85450000D03*
D15*
X130750000Y-84000000D03*
X130750000Y-83200000D03*
X130750000Y-82400000D03*
X130750000Y-81600000D03*
X130750000Y-80800000D03*
X130750000Y-80000000D03*
X130750000Y-79200000D03*
X130750000Y-78400000D03*
D16*
X129300000Y-76950000D03*
X128500000Y-76950000D03*
X127700000Y-76950000D03*
X126900000Y-76950000D03*
X126100000Y-76950000D03*
X125300000Y-76950000D03*
X124500000Y-76950000D03*
X123700000Y-76950000D03*
D15*
X122250000Y-78400000D03*
X122250000Y-79200000D03*
X122250000Y-80000000D03*
X122250000Y-80800000D03*
X122250000Y-81600000D03*
X122250000Y-82400000D03*
X122250000Y-83200000D03*
X122250000Y-84000000D03*
%TD*%
%TO.C,R9*%
G36*
G01*
X121799999Y-90600000D02*
X122700001Y-90600000D01*
G75*
G02*
X122950000Y-90849999I0J-249999D01*
G01*
X122950000Y-91550001D01*
G75*
G02*
X122700001Y-91800000I-249999J0D01*
G01*
X121799999Y-91800000D01*
G75*
G02*
X121550000Y-91550001I0J249999D01*
G01*
X121550000Y-90849999D01*
G75*
G02*
X121799999Y-90600000I249999J0D01*
G01*
G37*
G36*
G01*
X121799999Y-88600000D02*
X122700001Y-88600000D01*
G75*
G02*
X122950000Y-88849999I0J-249999D01*
G01*
X122950000Y-89550001D01*
G75*
G02*
X122700001Y-89800000I-249999J0D01*
G01*
X121799999Y-89800000D01*
G75*
G02*
X121550000Y-89550001I0J249999D01*
G01*
X121550000Y-88849999D01*
G75*
G02*
X121799999Y-88600000I249999J0D01*
G01*
G37*
%TD*%
%TO.C,R8*%
G36*
G01*
X126550001Y-89800000D02*
X125649999Y-89800000D01*
G75*
G02*
X125400000Y-89550001I0J249999D01*
G01*
X125400000Y-88849999D01*
G75*
G02*
X125649999Y-88600000I249999J0D01*
G01*
X126550001Y-88600000D01*
G75*
G02*
X126800000Y-88849999I0J-249999D01*
G01*
X126800000Y-89550001D01*
G75*
G02*
X126550001Y-89800000I-249999J0D01*
G01*
G37*
G36*
G01*
X126550001Y-91800000D02*
X125649999Y-91800000D01*
G75*
G02*
X125400000Y-91550001I0J249999D01*
G01*
X125400000Y-90849999D01*
G75*
G02*
X125649999Y-90600000I249999J0D01*
G01*
X126550001Y-90600000D01*
G75*
G02*
X126800000Y-90849999I0J-249999D01*
G01*
X126800000Y-91550001D01*
G75*
G02*
X126550001Y-91800000I-249999J0D01*
G01*
G37*
%TD*%
%TO.C,C2*%
G36*
G01*
X118100000Y-74550000D02*
X117150000Y-74550000D01*
G75*
G02*
X116900000Y-74300000I0J250000D01*
G01*
X116900000Y-73625000D01*
G75*
G02*
X117150000Y-73375000I250000J0D01*
G01*
X118100000Y-73375000D01*
G75*
G02*
X118350000Y-73625000I0J-250000D01*
G01*
X118350000Y-74300000D01*
G75*
G02*
X118100000Y-74550000I-250000J0D01*
G01*
G37*
G36*
G01*
X118100000Y-76625000D02*
X117150000Y-76625000D01*
G75*
G02*
X116900000Y-76375000I0J250000D01*
G01*
X116900000Y-75700000D01*
G75*
G02*
X117150000Y-75450000I250000J0D01*
G01*
X118100000Y-75450000D01*
G75*
G02*
X118350000Y-75700000I0J-250000D01*
G01*
X118350000Y-76375000D01*
G75*
G02*
X118100000Y-76625000I-250000J0D01*
G01*
G37*
%TD*%
%TO.C,C1*%
G36*
G01*
X117150000Y-83050000D02*
X118100000Y-83050000D01*
G75*
G02*
X118350000Y-83300000I0J-250000D01*
G01*
X118350000Y-83975000D01*
G75*
G02*
X118100000Y-84225000I-250000J0D01*
G01*
X117150000Y-84225000D01*
G75*
G02*
X116900000Y-83975000I0J250000D01*
G01*
X116900000Y-83300000D01*
G75*
G02*
X117150000Y-83050000I250000J0D01*
G01*
G37*
G36*
G01*
X117150000Y-80975000D02*
X118100000Y-80975000D01*
G75*
G02*
X118350000Y-81225000I0J-250000D01*
G01*
X118350000Y-81900000D01*
G75*
G02*
X118100000Y-82150000I-250000J0D01*
G01*
X117150000Y-82150000D01*
G75*
G02*
X116900000Y-81900000I0J250000D01*
G01*
X116900000Y-81225000D01*
G75*
G02*
X117150000Y-80975000I250000J0D01*
G01*
G37*
%TD*%
D22*
X118925000Y-78800000D03*
X132325000Y-77075000D03*
X124100000Y-89300000D03*
X126125000Y-82750000D03*
X123825000Y-78500000D03*
X119900000Y-86400000D03*
X161100000Y-89300000D03*
X124100000Y-121300000D03*
X161100000Y-121300000D03*
X124100000Y-153300000D03*
X161100000Y-153300000D03*
X163125000Y-82750000D03*
X126125000Y-114750000D03*
X163125000Y-114750000D03*
X126125000Y-146750000D03*
X163125000Y-146750000D03*
X156900000Y-86400000D03*
X119900000Y-118400000D03*
X156900000Y-118400000D03*
X119900000Y-150400000D03*
X156900000Y-150400000D03*
X155925000Y-78800000D03*
X118925000Y-110800000D03*
X155925000Y-110800000D03*
X118925000Y-142800000D03*
X155925000Y-142800000D03*
X169325000Y-77075000D03*
X132325000Y-109075000D03*
X169325000Y-109075000D03*
X132325000Y-141075000D03*
X169325000Y-141075000D03*
X160825000Y-78500000D03*
X123825000Y-110500000D03*
X160825000Y-110500000D03*
X123825000Y-142500000D03*
X160825000Y-142500000D03*
X122500000Y-75400000D03*
X159500000Y-75400000D03*
X122500000Y-107400000D03*
X159500000Y-107400000D03*
X122500000Y-139400000D03*
X159500000Y-139400000D03*
X122500000Y-76950000D03*
X159500000Y-76950000D03*
X122500000Y-108950000D03*
X159500000Y-108950000D03*
X122500000Y-140950000D03*
X159500000Y-140950000D03*
X120800000Y-83200000D03*
X157800000Y-83200000D03*
X120800000Y-115200000D03*
X157800000Y-115200000D03*
X120800000Y-147200000D03*
X157800000Y-147200000D03*
X127533630Y-75466370D03*
X164533630Y-75466370D03*
X127533630Y-107466370D03*
X164533630Y-107466370D03*
X127533630Y-139466370D03*
X164533630Y-139466370D03*
X127850000Y-78650000D03*
X164850000Y-78650000D03*
X127850000Y-110650000D03*
X164850000Y-110650000D03*
X127850000Y-142650000D03*
X164850000Y-142650000D03*
X126375000Y-79050000D03*
X163375000Y-79050000D03*
X126375000Y-111050000D03*
X163375000Y-111050000D03*
X126375000Y-143050000D03*
X163375000Y-143050000D03*
X125300000Y-79075000D03*
X162300000Y-79075000D03*
X125300000Y-111075000D03*
X162300000Y-111075000D03*
X125300000Y-143075000D03*
X162300000Y-143075000D03*
M02*
