EESchema Schematic File Version 4
EELAYER 30 0
EELAYER END
$Descr A4 11693 8268
encoding utf-8
Sheet 1 1
Title ""
Date ""
Rev ""
Comp ""
Comment1 ""
Comment2 ""
Comment3 ""
Comment4 ""
$EndDescr
$Comp
L Timer:LM556 U1
U 1 1 609A7841
P 4150 2900
F 0 "U1" H 4150 3481 50  0000 C CNN
F 1 "LM556" H 4150 3390 50  0000 C CNN
F 2 "Package_SO:SOIC-14_3.9x8.7mm_P1.27mm" H 4150 2900 50  0001 C CNN
F 3 "http://www.ti.com/lit/ds/symlink/lm556.pdf" H 4150 2900 50  0001 C CNN
	1    4150 2900
	1    0    0    -1  
$EndComp
$Comp
L Timer:LM556 U1
U 2 1 609A849A
P 6150 2900
F 0 "U1" H 6150 3481 50  0000 C CNN
F 1 "LM556" H 6150 3390 50  0000 C CNN
F 2 "Package_SO:SOIC-14_3.9x8.7mm_P1.27mm" H 6150 2900 50  0001 C CNN
F 3 "http://www.ti.com/lit/ds/symlink/lm556.pdf" H 6150 2900 50  0001 C CNN
	2    6150 2900
	1    0    0    -1  
$EndComp
$Comp
L Device:R R2
U 1 1 609A8E3D
P 7550 2700
F 0 "R2" V 7343 2700 50  0000 C CNN
F 1 "10k" V 7434 2700 50  0000 C CNN
F 2 "Resistor_SMD:R_0805_2012Metric_Pad1.20x1.40mm_HandSolder" V 7480 2700 50  0001 C CNN
F 3 "~" H 7550 2700 50  0001 C CNN
	1    7550 2700
	0    1    1    0   
$EndComp
$Comp
L Device:R R1
U 1 1 609A9995
P 4150 1950
F 0 "R1" V 3943 1950 50  0000 C CNN
F 1 "1k" V 4034 1950 50  0000 C CNN
F 2 "Resistor_SMD:R_0805_2012Metric_Pad1.20x1.40mm_HandSolder" V 4080 1950 50  0001 C CNN
F 3 "~" H 4150 1950 50  0001 C CNN
	1    4150 1950
	0    1    1    0   
$EndComp
$Comp
L Device:R_POT RV1
U 1 1 609A9D9F
P 5200 1950
F 0 "RV1" V 4993 1950 50  0000 C CNN
F 1 "1M" V 5084 1950 50  0000 C CNN
F 2 "Connector_PinHeader_2.54mm:PinHeader_1x03_P2.54mm_Vertical" H 5200 1950 50  0001 C CNN
F 3 "~" H 5200 1950 50  0001 C CNN
	1    5200 1950
	0    1    1    0   
$EndComp
$Comp
L Device:C C1
U 1 1 609AA638
P 3200 2850
F 0 "C1" H 3315 2896 50  0000 L CNN
F 1 "0.01u" H 3315 2805 50  0000 L CNN
F 2 "Capacitor_SMD:C_1206_3216Metric_Pad1.33x1.80mm_HandSolder" H 3238 2700 50  0001 C CNN
F 3 "~" H 3200 2850 50  0001 C CNN
	1    3200 2850
	1    0    0    -1  
$EndComp
$Comp
L Device:C C2
U 1 1 609AB839
P 6800 3350
F 0 "C2" H 6915 3396 50  0000 L CNN
F 1 "0.1u" H 6915 3305 50  0000 L CNN
F 2 "Capacitor_SMD:C_1206_3216Metric_Pad1.33x1.80mm_HandSolder" H 6838 3200 50  0001 C CNN
F 3 "~" H 6800 3350 50  0001 C CNN
	1    6800 3350
	1    0    0    -1  
$EndComp
$Comp
L Device:CP C3
U 1 1 609AC0C2
P 7150 2700
F 0 "C3" V 7405 2700 50  0000 C CNN
F 1 "10u" V 7314 2700 50  0000 C CNN
F 2 "Capacitor_SMD:CP_Elec_4x5.3" H 7188 2550 50  0001 C CNN
F 3 "~" H 7150 2700 50  0001 C CNN
	1    7150 2700
	0    -1   -1   0   
$EndComp
$Comp
L power:GND #PWR03
U 1 1 609ACD32
P 3750 4800
F 0 "#PWR03" H 3750 4550 50  0001 C CNN
F 1 "GND" H 3755 4627 50  0000 C CNN
F 2 "" H 3750 4800 50  0001 C CNN
F 3 "" H 3750 4800 50  0001 C CNN
	1    3750 4800
	1    0    0    -1  
$EndComp
$Comp
L power:+9V #PWR05
U 1 1 609AD422
P 4150 4800
F 0 "#PWR05" H 4150 4650 50  0001 C CNN
F 1 "+9V" H 4165 4973 50  0000 C CNN
F 2 "" H 4150 4800 50  0001 C CNN
F 3 "" H 4150 4800 50  0001 C CNN
	1    4150 4800
	-1   0    0    1   
$EndComp
$Comp
L power:PWR_FLAG #FLG01
U 1 1 609AE16C
P 3750 4600
F 0 "#FLG01" H 3750 4675 50  0001 C CNN
F 1 "PWR_FLAG" H 3750 4773 50  0000 C CNN
F 2 "" H 3750 4600 50  0001 C CNN
F 3 "~" H 3750 4600 50  0001 C CNN
	1    3750 4600
	1    0    0    -1  
$EndComp
$Comp
L power:GND #PWR04
U 1 1 609AE746
P 4150 3450
F 0 "#PWR04" H 4150 3200 50  0001 C CNN
F 1 "GND" H 4155 3277 50  0000 C CNN
F 2 "" H 4150 3450 50  0001 C CNN
F 3 "" H 4150 3450 50  0001 C CNN
	1    4150 3450
	1    0    0    -1  
$EndComp
$Comp
L power:GND #PWR010
U 1 1 609AEEF4
P 6150 3500
F 0 "#PWR010" H 6150 3250 50  0001 C CNN
F 1 "GND" H 6155 3327 50  0000 C CNN
F 2 "" H 6150 3500 50  0001 C CNN
F 3 "" H 6150 3500 50  0001 C CNN
	1    6150 3500
	1    0    0    -1  
$EndComp
Wire Wire Line
	6150 3300 6150 3500
Wire Wire Line
	4150 3300 4150 3450
$Comp
L power:+9V #PWR06
U 1 1 609B57FE
P 4350 2500
F 0 "#PWR06" H 4350 2350 50  0001 C CNN
F 1 "+9V" H 4365 2673 50  0000 C CNN
F 2 "" H 4350 2500 50  0001 C CNN
F 3 "" H 4350 2500 50  0001 C CNN
	1    4350 2500
	1    0    0    -1  
$EndComp
$Comp
L power:+9V #PWR011
U 1 1 609B5E14
P 6350 2500
F 0 "#PWR011" H 6350 2350 50  0001 C CNN
F 1 "+9V" H 6365 2673 50  0000 C CNN
F 2 "" H 6350 2500 50  0001 C CNN
F 3 "" H 6350 2500 50  0001 C CNN
	1    6350 2500
	1    0    0    -1  
$EndComp
Wire Wire Line
	6350 2500 6150 2500
Wire Wire Line
	4350 2500 4150 2500
$Comp
L power:+9V #PWR08
U 1 1 609C7616
P 5450 1750
F 0 "#PWR08" H 5450 1600 50  0001 C CNN
F 1 "+9V" H 5465 1923 50  0000 C CNN
F 2 "" H 5450 1750 50  0001 C CNN
F 3 "" H 5450 1750 50  0001 C CNN
	1    5450 1750
	1    0    0    -1  
$EndComp
Wire Wire Line
	5450 1750 5450 1950
Wire Wire Line
	5450 1950 5350 1950
Wire Wire Line
	4650 2900 4750 2900
Wire Wire Line
	4750 2900 4750 1950
Connection ~ 4750 1950
Wire Wire Line
	4750 1950 4300 1950
Wire Wire Line
	4000 1950 3200 1950
Wire Wire Line
	3200 1950 3200 2200
Wire Wire Line
	3200 2700 3650 2700
Wire Wire Line
	3200 2200 4900 2200
Wire Wire Line
	4900 2200 4900 3100
Wire Wire Line
	4900 3100 4650 3100
Connection ~ 3200 2200
Wire Wire Line
	3200 2200 3200 2700
NoConn ~ 3650 2900
$Comp
L power:+9V #PWR02
U 1 1 609CB44E
P 3600 3100
F 0 "#PWR02" H 3600 2950 50  0001 C CNN
F 1 "+9V" V 3615 3228 50  0000 L CNN
F 2 "" H 3600 3100 50  0001 C CNN
F 3 "" H 3600 3100 50  0001 C CNN
	1    3600 3100
	0    -1   -1   0   
$EndComp
Wire Wire Line
	4650 2700 5650 2700
Connection ~ 3200 2700
$Comp
L power:GND #PWR01
U 1 1 609D3E14
P 3200 3200
F 0 "#PWR01" H 3200 2950 50  0001 C CNN
F 1 "GND" H 3205 3027 50  0000 C CNN
F 2 "" H 3200 3200 50  0001 C CNN
F 3 "" H 3200 3200 50  0001 C CNN
	1    3200 3200
	1    0    0    -1  
$EndComp
Wire Wire Line
	3200 3200 3200 3000
Wire Wire Line
	3600 3100 3650 3100
Wire Wire Line
	4750 1950 5050 1950
Wire Wire Line
	5450 1950 5450 2150
Wire Wire Line
	5450 2150 5200 2150
Wire Wire Line
	5200 2150 5200 2100
Connection ~ 5450 1950
Wire Wire Line
	6650 2700 7000 2700
$Comp
L Device:R R4
U 1 1 609E1A97
P 7850 3100
F 0 "R4" H 7780 3054 50  0000 R CNN
F 1 "4k7" H 7780 3145 50  0000 R CNN
F 2 "Resistor_SMD:R_0805_2012Metric_Pad1.20x1.40mm_HandSolder" V 7780 3100 50  0001 C CNN
F 3 "~" H 7850 3100 50  0001 C CNN
	1    7850 3100
	-1   0    0    1   
$EndComp
Wire Wire Line
	7300 2700 7400 2700
Wire Wire Line
	7850 2950 7850 2700
Wire Wire Line
	7850 2700 7700 2700
$Comp
L power:GND #PWR017
U 1 1 609E627B
P 7850 3400
F 0 "#PWR017" H 7850 3150 50  0001 C CNN
F 1 "GND" H 7855 3227 50  0000 C CNN
F 2 "" H 7850 3400 50  0001 C CNN
F 3 "" H 7850 3400 50  0001 C CNN
	1    7850 3400
	1    0    0    -1  
$EndComp
Wire Wire Line
	7850 3400 7850 3250
$Comp
L Device:R_POT RV2
U 1 1 609EED21
P 7250 1900
F 0 "RV2" V 7043 1900 50  0000 C CNN
F 1 "1M" V 7134 1900 50  0000 C CNN
F 2 "Connector_PinHeader_2.54mm:PinHeader_1x03_P2.54mm_Vertical" H 7250 1900 50  0001 C CNN
F 3 "~" H 7250 1900 50  0001 C CNN
	1    7250 1900
	0    1    1    0   
$EndComp
$Comp
L power:+9V #PWR015
U 1 1 609EED27
P 7500 1700
F 0 "#PWR015" H 7500 1550 50  0001 C CNN
F 1 "+9V" H 7515 1873 50  0000 C CNN
F 2 "" H 7500 1700 50  0001 C CNN
F 3 "" H 7500 1700 50  0001 C CNN
	1    7500 1700
	1    0    0    -1  
$EndComp
Wire Wire Line
	7500 1700 7500 1900
Wire Wire Line
	7500 1900 7400 1900
Wire Wire Line
	6800 1900 7100 1900
Wire Wire Line
	7500 1900 7500 2100
Wire Wire Line
	7500 2100 7250 2100
Wire Wire Line
	7250 2100 7250 2050
Connection ~ 7500 1900
Wire Wire Line
	6800 1900 6800 2900
Wire Wire Line
	6800 3100 6650 3100
Wire Wire Line
	6650 2900 6800 2900
Connection ~ 6800 2900
Wire Wire Line
	6800 2900 6800 3100
Wire Wire Line
	6800 3200 6800 3100
Connection ~ 6800 3100
$Comp
L power:GND #PWR013
U 1 1 609F237E
P 6800 3550
F 0 "#PWR013" H 6800 3300 50  0001 C CNN
F 1 "GND" H 6805 3377 50  0000 C CNN
F 2 "" H 6800 3550 50  0001 C CNN
F 3 "" H 6800 3550 50  0001 C CNN
	1    6800 3550
	1    0    0    -1  
$EndComp
$Comp
L power:+9V #PWR09
U 1 1 609F4EBC
P 5450 3100
F 0 "#PWR09" H 5450 2950 50  0001 C CNN
F 1 "+9V" V 5465 3228 50  0000 L CNN
F 2 "" H 5450 3100 50  0001 C CNN
F 3 "" H 5450 3100 50  0001 C CNN
	1    5450 3100
	0    -1   -1   0   
$EndComp
Wire Wire Line
	5450 3100 5650 3100
NoConn ~ 5650 2900
$Comp
L power:PWR_FLAG #FLG02
U 1 1 609FB721
P 4150 4600
F 0 "#FLG02" H 4150 4675 50  0001 C CNN
F 1 "PWR_FLAG" H 4150 4773 50  0000 C CNN
F 2 "" H 4150 4600 50  0001 C CNN
F 3 "~" H 4150 4600 50  0001 C CNN
	1    4150 4600
	1    0    0    -1  
$EndComp
Wire Wire Line
	4150 4800 4150 4600
Wire Wire Line
	3750 4600 3750 4800
$Comp
L Device:Battery BT1
U 1 1 60A06CFC
P 5300 4700
F 0 "BT1" H 5408 4746 50  0000 L CNN
F 1 "9V" H 5408 4655 50  0000 L CNN
F 2 "Connector_PinHeader_2.54mm:PinHeader_2x01_P2.54mm_Vertical_SMD" V 5300 4760 50  0001 C CNN
F 3 "~" V 5300 4760 50  0001 C CNN
	1    5300 4700
	1    0    0    -1  
$EndComp
$Comp
L power:GND #PWR07
U 1 1 60A075E9
P 5300 4950
F 0 "#PWR07" H 5300 4700 50  0001 C CNN
F 1 "GND" H 5305 4777 50  0000 C CNN
F 2 "" H 5300 4950 50  0001 C CNN
F 3 "" H 5300 4950 50  0001 C CNN
	1    5300 4950
	1    0    0    -1  
$EndComp
Wire Wire Line
	5300 4950 5300 4900
$Comp
L power:+9V #PWR012
U 1 1 60A0BD43
P 6350 4400
F 0 "#PWR012" H 6350 4250 50  0001 C CNN
F 1 "+9V" H 6365 4573 50  0000 C CNN
F 2 "" H 6350 4400 50  0001 C CNN
F 3 "" H 6350 4400 50  0001 C CNN
	1    6350 4400
	1    0    0    -1  
$EndComp
Wire Wire Line
	6350 4400 6350 4500
$Comp
L Device:LED D1
U 1 1 60A0D94D
P 7250 4500
F 0 "D1" H 7243 4245 50  0000 C CNN
F 1 "LED" H 7243 4336 50  0000 C CNN
F 2 "LED_SMD:LED_0805_2012Metric_Pad1.15x1.40mm_HandSolder" H 7250 4500 50  0001 C CNN
F 3 "~" H 7250 4500 50  0001 C CNN
	1    7250 4500
	-1   0    0    1   
$EndComp
$Comp
L Device:R R3
U 1 1 60A0DD03
P 7550 4650
F 0 "R3" H 7480 4604 50  0000 R CNN
F 1 "470" H 7480 4695 50  0000 R CNN
F 2 "Resistor_SMD:R_0805_2012Metric_Pad1.20x1.40mm_HandSolder" V 7480 4650 50  0001 C CNN
F 3 "~" H 7550 4650 50  0001 C CNN
	1    7550 4650
	-1   0    0    1   
$EndComp
$Comp
L power:GND #PWR016
U 1 1 60A0F352
P 7550 4900
F 0 "#PWR016" H 7550 4650 50  0001 C CNN
F 1 "GND" H 7555 4727 50  0000 C CNN
F 2 "" H 7550 4900 50  0001 C CNN
F 3 "" H 7550 4900 50  0001 C CNN
	1    7550 4900
	1    0    0    -1  
$EndComp
$Comp
L power:+9V #PWR014
U 1 1 60A1F66A
P 7000 4400
F 0 "#PWR014" H 7000 4250 50  0001 C CNN
F 1 "+9V" H 7015 4573 50  0000 C CNN
F 2 "" H 7000 4400 50  0001 C CNN
F 3 "" H 7000 4400 50  0001 C CNN
	1    7000 4400
	1    0    0    -1  
$EndComp
Wire Wire Line
	7000 4400 7000 4500
Wire Wire Line
	7000 4500 7100 4500
Wire Wire Line
	7400 4500 7550 4500
Wire Wire Line
	7550 4800 7550 4900
Text Notes 8000 4850 0    50   ~ 0
R = (9 - 2)/20\nR = 350 Ohms\n=>\nR = 330 Ohms
$Comp
L power:GND #PWR018
U 1 1 60A285B6
P 8750 3400
F 0 "#PWR018" H 8750 3150 50  0001 C CNN
F 1 "GND" H 8755 3227 50  0000 C CNN
F 2 "" H 8750 3400 50  0001 C CNN
F 3 "" H 8750 3400 50  0001 C CNN
	1    8750 3400
	1    0    0    -1  
$EndComp
Wire Wire Line
	8750 3400 8750 2900
$Comp
L Switch:SW_DIP_x01 SW1
U 1 1 60A4D50E
P 5850 4500
F 0 "SW1" H 5850 4767 50  0000 C CNN
F 1 "SW1" H 5850 4676 50  0000 C CNN
F 2 "Connector_PinSocket_2.54mm:PinSocket_2x01_P2.54mm_Vertical_SMD" H 5850 4500 50  0001 C CNN
F 3 "~" H 5850 4500 50  0001 C CNN
	1    5850 4500
	1    0    0    -1  
$EndComp
Wire Wire Line
	5550 4500 5300 4500
Wire Wire Line
	6150 4500 6350 4500
$Comp
L Connector:Jack-DC J1
U 1 1 60A5DAFC
P 9050 2800
F 0 "J1" H 8820 2758 50  0000 R CNN
F 1 "Jack-DC" H 8820 2849 50  0000 R CNN
F 2 "Connector_PinSocket_2.54mm:PinSocket_2x01_P2.54mm_Vertical_SMD" H 9100 2760 50  0001 C CNN
F 3 "~" H 9100 2760 50  0001 C CNN
	1    9050 2800
	-1   0    0    1   
$EndComp
Wire Wire Line
	7850 2700 8750 2700
Connection ~ 7850 2700
Wire Wire Line
	6800 3550 6800 3500
$EndSCHEMATC
